<?xml version="1.0" encoding="utf-8"?>
<!DOCTYPE eagle SYSTEM "eagle.dtd">
<eagle version="9.1.3">
<drawing>
<settings>
<setting alwaysvectorfont="no"/>
<setting verticaltext="up"/>
</settings>
<grid distance="0.1" unitdist="inch" unit="inch" style="lines" multiple="1" display="no" altdistance="0.01" altunitdist="inch" altunit="inch"/>
<layers>
<layer number="1" name="Top" color="4" fill="1" visible="yes" active="yes"/>
<layer number="16" name="Bottom" color="1" fill="1" visible="yes" active="yes"/>
<layer number="17" name="Pads" color="2" fill="1" visible="yes" active="yes"/>
<layer number="18" name="Vias" color="2" fill="1" visible="yes" active="yes"/>
<layer number="19" name="Unrouted" color="6" fill="1" visible="yes" active="yes"/>
<layer number="20" name="Dimension" color="24" fill="1" visible="yes" active="yes"/>
<layer number="21" name="tPlace" color="7" fill="1" visible="yes" active="yes"/>
<layer number="22" name="bPlace" color="7" fill="1" visible="yes" active="yes"/>
<layer number="23" name="tOrigins" color="15" fill="1" visible="yes" active="yes"/>
<layer number="24" name="bOrigins" color="15" fill="1" visible="yes" active="yes"/>
<layer number="25" name="tNames" color="7" fill="1" visible="yes" active="yes"/>
<layer number="26" name="bNames" color="7" fill="1" visible="yes" active="yes"/>
<layer number="27" name="tValues" color="7" fill="1" visible="yes" active="yes"/>
<layer number="28" name="bValues" color="7" fill="1" visible="yes" active="yes"/>
<layer number="29" name="tStop" color="7" fill="3" visible="yes" active="yes"/>
<layer number="30" name="bStop" color="7" fill="6" visible="no" active="yes"/>
<layer number="31" name="tCream" color="7" fill="4" visible="no" active="yes"/>
<layer number="32" name="bCream" color="7" fill="5" visible="no" active="yes"/>
<layer number="33" name="tFinish" color="6" fill="3" visible="no" active="yes"/>
<layer number="34" name="bFinish" color="6" fill="6" visible="no" active="yes"/>
<layer number="35" name="tGlue" color="7" fill="4" visible="no" active="yes"/>
<layer number="36" name="bGlue" color="7" fill="5" visible="no" active="yes"/>
<layer number="37" name="tTest" color="7" fill="1" visible="no" active="yes"/>
<layer number="38" name="bTest" color="7" fill="1" visible="no" active="yes"/>
<layer number="39" name="tKeepout" color="4" fill="11" visible="yes" active="yes"/>
<layer number="40" name="bKeepout" color="1" fill="11" visible="yes" active="yes"/>
<layer number="41" name="tRestrict" color="4" fill="10" visible="yes" active="yes"/>
<layer number="42" name="bRestrict" color="1" fill="10" visible="yes" active="yes"/>
<layer number="43" name="vRestrict" color="2" fill="10" visible="yes" active="yes"/>
<layer number="44" name="Drills" color="7" fill="1" visible="no" active="yes"/>
<layer number="45" name="Holes" color="7" fill="1" visible="no" active="yes"/>
<layer number="46" name="Milling" color="3" fill="1" visible="no" active="yes"/>
<layer number="47" name="Measures" color="7" fill="1" visible="no" active="yes"/>
<layer number="48" name="Document" color="7" fill="1" visible="yes" active="yes"/>
<layer number="49" name="Reference" color="7" fill="1" visible="yes" active="yes"/>
<layer number="50" name="dxf" color="7" fill="1" visible="no" active="no"/>
<layer number="51" name="tDocu" color="7" fill="1" visible="yes" active="yes"/>
<layer number="52" name="bDocu" color="7" fill="1" visible="yes" active="yes"/>
<layer number="53" name="tGND_GNDA" color="7" fill="9" visible="no" active="no"/>
<layer number="54" name="bGND_GNDA" color="1" fill="9" visible="no" active="no"/>
<layer number="56" name="wert" color="7" fill="1" visible="no" active="no"/>
<layer number="57" name="tCAD" color="7" fill="1" visible="no" active="no"/>
<layer number="59" name="tCarbon" color="7" fill="1" visible="no" active="no"/>
<layer number="60" name="bCarbon" color="7" fill="1" visible="no" active="no"/>
<layer number="88" name="SimResults" color="9" fill="1" visible="yes" active="yes"/>
<layer number="89" name="SimProbes" color="9" fill="1" visible="yes" active="yes"/>
<layer number="90" name="Modules" color="5" fill="1" visible="yes" active="yes"/>
<layer number="91" name="Nets" color="2" fill="1" visible="yes" active="yes"/>
<layer number="92" name="Busses" color="1" fill="1" visible="yes" active="yes"/>
<layer number="93" name="Pins" color="2" fill="1" visible="yes" active="yes"/>
<layer number="94" name="Symbols" color="4" fill="1" visible="yes" active="yes"/>
<layer number="95" name="Names" color="7" fill="1" visible="yes" active="yes"/>
<layer number="96" name="Values" color="7" fill="1" visible="yes" active="yes"/>
<layer number="97" name="Info" color="7" fill="1" visible="yes" active="yes"/>
<layer number="98" name="Guide" color="6" fill="1" visible="yes" active="yes"/>
<layer number="99" name="SpiceOrder" color="7" fill="1" visible="yes" active="yes"/>
<layer number="100" name="Muster" color="7" fill="1" visible="no" active="no"/>
<layer number="101" name="Patch_Top" color="12" fill="4" visible="yes" active="yes"/>
<layer number="102" name="Vscore" color="7" fill="1" visible="yes" active="yes"/>
<layer number="103" name="tMap" color="7" fill="1" visible="yes" active="yes"/>
<layer number="104" name="Name" color="16" fill="1" visible="yes" active="yes"/>
<layer number="105" name="tPlate" color="7" fill="1" visible="yes" active="yes"/>
<layer number="106" name="bPlate" color="7" fill="1" visible="yes" active="yes"/>
<layer number="107" name="Crop" color="7" fill="1" visible="yes" active="yes"/>
<layer number="108" name="tplace-old" color="10" fill="1" visible="yes" active="yes"/>
<layer number="109" name="ref-old" color="11" fill="1" visible="yes" active="yes"/>
<layer number="110" name="fp0" color="7" fill="1" visible="yes" active="yes"/>
<layer number="111" name="LPC17xx" color="7" fill="1" visible="yes" active="yes"/>
<layer number="112" name="tSilk" color="7" fill="1" visible="yes" active="yes"/>
<layer number="113" name="IDFDebug" color="7" fill="1" visible="yes" active="yes"/>
<layer number="114" name="Badge_Outline" color="7" fill="1" visible="yes" active="yes"/>
<layer number="115" name="ReferenceISLANDS" color="7" fill="1" visible="yes" active="yes"/>
<layer number="116" name="Patch_BOT" color="9" fill="4" visible="yes" active="yes"/>
<layer number="118" name="Rect_Pads" color="7" fill="1" visible="yes" active="yes"/>
<layer number="121" name="_tsilk" color="7" fill="1" visible="yes" active="yes"/>
<layer number="122" name="_bsilk" color="7" fill="1" visible="yes" active="yes"/>
<layer number="123" name="tTestmark" color="7" fill="1" visible="yes" active="yes"/>
<layer number="124" name="bTestmark" color="7" fill="1" visible="yes" active="yes"/>
<layer number="125" name="_tNames" color="7" fill="1" visible="yes" active="yes"/>
<layer number="126" name="_bNames" color="7" fill="1" visible="yes" active="yes"/>
<layer number="127" name="_tValues" color="7" fill="1" visible="yes" active="yes"/>
<layer number="128" name="_bValues" color="7" fill="1" visible="yes" active="yes"/>
<layer number="129" name="Mask" color="7" fill="1" visible="yes" active="yes"/>
<layer number="131" name="tAdjust" color="7" fill="1" visible="yes" active="yes"/>
<layer number="132" name="bAdjust" color="7" fill="1" visible="yes" active="yes"/>
<layer number="144" name="Drill_legend" color="7" fill="1" visible="yes" active="yes"/>
<layer number="150" name="Notes" color="7" fill="1" visible="yes" active="yes"/>
<layer number="151" name="HeatSink" color="7" fill="1" visible="yes" active="yes"/>
<layer number="152" name="_bDocu" color="7" fill="1" visible="yes" active="yes"/>
<layer number="153" name="FabDoc1" color="7" fill="1" visible="yes" active="yes"/>
<layer number="154" name="FabDoc2" color="7" fill="1" visible="yes" active="yes"/>
<layer number="155" name="FabDoc3" color="7" fill="1" visible="yes" active="yes"/>
<layer number="199" name="Contour" color="7" fill="1" visible="yes" active="yes"/>
<layer number="200" name="200bmp" color="1" fill="10" visible="yes" active="yes"/>
<layer number="201" name="201bmp" color="2" fill="10" visible="yes" active="yes"/>
<layer number="202" name="202bmp" color="3" fill="10" visible="yes" active="yes"/>
<layer number="203" name="203bmp" color="4" fill="10" visible="yes" active="yes"/>
<layer number="204" name="204bmp" color="5" fill="10" visible="yes" active="yes"/>
<layer number="205" name="205bmp" color="6" fill="10" visible="yes" active="yes"/>
<layer number="206" name="206bmp" color="7" fill="10" visible="yes" active="yes"/>
<layer number="207" name="207bmp" color="8" fill="10" visible="yes" active="yes"/>
<layer number="208" name="208bmp" color="9" fill="10" visible="yes" active="yes"/>
<layer number="209" name="209bmp" color="7" fill="1" visible="yes" active="yes"/>
<layer number="210" name="210bmp" color="7" fill="1" visible="yes" active="yes"/>
<layer number="211" name="211bmp" color="7" fill="1" visible="yes" active="yes"/>
<layer number="212" name="212bmp" color="7" fill="1" visible="yes" active="yes"/>
<layer number="213" name="213bmp" color="7" fill="1" visible="yes" active="yes"/>
<layer number="214" name="214bmp" color="7" fill="1" visible="yes" active="yes"/>
<layer number="215" name="215bmp" color="7" fill="1" visible="yes" active="yes"/>
<layer number="216" name="216bmp" color="7" fill="1" visible="yes" active="yes"/>
<layer number="217" name="217bmp" color="18" fill="1" visible="no" active="no"/>
<layer number="218" name="218bmp" color="19" fill="1" visible="no" active="no"/>
<layer number="219" name="219bmp" color="20" fill="1" visible="no" active="no"/>
<layer number="220" name="220bmp" color="21" fill="1" visible="no" active="no"/>
<layer number="221" name="221bmp" color="22" fill="1" visible="no" active="no"/>
<layer number="222" name="222bmp" color="23" fill="1" visible="no" active="no"/>
<layer number="223" name="223bmp" color="24" fill="1" visible="no" active="no"/>
<layer number="224" name="224bmp" color="25" fill="1" visible="no" active="no"/>
<layer number="225" name="225bmp" color="7" fill="1" visible="yes" active="yes"/>
<layer number="226" name="226bmp" color="7" fill="1" visible="yes" active="yes"/>
<layer number="227" name="227bmp" color="7" fill="1" visible="yes" active="yes"/>
<layer number="228" name="228bmp" color="7" fill="1" visible="yes" active="yes"/>
<layer number="229" name="229bmp" color="7" fill="1" visible="yes" active="yes"/>
<layer number="230" name="230bmp" color="7" fill="1" visible="yes" active="yes"/>
<layer number="231" name="231bmp" color="7" fill="1" visible="yes" active="yes"/>
<layer number="248" name="Housing" color="7" fill="1" visible="yes" active="yes"/>
<layer number="249" name="Edge" color="7" fill="1" visible="yes" active="yes"/>
<layer number="250" name="Descript" color="3" fill="1" visible="no" active="no"/>
<layer number="251" name="SMDround" color="12" fill="11" visible="no" active="no"/>
<layer number="254" name="cooling" color="7" fill="1" visible="yes" active="yes"/>
<layer number="255" name="routoute" color="7" fill="1" visible="yes" active="yes"/>
</layers>
<library>
<packages>
<package name="TQFP32-08" urn="urn:adsk.eagle:footprint:38853/1">
<description>&lt;B&gt;Thin Plasic Quad Flat Package&lt;/B&gt; Grid 0.8 mm</description>
<wire x1="3.505" y1="3.505" x2="3.505" y2="-3.505" width="0.2032" layer="21"/>
<wire x1="3.505" y1="-3.505" x2="-3.505" y2="-3.505" width="0.2032" layer="21"/>
<wire x1="-3.505" y1="-3.505" x2="-3.505" y2="3.15" width="0.2032" layer="21"/>
<wire x1="-3.15" y1="3.505" x2="3.505" y2="3.505" width="0.2032" layer="21"/>
<wire x1="-3.15" y1="3.505" x2="-3.505" y2="3.15" width="0.2032" layer="21"/>
<circle x="-3.6576" y="3.683" radius="0.1524" width="0.2032" layer="21"/>
<smd name="1" x="-4.2926" y="2.8" dx="1.27" dy="0.5588" layer="1"/>
<smd name="2" x="-4.2926" y="2" dx="1.27" dy="0.5588" layer="1"/>
<smd name="3" x="-4.2926" y="1.2" dx="1.27" dy="0.5588" layer="1"/>
<smd name="4" x="-4.2926" y="0.4" dx="1.27" dy="0.5588" layer="1"/>
<smd name="5" x="-4.2926" y="-0.4" dx="1.27" dy="0.5588" layer="1"/>
<smd name="6" x="-4.2926" y="-1.2" dx="1.27" dy="0.5588" layer="1"/>
<smd name="7" x="-4.2926" y="-2" dx="1.27" dy="0.5588" layer="1"/>
<smd name="8" x="-4.2926" y="-2.8" dx="1.27" dy="0.5588" layer="1"/>
<smd name="9" x="-2.8" y="-4.2926" dx="0.5588" dy="1.27" layer="1"/>
<smd name="10" x="-2" y="-4.2926" dx="0.5588" dy="1.27" layer="1"/>
<smd name="11" x="-1.2" y="-4.2926" dx="0.5588" dy="1.27" layer="1"/>
<smd name="12" x="-0.4" y="-4.2926" dx="0.5588" dy="1.27" layer="1"/>
<smd name="13" x="0.4" y="-4.2926" dx="0.5588" dy="1.27" layer="1"/>
<smd name="14" x="1.2" y="-4.2926" dx="0.5588" dy="1.27" layer="1"/>
<smd name="15" x="2" y="-4.2926" dx="0.5588" dy="1.27" layer="1"/>
<smd name="16" x="2.8" y="-4.2926" dx="0.5588" dy="1.27" layer="1"/>
<smd name="17" x="4.2926" y="-2.8" dx="1.27" dy="0.5588" layer="1"/>
<smd name="18" x="4.2926" y="-2" dx="1.27" dy="0.5588" layer="1"/>
<smd name="19" x="4.2926" y="-1.2" dx="1.27" dy="0.5588" layer="1"/>
<smd name="20" x="4.2926" y="-0.4" dx="1.27" dy="0.5588" layer="1"/>
<smd name="21" x="4.2926" y="0.4" dx="1.27" dy="0.5588" layer="1"/>
<smd name="22" x="4.2926" y="1.2" dx="1.27" dy="0.5588" layer="1"/>
<smd name="23" x="4.2926" y="2" dx="1.27" dy="0.5588" layer="1"/>
<smd name="24" x="4.2926" y="2.8" dx="1.27" dy="0.5588" layer="1"/>
<smd name="25" x="2.8" y="4.2926" dx="0.5588" dy="1.27" layer="1"/>
<smd name="26" x="2" y="4.2926" dx="0.5588" dy="1.27" layer="1"/>
<smd name="27" x="1.2" y="4.2926" dx="0.5588" dy="1.27" layer="1"/>
<smd name="28" x="0.4" y="4.2926" dx="0.5588" dy="1.27" layer="1"/>
<smd name="29" x="-0.4" y="4.2926" dx="0.5588" dy="1.27" layer="1"/>
<smd name="30" x="-1.2" y="4.2926" dx="0.5588" dy="1.27" layer="1"/>
<smd name="31" x="-2" y="4.2926" dx="0.5588" dy="1.27" layer="1"/>
<smd name="32" x="-2.8" y="4.2926" dx="0.5588" dy="1.27" layer="1"/>
<rectangle x1="-4.5466" y1="2.5714" x2="-3.556" y2="3.0286" layer="51"/>
<rectangle x1="-4.5466" y1="1.7714" x2="-3.556" y2="2.2286" layer="51"/>
<rectangle x1="-4.5466" y1="0.9714" x2="-3.556" y2="1.4286" layer="51"/>
<rectangle x1="-4.5466" y1="0.1714" x2="-3.556" y2="0.6286" layer="51"/>
<rectangle x1="-4.5466" y1="-0.6286" x2="-3.556" y2="-0.1714" layer="51"/>
<rectangle x1="-4.5466" y1="-1.4286" x2="-3.556" y2="-0.9714" layer="51"/>
<rectangle x1="-4.5466" y1="-2.2286" x2="-3.556" y2="-1.7714" layer="51"/>
<rectangle x1="-4.5466" y1="-3.0286" x2="-3.556" y2="-2.5714" layer="51"/>
<rectangle x1="-3.0286" y1="-4.5466" x2="-2.5714" y2="-3.556" layer="51"/>
<rectangle x1="-2.2286" y1="-4.5466" x2="-1.7714" y2="-3.556" layer="51"/>
<rectangle x1="-1.4286" y1="-4.5466" x2="-0.9714" y2="-3.556" layer="51"/>
<rectangle x1="-0.6286" y1="-4.5466" x2="-0.1714" y2="-3.556" layer="51"/>
<rectangle x1="0.1714" y1="-4.5466" x2="0.6286" y2="-3.556" layer="51"/>
<rectangle x1="0.9714" y1="-4.5466" x2="1.4286" y2="-3.556" layer="51"/>
<rectangle x1="1.7714" y1="-4.5466" x2="2.2286" y2="-3.556" layer="51"/>
<rectangle x1="2.5714" y1="-4.5466" x2="3.0286" y2="-3.556" layer="51"/>
<rectangle x1="3.556" y1="-3.0286" x2="4.5466" y2="-2.5714" layer="51"/>
<rectangle x1="3.556" y1="-2.2286" x2="4.5466" y2="-1.7714" layer="51"/>
<rectangle x1="3.556" y1="-1.4286" x2="4.5466" y2="-0.9714" layer="51"/>
<rectangle x1="3.556" y1="-0.6286" x2="4.5466" y2="-0.1714" layer="51"/>
<rectangle x1="3.556" y1="0.1714" x2="4.5466" y2="0.6286" layer="51"/>
<rectangle x1="3.556" y1="0.9714" x2="4.5466" y2="1.4286" layer="51"/>
<rectangle x1="3.556" y1="1.7714" x2="4.5466" y2="2.2286" layer="51"/>
<rectangle x1="3.556" y1="2.5714" x2="4.5466" y2="3.0286" layer="51"/>
<rectangle x1="2.5714" y1="3.556" x2="3.0286" y2="4.5466" layer="51"/>
<rectangle x1="1.7714" y1="3.556" x2="2.2286" y2="4.5466" layer="51"/>
<rectangle x1="0.9714" y1="3.556" x2="1.4286" y2="4.5466" layer="51"/>
<rectangle x1="0.1714" y1="3.556" x2="0.6286" y2="4.5466" layer="51"/>
<rectangle x1="-0.6286" y1="3.556" x2="-0.1714" y2="4.5466" layer="51"/>
<rectangle x1="-1.4286" y1="3.556" x2="-0.9714" y2="4.5466" layer="51"/>
<rectangle x1="-2.2286" y1="3.556" x2="-1.7714" y2="4.5466" layer="51"/>
<rectangle x1="-3.0286" y1="3.556" x2="-2.5714" y2="4.5466" layer="51"/>
<text x="0" y="5.715" size="0.6096" layer="25" font="vector" ratio="20" align="bottom-center">&gt;NAME</text>
<text x="0" y="-6.35" size="0.6096" layer="27" font="vector" ratio="20" align="bottom-center">&gt;VALUE</text>
</package>
<package name="PS1240P02BT">
<circle x="0" y="0" radius="6.35" width="0.127" layer="21"/>
<text x="7.62" y="2.54" size="1.27" layer="25">&gt;NAME</text>
<text x="7.62" y="0" size="1.27" layer="27">&gt;VALUE</text>
<pad name="P$1" x="-2.5" y="0" drill="0.75" shape="octagon"/>
<pad name="P$2" x="2.5" y="0" drill="0.75" shape="octagon"/>
</package>
<package name="LCD-S301C31TR">
<wire x1="-15.35" y1="8.1" x2="-15.35" y2="-8.1" width="0.127" layer="21"/>
<wire x1="-15.35" y1="-8.1" x2="15.35" y2="-8.1" width="0.127" layer="21"/>
<wire x1="15.35" y1="-8.1" x2="15.35" y2="8.1" width="0.127" layer="21"/>
<wire x1="15.35" y1="8.1" x2="-15.35" y2="8.1" width="0.127" layer="21"/>
<text x="-15.24" y="10.16" size="1.27" layer="25">&gt;NAME</text>
<text x="-15.24" y="-11.43" size="1.27" layer="27">&gt;VALUE</text>
<pad name="24" x="-13.97" y="9.05" drill="0.7" shape="octagon"/>
<pad name="23" x="-11.43" y="9.05" drill="0.7" shape="octagon"/>
<pad name="22" x="-8.89" y="9.05" drill="0.7" shape="octagon"/>
<pad name="21" x="-6.35" y="9.05" drill="0.7" shape="octagon"/>
<pad name="20" x="-3.81" y="9.05" drill="0.7" shape="octagon"/>
<pad name="19" x="-1.27" y="9.05" drill="0.7" shape="octagon"/>
<pad name="18" x="1.27" y="9.05" drill="0.7" shape="octagon"/>
<pad name="17" x="3.81" y="9.05" drill="0.7" shape="octagon"/>
<pad name="16" x="6.35" y="9.05" drill="0.7" shape="octagon"/>
<pad name="15" x="8.89" y="9.05" drill="0.7" shape="octagon"/>
<pad name="14" x="11.43" y="9.05" drill="0.7" shape="octagon"/>
<pad name="13" x="13.97" y="9.05" drill="0.7" shape="octagon"/>
<pad name="1" x="-13.97" y="-9.05" drill="0.7" shape="octagon"/>
<pad name="2" x="-11.43" y="-9.05" drill="0.7" shape="octagon"/>
<pad name="3" x="-8.89" y="-9.05" drill="0.7" shape="octagon"/>
<pad name="4" x="-6.35" y="-9.05" drill="0.7" shape="octagon"/>
<pad name="5" x="-3.81" y="-9.05" drill="0.7" shape="octagon"/>
<pad name="6" x="-1.27" y="-9.05" drill="0.7" shape="octagon"/>
<pad name="7" x="1.27" y="-9.05" drill="0.7" shape="octagon"/>
<pad name="8" x="3.81" y="-9.05" drill="0.7" shape="octagon"/>
<pad name="9" x="6.35" y="-9.05" drill="0.7" shape="octagon"/>
<pad name="10" x="8.89" y="-9.05" drill="0.7" shape="octagon"/>
<pad name="11" x="11.43" y="-9.05" drill="0.7" shape="octagon"/>
<pad name="12" x="13.97" y="-9.05" drill="0.7" shape="octagon"/>
<wire x1="-13.95" y1="-5" x2="13.95" y2="-5" width="0.127" layer="51"/>
<wire x1="13.95" y1="-5" x2="13.95" y2="5" width="0.127" layer="51"/>
<wire x1="13.95" y1="5" x2="-13.95" y2="5" width="0.127" layer="51"/>
<wire x1="-13.95" y1="5" x2="-13.95" y2="-5" width="0.127" layer="51"/>
<text x="-3.81" y="-1.27" size="2.54" layer="51">8.8.8</text>
<wire x1="-14.732" y1="-7.874" x2="-13.208" y2="-7.874" width="0.127" layer="21"/>
</package>
<package name="SOT223" urn="urn:adsk.eagle:footprint:28695/1">
<description>&lt;b&gt;Small Outline Transistor&lt;/b&gt;</description>
<wire x1="3.2766" y1="1.778" x2="3.2766" y2="-1.778" width="0.2032" layer="21"/>
<wire x1="3.2766" y1="-1.778" x2="-3.2766" y2="-1.778" width="0.2032" layer="21"/>
<wire x1="-3.2766" y1="-1.778" x2="-3.2766" y2="1.778" width="0.2032" layer="21"/>
<wire x1="-3.2766" y1="1.778" x2="3.2766" y2="1.778" width="0.2032" layer="21"/>
<smd name="1" x="-2.3114" y="-3.0988" dx="1.2192" dy="2.2352" layer="1"/>
<smd name="2" x="0" y="-3.0988" dx="1.2192" dy="2.2352" layer="1"/>
<smd name="3" x="2.3114" y="-3.0988" dx="1.2192" dy="2.2352" layer="1"/>
<smd name="4" x="0" y="3.099" dx="3.6" dy="2.2" layer="1"/>
<text x="1.0208" y="-4.318" size="0.8128" layer="21" ratio="12">3</text>
<text x="1.905" y="2.54" size="0.8128" layer="21" ratio="12">4</text>
<text x="-3.4526" y="-4.318" size="0.8128" layer="21" ratio="12">1</text>
<text x="-1.2906" y="-4.3274" size="0.8128" layer="21" ratio="12">2</text>
<text x="-2.54" y="0.0508" size="1.27" layer="25">&gt;NAME</text>
<text x="-2.54" y="-1.3208" size="1.27" layer="27">&gt;VALUE</text>
<rectangle x1="-1.6002" y1="1.8034" x2="1.6002" y2="3.6576" layer="51"/>
<rectangle x1="-0.4318" y1="-3.6576" x2="0.4318" y2="-1.8034" layer="51"/>
<rectangle x1="-2.7432" y1="-3.6576" x2="-1.8796" y2="-1.8034" layer="51"/>
<rectangle x1="1.8796" y1="-3.6576" x2="2.7432" y2="-1.8034" layer="51"/>
<rectangle x1="-1.6002" y1="1.8034" x2="1.6002" y2="3.6576" layer="51"/>
<rectangle x1="-0.4318" y1="-3.6576" x2="0.4318" y2="-1.8034" layer="51"/>
<rectangle x1="-2.7432" y1="-3.6576" x2="-1.8796" y2="-1.8034" layer="51"/>
<rectangle x1="1.8796" y1="-3.6576" x2="2.7432" y2="-1.8034" layer="51"/>
</package>
<package name="TO252">
<description>&lt;b&gt;SMALL OUTLINE TRANSISTOR&lt;/b&gt;&lt;p&gt;
TS-003</description>
<wire x1="3.2766" y1="3.8354" x2="3.277" y2="-2.159" width="0.2032" layer="21"/>
<wire x1="3.277" y1="-2.159" x2="-3.277" y2="-2.159" width="0.2032" layer="21"/>
<wire x1="-3.277" y1="-2.159" x2="-3.2766" y2="3.8354" width="0.2032" layer="21"/>
<wire x1="-3.277" y1="3.835" x2="3.2774" y2="3.8346" width="0.2032" layer="51"/>
<wire x1="-3.973" y1="5.983" x2="3.973" y2="5.983" width="0.0508" layer="39"/>
<wire x1="3.973" y1="-5.983" x2="-3.973" y2="-5.983" width="0.0508" layer="39"/>
<wire x1="-3.973" y1="-5.983" x2="-3.973" y2="5.983" width="0.0508" layer="39"/>
<wire x1="3.973" y1="5.983" x2="3.973" y2="-5.983" width="0.0508" layer="39"/>
<wire x1="-2.5654" y1="3.937" x2="-2.5654" y2="4.6482" width="0.2032" layer="51"/>
<wire x1="-2.5654" y1="4.6482" x2="-2.1082" y2="5.1054" width="0.2032" layer="51"/>
<wire x1="-2.1082" y1="5.1054" x2="2.1082" y2="5.1054" width="0.2032" layer="51"/>
<wire x1="2.1082" y1="5.1054" x2="2.5654" y2="4.6482" width="0.2032" layer="51"/>
<wire x1="2.5654" y1="4.6482" x2="2.5654" y2="3.937" width="0.2032" layer="51"/>
<wire x1="2.5654" y1="3.937" x2="-2.5654" y2="3.937" width="0.2032" layer="51"/>
<smd name="3" x="0" y="2.5" dx="5.4" dy="6.2" layer="1"/>
<smd name="1" x="-2.28" y="-4.8" dx="1" dy="1.6" layer="1"/>
<smd name="2" x="2.28" y="-4.8" dx="1" dy="1.6" layer="1"/>
<text x="-3.81" y="-2.54" size="1.27" layer="25" rot="R90">&gt;NAME</text>
<text x="5.08" y="-2.54" size="1.27" layer="27" rot="R90">&gt;VALUE</text>
<rectangle x1="-2.7178" y1="-5.1562" x2="-1.8542" y2="-2.2606" layer="51"/>
<rectangle x1="1.8542" y1="-5.1562" x2="2.7178" y2="-2.2606" layer="51"/>
<rectangle x1="-0.4318" y1="-3.0226" x2="0.4318" y2="-2.2606" layer="21"/>
<polygon width="0.1998" layer="51">
<vertex x="-2.5654" y="3.937"/>
<vertex x="-2.5654" y="4.6482"/>
<vertex x="-2.1082" y="5.1054"/>
<vertex x="2.1082" y="5.1054"/>
<vertex x="2.5654" y="4.6482"/>
<vertex x="2.5654" y="3.937"/>
</polygon>
</package>
<package name="SOT95P280X145-5" urn="urn:adsk.eagle:footprint:4937210/1">
<description>5-SOT23, 0.95 mm pitch, 2.80 mm span, 2.90 X 1.60 X 1.45 mm body
&lt;p&gt;5-pin SOT23 package with 0.95 mm pitch, 2.80 mm span with body size 2.90 X 1.60 X 1.45 mm&lt;/p&gt;</description>
<circle x="-1.404" y="1.7486" radius="0.25" width="0" layer="21"/>
<wire x1="-0.9" y1="1.5586" x2="0.9" y2="1.5586" width="0.12" layer="21"/>
<wire x1="-0.9" y1="-1.5586" x2="0.9" y2="-1.5586" width="0.12" layer="21"/>
<wire x1="0.9" y1="-1.55" x2="-0.9" y2="-1.55" width="0.12" layer="51"/>
<wire x1="-0.9" y1="-1.55" x2="-0.9" y2="1.55" width="0.12" layer="51"/>
<wire x1="-0.9" y1="1.55" x2="0.9" y2="1.55" width="0.12" layer="51"/>
<wire x1="0.9" y1="1.55" x2="0.9" y2="-1.55" width="0.12" layer="51"/>
<smd name="1" x="-1.2533" y="0.95" dx="1.2088" dy="0.5891" layer="1"/>
<smd name="2" x="-1.2533" y="0" dx="1.2088" dy="0.5891" layer="1"/>
<smd name="3" x="-1.2533" y="-0.95" dx="1.2088" dy="0.5891" layer="1"/>
<smd name="4" x="1.2533" y="-0.95" dx="1.2088" dy="0.5891" layer="1"/>
<smd name="5" x="1.2533" y="0.95" dx="1.2088" dy="0.5891" layer="1"/>
<text x="0" y="2.6336" size="1.27" layer="25" align="bottom-center">&gt;NAME</text>
<text x="0" y="-2.1936" size="1.27" layer="27" align="top-center">&gt;VALUE</text>
</package>
<package name="SOD-323">
<smd name="C" x="1.1125" y="0" dx="0.63" dy="0.83" layer="1"/>
<smd name="A" x="-1.1125" y="0" dx="0.63" dy="0.83" layer="1"/>
<wire x1="0.508" y1="0.762" x2="0.508" y2="-0.762" width="0.127" layer="21"/>
<wire x1="-0.85" y1="0.625" x2="0.85" y2="0.625" width="0.127" layer="21"/>
<wire x1="-0.85" y1="-0.625" x2="0.85" y2="-0.625" width="0.127" layer="21"/>
<wire x1="0.381" y1="0.762" x2="0.381" y2="-0.762" width="0.127" layer="21"/>
<text x="-1.27" y="1.27" size="1.27" layer="25">&gt;NAME</text>
<text x="-1.27" y="-2.54" size="1.27" layer="27">&gt;VALUE</text>
</package>
<package name="EVPAW">
<smd name="2" x="1.625" y="0" dx="1.5" dy="0.55" layer="1" rot="R90"/>
<smd name="1" x="-1.625" y="0" dx="1.5" dy="0.55" layer="1" rot="R90"/>
<rectangle x1="-0.95" y1="-0.95" x2="0.95" y2="0.95" layer="39"/>
<wire x1="-1.65" y1="1" x2="1.65" y2="1" width="0.127" layer="21"/>
<wire x1="-1.65" y1="-1" x2="1.65" y2="-1" width="0.127" layer="21"/>
<text x="-1.27" y="1.27" size="1.27" layer="25">&gt;NAME</text>
<text x="-1.27" y="-2.54" size="1.27" layer="27">&gt;VALUE</text>
</package>
<package name="TO229P990X239-3" urn="urn:adsk.eagle:footprint:7057146/1">
<description>3-TO, DPAK, 2.29 mm pitch, 9.90 mm span, 6.54 X 6.09 X 2.39 mm body
&lt;p&gt;3-pin TO, DPAK package with 2.29 mm pitch, 9.90 mm span with body size 6.54 X 6.09 X 2.39 mm&lt;/p&gt;</description>
<circle x="-4.4346" y="3.2805" radius="0.25" width="0" layer="21"/>
<wire x1="4.115" y1="3.0201" x2="4.115" y2="3.365" width="0.12" layer="21"/>
<wire x1="4.115" y1="3.365" x2="-2.105" y2="3.365" width="0.12" layer="21"/>
<wire x1="-2.105" y1="3.365" x2="-2.105" y2="-3.365" width="0.12" layer="21"/>
<wire x1="-2.105" y1="-3.365" x2="4.115" y2="-3.365" width="0.12" layer="21"/>
<wire x1="4.115" y1="-3.365" x2="4.115" y2="-3.0201" width="0.12" layer="21"/>
<wire x1="4.115" y1="-3.365" x2="-2.105" y2="-3.365" width="0.12" layer="51"/>
<wire x1="-2.105" y1="-3.365" x2="-2.105" y2="3.365" width="0.12" layer="51"/>
<wire x1="-2.105" y1="3.365" x2="4.115" y2="3.365" width="0.12" layer="51"/>
<wire x1="4.115" y1="3.365" x2="4.115" y2="-3.365" width="0.12" layer="51"/>
<smd name="1" x="-4.4346" y="2.29" dx="2.2371" dy="0.973" layer="1"/>
<smd name="2" x="-4.4346" y="-2.29" dx="2.2371" dy="0.973" layer="1"/>
<smd name="3" x="2.0523" y="0" dx="7.0016" dy="5.5321" layer="1"/>
<text x="0" y="4.1655" size="1.27" layer="25" align="bottom-center">&gt;NAME</text>
<text x="0" y="-4" size="1.27" layer="27" align="top-center">&gt;VALUE</text>
</package>
</packages>
<packages3d>
<package3d name="TQFP32-08" urn="urn:adsk.eagle:package:38945/1" type="box">
<description>Thin Plasic Quad Flat Package Grid 0.8 mm</description>
<packageinstances>
<packageinstance name="TQFP32-08"/>
</packageinstances>
</package3d>
<package3d name="SOT95P280X145-5" urn="urn:adsk.eagle:package:4937208/1" type="model">
<description>5-SOT23, 0.95 mm pitch, 2.80 mm span, 2.90 X 1.60 X 1.45 mm body
&lt;p&gt;5-pin SOT23 package with 0.95 mm pitch, 2.80 mm span with body size 2.90 X 1.60 X 1.45 mm&lt;/p&gt;</description>
<packageinstances>
<packageinstance name="SOT95P280X145-5"/>
</packageinstances>
</package3d>
<package3d name="TO229P990X239-3" urn="urn:adsk.eagle:package:7057133/1" type="model">
<description>3-TO, DPAK, 2.29 mm pitch, 9.90 mm span, 6.54 X 6.09 X 2.39 mm body
&lt;p&gt;3-pin TO, DPAK package with 2.29 mm pitch, 9.90 mm span with body size 6.54 X 6.09 X 2.39 mm&lt;/p&gt;</description>
<packageinstances>
<packageinstance name="TO229P990X239-3"/>
</packageinstances>
</package3d>
</packages3d>
<symbols>
<symbol name="ATMEGAXX8-32PIN">
<description>Symbol for Atmega328/168/88/48 chips, 32-pin version</description>
<wire x1="-17.78" y1="27.94" x2="20.32" y2="27.94" width="0.254" layer="94"/>
<wire x1="20.32" y1="27.94" x2="20.32" y2="-35.56" width="0.254" layer="94"/>
<wire x1="20.32" y1="-35.56" x2="-17.78" y2="-35.56" width="0.254" layer="94"/>
<wire x1="-17.78" y1="-35.56" x2="-17.78" y2="27.94" width="0.254" layer="94"/>
<text x="-17.78" y="28.702" size="1.778" layer="95">&gt;NAME</text>
<text x="-17.78" y="-38.1" size="1.778" layer="96">&gt;VALUE</text>
<pin name="PB5(SCK)" x="25.4" y="-33.02" length="middle" rot="R180"/>
<pin name="PB7(XTAL2/TOSC2)" x="-22.86" y="0" length="middle"/>
<pin name="PB6(XTAL1/TOSC1)" x="-22.86" y="5.08" length="middle"/>
<pin name="GND@3" x="-22.86" y="-30.48" length="middle"/>
<pin name="GND@5" x="-22.86" y="-33.02" length="middle"/>
<pin name="VCC@4" x="-22.86" y="17.78" length="middle"/>
<pin name="VCC@6" x="-22.86" y="15.24" length="middle"/>
<pin name="GND" x="-22.86" y="-27.94" length="middle"/>
<pin name="AREF" x="-22.86" y="10.16" length="middle"/>
<pin name="AVCC" x="-22.86" y="20.32" length="middle"/>
<pin name="PB4(MISO)" x="25.4" y="-30.48" length="middle" rot="R180"/>
<pin name="PB3(MOSI/OC2A)" x="25.4" y="-27.94" length="middle" rot="R180"/>
<pin name="PB2(SS/OC1B)" x="25.4" y="-25.4" length="middle" rot="R180"/>
<pin name="PB1(OC1A)" x="25.4" y="-22.86" length="middle" rot="R180"/>
<pin name="PB0(ICP)" x="25.4" y="-20.32" length="middle" rot="R180"/>
<pin name="PD7(AIN1)" x="25.4" y="-15.24" length="middle" rot="R180"/>
<pin name="PD6(AIN0/OC0A)" x="25.4" y="-12.7" length="middle" rot="R180"/>
<pin name="PD5(T1/OC0B)" x="25.4" y="-10.16" length="middle" rot="R180"/>
<pin name="PD4(XCK/T0)" x="25.4" y="-7.62" length="middle" rot="R180"/>
<pin name="PD3(INT1/OC2B)" x="25.4" y="-5.08" length="middle" rot="R180"/>
<pin name="PD2(INT0)" x="25.4" y="-2.54" length="middle" rot="R180"/>
<pin name="PD1(TXD)" x="25.4" y="0" length="middle" rot="R180"/>
<pin name="PD0(RXD)" x="25.4" y="2.54" length="middle" rot="R180"/>
<pin name="ADC7" x="25.4" y="7.62" length="middle" rot="R180"/>
<pin name="ADC6" x="25.4" y="10.16" length="middle" rot="R180"/>
<pin name="PC5(ADC5/SCL)" x="25.4" y="12.7" length="middle" rot="R180"/>
<pin name="PC4(ADC4/SDA)" x="25.4" y="15.24" length="middle" rot="R180"/>
<pin name="PC3(ADC3)" x="25.4" y="17.78" length="middle" rot="R180"/>
<pin name="PC2(ADC2)" x="25.4" y="20.32" length="middle" rot="R180"/>
<pin name="PC1(ADC1)" x="25.4" y="22.86" length="middle" rot="R180"/>
<pin name="PC0(ADC0)" x="25.4" y="25.4" length="middle" rot="R180"/>
<pin name="PC6(/RESET)" x="-22.86" y="25.4" length="middle" function="dot"/>
</symbol>
<symbol name="MAX610X">
<pin name="IN" x="-10.16" y="0" length="middle"/>
<pin name="GND" x="-10.16" y="-2.54" length="middle"/>
<pin name="OUT" x="12.7" y="0" length="middle" rot="R180"/>
<wire x1="-5.08" y1="2.54" x2="7.62" y2="2.54" width="0.254" layer="94"/>
<wire x1="7.62" y1="2.54" x2="7.62" y2="-5.08" width="0.254" layer="94"/>
<wire x1="7.62" y1="-5.08" x2="-5.08" y2="-5.08" width="0.254" layer="94"/>
<wire x1="-5.08" y1="-5.08" x2="-5.08" y2="2.54" width="0.254" layer="94"/>
</symbol>
<symbol name="PIEZO">
<pin name="P$1" x="-5.08" y="0" visible="off" length="short"/>
<pin name="P$2" x="5.08" y="0" visible="off" length="short" rot="R180"/>
<wire x1="-1.27" y1="2.54" x2="1.27" y2="2.54" width="0.254" layer="94"/>
<wire x1="1.27" y1="2.54" x2="1.27" y2="-2.54" width="0.254" layer="94"/>
<wire x1="1.27" y1="-2.54" x2="-1.27" y2="-2.54" width="0.254" layer="94"/>
<wire x1="-1.27" y1="-2.54" x2="-1.27" y2="2.54" width="0.254" layer="94"/>
<wire x1="-2.54" y1="2.54" x2="-2.54" y2="-2.54" width="0.254" layer="94"/>
<wire x1="2.54" y1="2.54" x2="2.54" y2="-2.54" width="0.254" layer="94"/>
<text x="-2.54" y="3.048" size="1.27" layer="95">&gt;NAME</text>
<text x="-2.54" y="-4.318" size="1.27" layer="96">&gt;VALUE</text>
</symbol>
<symbol name="LCD-3DIG">
<wire x1="-45.72" y1="-15.24" x2="20.32" y2="-15.24" width="0.4064" layer="94"/>
<wire x1="20.32" y1="15.24" x2="-45.72" y2="15.24" width="0.4064" layer="94"/>
<wire x1="-45.72" y1="15.24" x2="-45.72" y2="-15.24" width="0.4064" layer="94"/>
<wire x1="20.32" y1="-15.24" x2="20.32" y2="15.24" width="0.4064" layer="94"/>
<wire x1="-27.305" y1="11.43" x2="-27.94" y2="10.795" width="0.127" layer="94"/>
<wire x1="-27.94" y1="10.795" x2="-27.94" y2="-5.715" width="0.127" layer="94"/>
<wire x1="-27.94" y1="-5.715" x2="-27.305" y2="-6.35" width="0.127" layer="94"/>
<wire x1="-27.305" y1="-6.35" x2="4.445" y2="-6.35" width="0.127" layer="94"/>
<wire x1="4.445" y1="-6.35" x2="5.08" y2="-5.715" width="0.127" layer="94"/>
<wire x1="5.08" y1="-5.715" x2="5.08" y2="10.795" width="0.127" layer="94"/>
<wire x1="5.08" y1="10.795" x2="4.445" y2="11.43" width="0.127" layer="94"/>
<wire x1="4.445" y1="11.43" x2="-27.305" y2="11.43" width="0.127" layer="94"/>
<wire x1="-3.81" y1="8.255" x2="-3.81" y2="3.302" width="1.27" layer="94"/>
<wire x1="-3.81" y1="1.778" x2="-3.81" y2="-3.175" width="1.27" layer="94"/>
<wire x1="-2.413" y1="-3.81" x2="-0.127" y2="-3.81" width="1.27" layer="94"/>
<wire x1="1.27" y1="-3.175" x2="1.27" y2="1.778" width="1.27" layer="94"/>
<wire x1="1.27" y1="3.302" x2="1.27" y2="8.255" width="1.27" layer="94"/>
<wire x1="-2.413" y1="8.89" x2="-0.127" y2="8.89" width="1.27" layer="94"/>
<wire x1="-2.413" y1="2.54" x2="-0.127" y2="2.54" width="1.27" layer="94"/>
<wire x1="-24.13" y1="8.255" x2="-24.13" y2="3.302" width="1.27" layer="94"/>
<wire x1="-24.13" y1="1.778" x2="-24.13" y2="-3.175" width="1.27" layer="94"/>
<wire x1="-22.733" y1="-3.81" x2="-20.447" y2="-3.81" width="1.27" layer="94"/>
<wire x1="-19.05" y1="-3.175" x2="-19.05" y2="1.778" width="1.27" layer="94"/>
<wire x1="-19.05" y1="3.302" x2="-19.05" y2="8.255" width="1.27" layer="94"/>
<wire x1="-22.733" y1="8.89" x2="-20.447" y2="8.89" width="1.27" layer="94"/>
<wire x1="-22.733" y1="2.54" x2="-20.447" y2="2.54" width="1.27" layer="94"/>
<wire x1="-13.97" y1="8.255" x2="-13.97" y2="3.302" width="1.27" layer="94"/>
<wire x1="-13.97" y1="1.778" x2="-13.97" y2="-3.175" width="1.27" layer="94"/>
<wire x1="-12.573" y1="-3.81" x2="-10.287" y2="-3.81" width="1.27" layer="94"/>
<wire x1="-8.89" y1="-3.175" x2="-8.89" y2="1.778" width="1.27" layer="94"/>
<wire x1="-8.89" y1="3.302" x2="-8.89" y2="8.255" width="1.27" layer="94"/>
<wire x1="-12.573" y1="8.89" x2="-10.287" y2="8.89" width="1.27" layer="94"/>
<wire x1="-12.573" y1="2.54" x2="-10.287" y2="2.54" width="1.27" layer="94"/>
<text x="-42.291" y="-1.905" size="1.778" layer="94" ratio="10" rot="R90">LCD</text>
<text x="-49.53" y="-15.24" size="1.778" layer="95" ratio="10" rot="R90">&gt;NAME</text>
<text x="-46.99" y="-15.24" size="1.778" layer="96" ratio="10" rot="R90">&gt;VALUE</text>
<text x="0.254" y="9.652" size="1.27" layer="94" ratio="10">a</text>
<text x="2.413" y="4.318" size="1.27" layer="94" ratio="10">b</text>
<text x="2.413" y="-1.27" size="1.27" layer="94" ratio="10">c</text>
<text x="-3.81" y="-5.969" size="1.27" layer="94" ratio="10">d</text>
<text x="-6.096" y="-0.762" size="1.27" layer="94" ratio="10">e</text>
<text x="-5.842" y="5.207" size="1.27" layer="94" ratio="10">f</text>
<text x="-1.778" y="3.937" size="1.27" layer="94" ratio="10">g</text>
<text x="-17.018" y="-2.794" size="1.27" layer="94" ratio="10">1</text>
<text x="-6.858" y="-2.794" size="1.27" layer="94" ratio="10">2</text>
<rectangle x1="-17.145" y1="-4.445" x2="-15.875" y2="-3.175" layer="94"/>
<rectangle x1="-6.985" y1="-4.445" x2="-5.715" y2="-3.175" layer="94"/>
<pin name="COM" x="-43.18" y="-17.78" length="short" direction="pas" rot="R90"/>
<pin name="A1" x="-38.1" y="-17.78" length="short" direction="pas" rot="R90"/>
<pin name="B1" x="-35.56" y="-17.78" length="short" direction="pas" rot="R90"/>
<pin name="C1" x="-33.02" y="-17.78" length="short" direction="pas" rot="R90"/>
<pin name="D1" x="-30.48" y="-17.78" length="short" direction="pas" rot="R90"/>
<pin name="E1" x="-27.94" y="-17.78" length="short" direction="pas" rot="R90"/>
<pin name="F1" x="-25.4" y="-17.78" length="short" direction="pas" rot="R90"/>
<pin name="G1" x="-22.86" y="-17.78" length="short" direction="pas" rot="R90"/>
<pin name="DP1" x="-20.32" y="-17.78" length="short" direction="pas" rot="R90"/>
<pin name="A2" x="-17.78" y="-17.78" length="short" direction="pas" rot="R90"/>
<pin name="B2" x="-15.24" y="-17.78" length="short" direction="pas" rot="R90"/>
<pin name="C2" x="-12.7" y="-17.78" length="short" direction="pas" rot="R90"/>
<pin name="D2" x="-10.16" y="-17.78" length="short" direction="pas" rot="R90"/>
<pin name="E2" x="-7.62" y="-17.78" length="short" direction="pas" rot="R90"/>
<pin name="F2" x="-5.08" y="-17.78" length="short" direction="pas" rot="R90"/>
<pin name="G2" x="-2.54" y="-17.78" length="short" direction="pas" rot="R90"/>
<pin name="DP2" x="0" y="-17.78" length="short" direction="pas" rot="R90"/>
<pin name="A3" x="2.54" y="-17.78" length="short" direction="pas" rot="R90"/>
<pin name="B3" x="5.08" y="-17.78" length="short" direction="pas" rot="R90"/>
<pin name="C3" x="7.62" y="-17.78" length="short" direction="pas" rot="R90"/>
<pin name="D3" x="10.16" y="-17.78" length="short" direction="pas" rot="R90"/>
<pin name="E3" x="12.7" y="-17.78" length="short" direction="pas" rot="R90"/>
<pin name="F3" x="15.24" y="-17.78" length="short" direction="pas" rot="R90"/>
<pin name="G3" x="17.78" y="-17.78" length="short" direction="pas" rot="R90"/>
</symbol>
<symbol name="NPN">
<wire x1="2.54" y1="2.54" x2="0.508" y2="1.524" width="0.1524" layer="94"/>
<wire x1="1.778" y1="-1.524" x2="2.54" y2="-2.54" width="0.1524" layer="94"/>
<wire x1="2.54" y1="-2.54" x2="1.27" y2="-2.54" width="0.1524" layer="94"/>
<wire x1="1.27" y1="-2.54" x2="1.778" y2="-1.524" width="0.1524" layer="94"/>
<wire x1="1.54" y1="-2.04" x2="0.308" y2="-1.424" width="0.1524" layer="94"/>
<wire x1="1.524" y1="-2.413" x2="2.286" y2="-2.413" width="0.254" layer="94"/>
<wire x1="2.286" y1="-2.413" x2="1.778" y2="-1.778" width="0.254" layer="94"/>
<wire x1="1.778" y1="-1.778" x2="1.524" y2="-2.286" width="0.254" layer="94"/>
<wire x1="1.524" y1="-2.286" x2="1.905" y2="-2.286" width="0.254" layer="94"/>
<wire x1="1.905" y1="-2.286" x2="1.778" y2="-2.032" width="0.254" layer="94"/>
<text x="-10.16" y="7.62" size="1.778" layer="95">&gt;NAME</text>
<text x="-10.16" y="5.08" size="1.778" layer="96">&gt;VALUE</text>
<rectangle x1="-0.254" y1="-2.54" x2="0.508" y2="2.54" layer="94"/>
<pin name="B" x="-2.54" y="0" visible="off" length="short" direction="pas" swaplevel="1"/>
<pin name="E" x="2.54" y="-5.08" visible="off" length="short" direction="pas" swaplevel="3" rot="R90"/>
<pin name="C" x="2.54" y="5.08" visible="off" length="short" direction="pas" swaplevel="2" rot="R270"/>
<pin name="C1" x="5.08" y="5.08" visible="off" length="short" direction="pas" swaplevel="2" rot="R270"/>
<wire x1="2.54" y1="2.54" x2="5.08" y2="2.54" width="0.254" layer="94"/>
</symbol>
<symbol name="N-MOSFET">
<wire x1="0.762" y1="0.762" x2="0.762" y2="0" width="0.254" layer="94"/>
<wire x1="0.762" y1="0" x2="0.762" y2="-0.762" width="0.254" layer="94"/>
<wire x1="0.762" y1="3.175" x2="0.762" y2="2.54" width="0.254" layer="94"/>
<wire x1="0.762" y1="2.54" x2="0.762" y2="1.905" width="0.254" layer="94"/>
<wire x1="0.762" y1="0" x2="2.54" y2="0" width="0.1524" layer="94"/>
<wire x1="2.54" y1="0" x2="2.54" y2="-2.54" width="0.1524" layer="94"/>
<wire x1="0.762" y1="-1.905" x2="0.762" y2="-2.54" width="0.254" layer="94"/>
<wire x1="0.762" y1="-2.54" x2="0.762" y2="-3.175" width="0.254" layer="94"/>
<wire x1="0" y1="2.54" x2="0" y2="-2.54" width="0.254" layer="94"/>
<wire x1="2.54" y1="-2.54" x2="0.762" y2="-2.54" width="0.1524" layer="94"/>
<wire x1="3.81" y1="2.54" x2="3.81" y2="0.508" width="0.1524" layer="94"/>
<wire x1="3.81" y1="0.508" x2="3.81" y2="-2.54" width="0.1524" layer="94"/>
<wire x1="2.54" y1="-2.54" x2="3.81" y2="-2.54" width="0.1524" layer="94"/>
<wire x1="0.762" y1="2.54" x2="3.81" y2="2.54" width="0.1524" layer="94"/>
<wire x1="4.572" y1="0.762" x2="4.318" y2="0.508" width="0.1524" layer="94"/>
<wire x1="4.318" y1="0.508" x2="3.81" y2="0.508" width="0.1524" layer="94"/>
<wire x1="3.81" y1="0.508" x2="3.302" y2="0.508" width="0.1524" layer="94"/>
<wire x1="3.302" y1="0.508" x2="3.048" y2="0.254" width="0.1524" layer="94"/>
<circle x="2.54" y="-2.54" radius="0.3592" width="0" layer="94"/>
<circle x="2.54" y="2.54" radius="0.3592" width="0" layer="94"/>
<text x="-11.43" y="0" size="1.778" layer="96">&gt;VALUE</text>
<text x="-11.43" y="2.54" size="1.778" layer="95">&gt;NAME</text>
<pin name="S" x="2.54" y="-5.08" visible="off" length="short" direction="pas" rot="R90"/>
<pin name="G" x="-2.54" y="-2.54" visible="off" length="short" direction="pas"/>
<pin name="D" x="2.54" y="5.08" visible="off" length="short" direction="pas" rot="R270"/>
<polygon width="0.1524" layer="94">
<vertex x="3.81" y="0.508"/>
<vertex x="3.302" y="-0.254"/>
<vertex x="4.318" y="-0.254"/>
</polygon>
<polygon width="0.1524" layer="94">
<vertex x="1.016" y="0"/>
<vertex x="2.032" y="0.762"/>
<vertex x="2.032" y="-0.762"/>
</polygon>
</symbol>
<symbol name="UCC2751">
<pin name="IN+" x="-7.62" y="0" length="short"/>
<pin name="IN-" x="-7.62" y="-2.54" length="short"/>
<pin name="VDD" x="-7.62" y="2.54" length="short"/>
<pin name="GND" x="-7.62" y="-5.08" length="short"/>
<pin name="OUT" x="10.16" y="0" length="short" rot="R180"/>
<wire x1="-5.08" y1="5.08" x2="7.62" y2="5.08" width="0.254" layer="94"/>
<wire x1="7.62" y1="5.08" x2="7.62" y2="-7.62" width="0.254" layer="94"/>
<wire x1="7.62" y1="-7.62" x2="-5.08" y2="-7.62" width="0.254" layer="94"/>
<wire x1="-5.08" y1="-7.62" x2="-5.08" y2="5.08" width="0.254" layer="94"/>
<text x="-5.08" y="7.62" size="1.27" layer="95">&gt;NAME</text>
<text x="-5.08" y="5.588" size="1.27" layer="95">&gt;VALUE</text>
</symbol>
<symbol name="ZD">
<wire x1="-1.27" y1="-1.27" x2="1.27" y2="0" width="0.254" layer="94"/>
<wire x1="1.27" y1="0" x2="-1.27" y2="1.27" width="0.254" layer="94"/>
<wire x1="1.27" y1="1.27" x2="1.27" y2="0" width="0.254" layer="94"/>
<wire x1="-1.27" y1="1.27" x2="-1.27" y2="-1.27" width="0.254" layer="94"/>
<wire x1="1.27" y1="0" x2="1.27" y2="-1.27" width="0.254" layer="94"/>
<wire x1="1.27" y1="-1.27" x2="0.635" y2="-1.27" width="0.254" layer="94"/>
<text x="-1.778" y="1.905" size="1.778" layer="95">&gt;NAME</text>
<text x="-1.778" y="-3.429" size="1.778" layer="96">&gt;VALUE</text>
<pin name="A" x="-2.54" y="0" visible="off" length="short" direction="pas"/>
<pin name="C" x="2.54" y="0" visible="off" length="short" direction="pas" rot="R180"/>
</symbol>
<symbol name="S">
<wire x1="0" y1="-3.175" x2="0" y2="-1.905" width="0.254" layer="94"/>
<wire x1="0" y1="-1.905" x2="-1.27" y2="1.905" width="0.254" layer="94"/>
<wire x1="0" y1="1.905" x2="0" y2="3.175" width="0.254" layer="94"/>
<text x="-2.54" y="-3.81" size="1.778" layer="95" rot="R90">&gt;NAME</text>
<text x="3.81" y="-3.81" size="1.778" layer="96" rot="R90">&gt;VALUE</text>
<pin name="P" x="0" y="-5.08" visible="pad" length="short" direction="pas" rot="R90"/>
<pin name="S" x="0" y="5.08" visible="pad" length="short" direction="pas" rot="R270"/>
</symbol>
<symbol name="D">
<wire x1="-1.27" y1="-1.27" x2="1.27" y2="0" width="0.254" layer="94"/>
<wire x1="1.27" y1="0" x2="-1.27" y2="1.27" width="0.254" layer="94"/>
<wire x1="1.27" y1="1.27" x2="1.27" y2="0" width="0.254" layer="94"/>
<wire x1="-1.27" y1="1.27" x2="-1.27" y2="-1.27" width="0.254" layer="94"/>
<wire x1="1.27" y1="0" x2="1.27" y2="-1.27" width="0.254" layer="94"/>
<text x="2.54" y="0.4826" size="1.778" layer="95">&gt;NAME</text>
<text x="2.54" y="-2.3114" size="1.778" layer="96">&gt;VALUE</text>
<text x="-2.54" y="0" size="0.4064" layer="99" align="center">SpiceOrder 1</text>
<text x="2.54" y="0" size="0.4064" layer="99" align="center">SpiceOrder 2</text>
<pin name="A" x="-2.54" y="0" visible="off" length="short" direction="pas"/>
<pin name="C" x="2.54" y="0" visible="off" length="short" direction="pas" rot="R180"/>
</symbol>
</symbols>
<devicesets>
<deviceset name="ATMEGA48A-AU" prefix="IC">
<gates>
<gate name="ATMEGA48A-AU" symbol="ATMEGAXX8-32PIN" x="0" y="0"/>
</gates>
<devices>
<device name="" package="TQFP32-08">
<connects>
<connect gate="ATMEGA48A-AU" pin="ADC6" pad="19"/>
<connect gate="ATMEGA48A-AU" pin="ADC7" pad="22"/>
<connect gate="ATMEGA48A-AU" pin="AREF" pad="20"/>
<connect gate="ATMEGA48A-AU" pin="AVCC" pad="18"/>
<connect gate="ATMEGA48A-AU" pin="GND" pad="21"/>
<connect gate="ATMEGA48A-AU" pin="GND@3" pad="3"/>
<connect gate="ATMEGA48A-AU" pin="GND@5" pad="5"/>
<connect gate="ATMEGA48A-AU" pin="PB0(ICP)" pad="12"/>
<connect gate="ATMEGA48A-AU" pin="PB1(OC1A)" pad="13"/>
<connect gate="ATMEGA48A-AU" pin="PB2(SS/OC1B)" pad="14"/>
<connect gate="ATMEGA48A-AU" pin="PB3(MOSI/OC2A)" pad="15"/>
<connect gate="ATMEGA48A-AU" pin="PB4(MISO)" pad="16"/>
<connect gate="ATMEGA48A-AU" pin="PB5(SCK)" pad="17"/>
<connect gate="ATMEGA48A-AU" pin="PB6(XTAL1/TOSC1)" pad="7"/>
<connect gate="ATMEGA48A-AU" pin="PB7(XTAL2/TOSC2)" pad="8"/>
<connect gate="ATMEGA48A-AU" pin="PC0(ADC0)" pad="23"/>
<connect gate="ATMEGA48A-AU" pin="PC1(ADC1)" pad="24"/>
<connect gate="ATMEGA48A-AU" pin="PC2(ADC2)" pad="25"/>
<connect gate="ATMEGA48A-AU" pin="PC3(ADC3)" pad="26"/>
<connect gate="ATMEGA48A-AU" pin="PC4(ADC4/SDA)" pad="27"/>
<connect gate="ATMEGA48A-AU" pin="PC5(ADC5/SCL)" pad="28"/>
<connect gate="ATMEGA48A-AU" pin="PC6(/RESET)" pad="29"/>
<connect gate="ATMEGA48A-AU" pin="PD0(RXD)" pad="30"/>
<connect gate="ATMEGA48A-AU" pin="PD1(TXD)" pad="31"/>
<connect gate="ATMEGA48A-AU" pin="PD2(INT0)" pad="32"/>
<connect gate="ATMEGA48A-AU" pin="PD3(INT1/OC2B)" pad="1"/>
<connect gate="ATMEGA48A-AU" pin="PD4(XCK/T0)" pad="2"/>
<connect gate="ATMEGA48A-AU" pin="PD5(T1/OC0B)" pad="9"/>
<connect gate="ATMEGA48A-AU" pin="PD6(AIN0/OC0A)" pad="10"/>
<connect gate="ATMEGA48A-AU" pin="PD7(AIN1)" pad="11"/>
<connect gate="ATMEGA48A-AU" pin="VCC@4" pad="4"/>
<connect gate="ATMEGA48A-AU" pin="VCC@6" pad="6"/>
</connects>
<package3dinstances>
<package3dinstance package3d_urn="urn:adsk.eagle:package:38945/1"/>
</package3dinstances>
<technologies>
<technology name=""/>
</technologies>
</device>
</devices>
</deviceset>
<deviceset name="PS1240P02BT" prefix="M">
<gates>
<gate name="PS1240P02BT" symbol="PIEZO" x="0" y="0"/>
</gates>
<devices>
<device name="" package="PS1240P02BT">
<connects>
<connect gate="PS1240P02BT" pin="P$1" pad="P$1"/>
<connect gate="PS1240P02BT" pin="P$2" pad="P$2"/>
</connects>
<technologies>
<technology name=""/>
</technologies>
</device>
</devices>
</deviceset>
<deviceset name="LCD-S301C31TR" prefix="M">
<gates>
<gate name="LCD-S301C31TR" symbol="LCD-3DIG" x="7.62" y="0"/>
</gates>
<devices>
<device name="" package="LCD-S301C31TR">
<connects>
<connect gate="LCD-S301C31TR" pin="A1" pad="22"/>
<connect gate="LCD-S301C31TR" pin="A2" pad="18"/>
<connect gate="LCD-S301C31TR" pin="A3" pad="14"/>
<connect gate="LCD-S301C31TR" pin="B1" pad="21"/>
<connect gate="LCD-S301C31TR" pin="B2" pad="17"/>
<connect gate="LCD-S301C31TR" pin="B3" pad="13"/>
<connect gate="LCD-S301C31TR" pin="C1" pad="4"/>
<connect gate="LCD-S301C31TR" pin="C2" pad="8"/>
<connect gate="LCD-S301C31TR" pin="C3" pad="12"/>
<connect gate="LCD-S301C31TR" pin="COM" pad="1"/>
<connect gate="LCD-S301C31TR" pin="D1" pad="3"/>
<connect gate="LCD-S301C31TR" pin="D2" pad="7"/>
<connect gate="LCD-S301C31TR" pin="D3" pad="11"/>
<connect gate="LCD-S301C31TR" pin="DP1" pad="5"/>
<connect gate="LCD-S301C31TR" pin="DP2" pad="9"/>
<connect gate="LCD-S301C31TR" pin="E1" pad="2"/>
<connect gate="LCD-S301C31TR" pin="E2" pad="6"/>
<connect gate="LCD-S301C31TR" pin="E3" pad="10"/>
<connect gate="LCD-S301C31TR" pin="F1" pad="23"/>
<connect gate="LCD-S301C31TR" pin="F2" pad="19"/>
<connect gate="LCD-S301C31TR" pin="F3" pad="15"/>
<connect gate="LCD-S301C31TR" pin="G1" pad="24"/>
<connect gate="LCD-S301C31TR" pin="G2" pad="20"/>
<connect gate="LCD-S301C31TR" pin="G3" pad="16"/>
</connects>
<technologies>
<technology name=""/>
</technologies>
</device>
</devices>
</deviceset>
<deviceset name="NPN-SOT223" prefix="Q">
<gates>
<gate name="2STN1550" symbol="NPN" x="0" y="0"/>
</gates>
<devices>
<device name="" package="SOT223">
<connects>
<connect gate="2STN1550" pin="B" pad="1"/>
<connect gate="2STN1550" pin="C" pad="2"/>
<connect gate="2STN1550" pin="C1" pad="4"/>
<connect gate="2STN1550" pin="E" pad="3"/>
</connects>
<technologies>
<technology name=""/>
</technologies>
</device>
</devices>
</deviceset>
<deviceset name="IPD30N10S3L-34" prefix="Q">
<gates>
<gate name="IPD30N10S3L-34" symbol="N-MOSFET" x="0" y="0"/>
</gates>
<devices>
<device name="" package="TO252">
<connects>
<connect gate="IPD30N10S3L-34" pin="D" pad="3"/>
<connect gate="IPD30N10S3L-34" pin="G" pad="1"/>
<connect gate="IPD30N10S3L-34" pin="S" pad="2"/>
</connects>
<technologies>
<technology name=""/>
</technologies>
</device>
</devices>
</deviceset>
<deviceset name="UCC27517DBV" prefix="IC">
<gates>
<gate name="UCC27517DBV" symbol="UCC2751" x="0" y="0"/>
</gates>
<devices>
<device name="" package="SOT95P280X145-5">
<connects>
<connect gate="UCC27517DBV" pin="GND" pad="2"/>
<connect gate="UCC27517DBV" pin="IN+" pad="3"/>
<connect gate="UCC27517DBV" pin="IN-" pad="4"/>
<connect gate="UCC27517DBV" pin="OUT" pad="5"/>
<connect gate="UCC27517DBV" pin="VDD" pad="1"/>
</connects>
<package3dinstances>
<package3dinstance package3d_urn="urn:adsk.eagle:package:4937208/1"/>
</package3dinstances>
<technologies>
<technology name=""/>
</technologies>
</device>
</devices>
</deviceset>
<deviceset name="MM3ZXXXT1G" prefix="D">
<gates>
<gate name="G$1" symbol="ZD" x="0" y="0"/>
</gates>
<devices>
<device name="" package="SOD-323">
<connects>
<connect gate="G$1" pin="A" pad="A"/>
<connect gate="G$1" pin="C" pad="C"/>
</connects>
<technologies>
<technology name=""/>
</technologies>
</device>
</devices>
</deviceset>
<deviceset name="EVPAW" prefix="SW">
<gates>
<gate name="EVPAW" symbol="S" x="0" y="0"/>
</gates>
<devices>
<device name="" package="EVPAW">
<connects>
<connect gate="EVPAW" pin="P" pad="1"/>
<connect gate="EVPAW" pin="S" pad="2"/>
</connects>
<technologies>
<technology name=""/>
</technologies>
</device>
</devices>
</deviceset>
<deviceset name="VS-6EWL06FNTR-M3" prefix="D">
<gates>
<gate name="VS-6EWL06FNTR-M3" symbol="D" x="0" y="0"/>
</gates>
<devices>
<device name="" package="TO229P990X239-3">
<connects>
<connect gate="VS-6EWL06FNTR-M3" pin="A" pad="2"/>
<connect gate="VS-6EWL06FNTR-M3" pin="C" pad="3"/>
</connects>
<package3dinstances>
<package3dinstance package3d_urn="urn:adsk.eagle:package:7057133/1"/>
</package3dinstances>
<technologies>
<technology name=""/>
</technologies>
</device>
</devices>
</deviceset>
</devicesets>
</library>
</drawing>
<compatibility>
<note version="8.3" severity="warning">
Since Version 8.3, EAGLE supports URNs for individual library
assets (packages, symbols, and devices). The URNs of those assets
will not be understood (or retained) with this version.
</note>
<note version="8.3" severity="warning">
Since Version 8.3, EAGLE supports the association of 3D packages
with devices in libraries, schematics, and board files. Those 3D
packages will not be understood (or retained) with this version.
</note>
</compatibility>
</eagle>
