%!PS-Adobe-2.0 EPSF-1.2
%%Creator: MATLAB, The MathWorks, Inc. Version 7.14.0.739 (R2012a). Operating System: Linux 3.2.0-31-generic-pae #50-Ubuntu SMP Fri Sep 7 16:39:45 UTC 2012 i686.
%%Title: ./crossover.eps
%%CreationDate: 11/22/2012  08:49:01
%%DocumentNeededFonts: Helvetica
%%DocumentProcessColors: Cyan Magenta Yellow Black
%%Pages: 1
%%BoundingBox:    27     0   463   289
%%EndComments

%%BeginProlog
% MathWorks dictionary
/MathWorks 160 dict begin
% definition operators
/bdef {bind def} bind def
/ldef {load def} bind def
/xdef {exch def} bdef
/xstore {exch store} bdef
% operator abbreviations
/c  /clip ldef
/cc /concat ldef
/cp /closepath ldef
/gr /grestore ldef
/gs /gsave ldef
/mt /moveto ldef
/np /newpath ldef
/cm /currentmatrix ldef
/sm /setmatrix ldef
/rm /rmoveto ldef
/rl /rlineto ldef
/s {show newpath} bdef
/sc {setcmykcolor} bdef
/sr /setrgbcolor ldef
/sg /setgray ldef
/w /setlinewidth ldef
/j /setlinejoin ldef
/cap /setlinecap ldef
/rc {rectclip} bdef
/rf {rectfill} bdef
% page state control
/pgsv () def
/bpage {/pgsv save def} bdef
/epage {pgsv restore} bdef
/bplot /gsave ldef
/eplot {stroke grestore} bdef
% orientation switch
/portraitMode 0 def /landscapeMode 1 def /rotateMode 2 def
% coordinate system mappings
/dpi2point 0 def
% font control
/FontSize 0 def
/FMS {/FontSize xstore findfont [FontSize 0 0 FontSize neg 0 0]
  makefont setfont} bdef
/reencode {exch dup where {pop load} {pop StandardEncoding} ifelse
  exch dup 3 1 roll findfont dup length dict begin
  { 1 index /FID ne {def}{pop pop} ifelse } forall
  /Encoding exch def currentdict end definefont pop} bdef
/isroman {findfont /CharStrings get /Agrave known} bdef
/FMSR {3 1 roll 1 index dup isroman {reencode} {pop pop} ifelse
  exch FMS} bdef
/csm {1 dpi2point div -1 dpi2point div scale neg translate
 dup landscapeMode eq {pop -90 rotate}
  {rotateMode eq {90 rotate} if} ifelse} bdef
% line types: solid, dotted, dashed, dotdash
/SO { [] 0 setdash } bdef
/DO { [.5 dpi2point mul 4 dpi2point mul] 0 setdash } bdef
/DA { [6 dpi2point mul] 0 setdash } bdef
/DD { [.5 dpi2point mul 4 dpi2point mul 6 dpi2point mul 4
  dpi2point mul] 0 setdash } bdef
% macros for lines and objects
/L {lineto stroke} bdef
/MP {3 1 roll moveto 1 sub {rlineto} repeat} bdef
/AP {{rlineto} repeat} bdef
/PDlw -1 def
/W {/PDlw currentlinewidth def setlinewidth} def
/PP {closepath eofill} bdef
/DP {closepath stroke} bdef
/MR {4 -2 roll moveto dup  0 exch rlineto exch 0 rlineto
  neg 0 exch rlineto closepath} bdef
/FR {MR stroke} bdef
/PR {MR fill} bdef
/L1i {{currentfile picstr readhexstring pop} image} bdef
/tMatrix matrix def
/MakeOval {newpath tMatrix currentmatrix pop translate scale
0 0 1 0 360 arc tMatrix setmatrix} bdef
/FO {MakeOval stroke} bdef
/PO {MakeOval fill} bdef
/PD {currentlinewidth 2 div 0 360 arc fill
   PDlw -1 eq not {PDlw w /PDlw -1 def} if} def
/FA {newpath tMatrix currentmatrix pop translate scale
  0 0 1 5 -2 roll arc tMatrix setmatrix stroke} bdef
/PA {newpath tMatrix currentmatrix pop	translate 0 0 moveto scale
  0 0 1 5 -2 roll arc closepath tMatrix setmatrix fill} bdef
/FAn {newpath tMatrix currentmatrix pop translate scale
  0 0 1 5 -2 roll arcn tMatrix setmatrix stroke} bdef
/PAn {newpath tMatrix currentmatrix pop translate 0 0 moveto scale
  0 0 1 5 -2 roll arcn closepath tMatrix setmatrix fill} bdef
/vradius 0 def /hradius 0 def /lry 0 def
/lrx 0 def /uly 0 def /ulx 0 def /rad 0 def
/MRR {/vradius xdef /hradius xdef /lry xdef /lrx xdef /uly xdef
  /ulx xdef newpath tMatrix currentmatrix pop ulx hradius add uly
  vradius add translate hradius vradius scale 0 0 1 180 270 arc 
  tMatrix setmatrix lrx hradius sub uly vradius add translate
  hradius vradius scale 0 0 1 270 360 arc tMatrix setmatrix
  lrx hradius sub lry vradius sub translate hradius vradius scale
  0 0 1 0 90 arc tMatrix setmatrix ulx hradius add lry vradius sub
  translate hradius vradius scale 0 0 1 90 180 arc tMatrix setmatrix
  closepath} bdef
/FRR {MRR stroke } bdef
/PRR {MRR fill } bdef
/MlrRR {/lry xdef /lrx xdef /uly xdef /ulx xdef /rad lry uly sub 2 div def
  newpath tMatrix currentmatrix pop ulx rad add uly rad add translate
  rad rad scale 0 0 1 90 270 arc tMatrix setmatrix lrx rad sub lry rad
  sub translate rad rad scale 0 0 1 270 90 arc tMatrix setmatrix
  closepath} bdef
/FlrRR {MlrRR stroke } bdef
/PlrRR {MlrRR fill } bdef
/MtbRR {/lry xdef /lrx xdef /uly xdef /ulx xdef /rad lrx ulx sub 2 div def
  newpath tMatrix currentmatrix pop ulx rad add uly rad add translate
  rad rad scale 0 0 1 180 360 arc tMatrix setmatrix lrx rad sub lry rad
  sub translate rad rad scale 0 0 1 0 180 arc tMatrix setmatrix
  closepath} bdef
/FtbRR {MtbRR stroke } bdef
/PtbRR {MtbRR fill } bdef
/stri 6 array def /dtri 6 array def
/smat 6 array def /dmat 6 array def
/tmat1 6 array def /tmat2 6 array def /dif 3 array def
/asub {/ind2 exch def /ind1 exch def dup dup
  ind1 get exch ind2 get sub exch } bdef
/tri_to_matrix {
  2 0 asub 3 1 asub 4 0 asub 5 1 asub
  dup 0 get exch 1 get 7 -1 roll astore } bdef
/compute_transform {
  dmat dtri tri_to_matrix tmat1 invertmatrix 
  smat stri tri_to_matrix tmat2 concatmatrix } bdef
/ds {stri astore pop} bdef
/dt {dtri astore pop} bdef
/db {2 copy /cols xdef /rows xdef mul dup string
  currentfile exch readhexstring pop
  /bmap xdef pop pop} bdef
/it {gs np dtri aload pop moveto lineto lineto cp c
  cols rows 8 compute_transform 
  {bmap} image gr}bdef
/il {newpath moveto lineto stroke}bdef
currentdict end def
%%EndProlog

%%BeginSetup
MathWorks begin

0 cap

end
%%EndSetup

%%Page: 1 1
%%BeginPageSetup
%%PageBoundingBox:    27     0   463   289
MathWorks begin
bpage
%%EndPageSetup

%%BeginObject: obj1
bplot

/dpi2point 12 def
portraitMode 0000 3456 csm

  330   -20  5233  3473 MR c np
78 dict begin %Colortable dictionary
/c0 { 0.000000 0.000000 0.000000 sr} bdef
/c1 { 1.000000 1.000000 1.000000 sr} bdef
/c2 { 0.900000 0.000000 0.000000 sr} bdef
/c3 { 0.000000 0.820000 0.000000 sr} bdef
/c4 { 0.000000 0.000000 0.800000 sr} bdef
/c5 { 0.910000 0.820000 0.320000 sr} bdef
/c6 { 1.000000 0.260000 0.820000 sr} bdef
/c7 { 0.000000 0.820000 0.820000 sr} bdef
c0
1 j
1 sg
   0    0 6049 3457 PR
6 w
0 2817 4687 0 0 -2817 786 3076 4 MP
PP
-4687 0 0 2817 4687 0 0 -2817 786 3076 5 MP stroke
4 w
DO
0 sg
1878 3076 mt 1878  259 L
1878  259 mt 1878  259 L
3440 3076 mt 3440  259 L
3440  259 mt 3440  259 L
5002 3076 mt 5002  259 L
5002  259 mt 5002  259 L
 786 3076 mt 5473 3076 L
5473 3076 mt 5473 3076 L
 786 2794 mt 5473 2794 L
5473 2794 mt 5473 2794 L
 786 2512 mt 5473 2512 L
5473 2512 mt 5473 2512 L
 786 2230 mt 5473 2230 L
5473 2230 mt 5473 2230 L
 786 1949 mt 5473 1949 L
5473 1949 mt 5473 1949 L
 786 1667 mt 5473 1667 L
5473 1667 mt 5473 1667 L
 786 1385 mt 5473 1385 L
5473 1385 mt 5473 1385 L
 786 1104 mt 5473 1104 L
5473 1104 mt 5473 1104 L
 786  822 mt 5473  822 L
5473  822 mt 5473  822 L
 786  540 mt 5473  540 L
5473  540 mt 5473  540 L
 786  259 mt 5473  259 L
5473  259 mt 5473  259 L
SO
6 w
 786 3076 mt 5473 3076 L
 786  259 mt 5473  259 L
 786 3076 mt  786  259 L
5473 3076 mt 5473  259 L
 786 3076 mt 5473 3076 L
 786 3076 mt  786  259 L
1878 3076 mt 1878 3052 L
1878  259 mt 1878  282 L
DO
1878 3076 mt 1878  259 L
1878  259 mt 1878  259 L
SO
1806 3076 mt 1806 3052 L
1806  259 mt 1806  282 L
DO
1806 3076 mt 1806  259 L
1806  259 mt 1806  259 L
SO
1726 3076 mt 1726 3052 L
1726  259 mt 1726  282 L
DO
1726 3076 mt 1726  259 L
1726  259 mt 1726  259 L
SO
1636 3076 mt 1636 3052 L
1636  259 mt 1636  282 L
DO
1636 3076 mt 1636  259 L
1636  259 mt 1636  259 L
SO
1531 3076 mt 1531 3052 L
1531  259 mt 1531  282 L
DO
1531 3076 mt 1531  259 L
1531  259 mt 1531  259 L
SO
1407 3076 mt 1407 3052 L
1407  259 mt 1407  282 L
DO
1407 3076 mt 1407  259 L
1407  259 mt 1407  259 L
SO
1256 3076 mt 1256 3052 L
1256  259 mt 1256  282 L
DO
1256 3076 mt 1256  259 L
1256  259 mt 1256  259 L
SO
1061 3076 mt 1061 3052 L
1061  259 mt 1061  282 L
DO
1061 3076 mt 1061  259 L
1061  259 mt 1061  259 L
SO
 786 3076 mt  786 3052 L
 786  259 mt  786  282 L
DO
 786 3076 mt  786  259 L
 786  259 mt  786  259 L
SO
1878 3076 mt 1878 3029 L
1878  259 mt 1878  305 L
%%IncludeResource: font Helvetica
/Helvetica /ISOLatin1Encoding 120 FMSR

1790 3258 mt 
(10) s
%%IncludeResource: font Helvetica
/Helvetica /ISOLatin1Encoding 80 FMSR

1923 3184 mt 
(2) s
2348 3076 mt 2348 3052 L
2348  259 mt 2348  282 L
DO
2348 3076 mt 2348  259 L
2348  259 mt 2348  259 L
SO
2623 3076 mt 2623 3052 L
2623  259 mt 2623  282 L
DO
2623 3076 mt 2623  259 L
2623  259 mt 2623  259 L
SO
2818 3076 mt 2818 3052 L
2818  259 mt 2818  282 L
DO
2818 3076 mt 2818  259 L
2818  259 mt 2818  259 L
SO
2970 3076 mt 2970 3052 L
2970  259 mt 2970  282 L
DO
2970 3076 mt 2970  259 L
2970  259 mt 2970  259 L
SO
3093 3076 mt 3093 3052 L
3093  259 mt 3093  282 L
DO
3093 3076 mt 3093  259 L
3093  259 mt 3093  259 L
SO
3198 3076 mt 3198 3052 L
3198  259 mt 3198  282 L
DO
3198 3076 mt 3198  259 L
3198  259 mt 3198  259 L
SO
3288 3076 mt 3288 3052 L
3288  259 mt 3288  282 L
DO
3288 3076 mt 3288  259 L
3288  259 mt 3288  259 L
SO
3368 3076 mt 3368 3052 L
3368  259 mt 3368  282 L
DO
3368 3076 mt 3368  259 L
3368  259 mt 3368  259 L
SO
3440 3076 mt 3440 3052 L
3440  259 mt 3440  282 L
DO
3440 3076 mt 3440  259 L
3440  259 mt 3440  259 L
SO
3440 3076 mt 3440 3029 L
3440  259 mt 3440  305 L
%%IncludeResource: font Helvetica
/Helvetica /ISOLatin1Encoding 120 FMSR

3352 3258 mt 
(10) s
%%IncludeResource: font Helvetica
/Helvetica /ISOLatin1Encoding 80 FMSR

3485 3184 mt 
(3) s
3910 3076 mt 3910 3052 L
3910  259 mt 3910  282 L
DO
3910 3076 mt 3910  259 L
3910  259 mt 3910  259 L
SO
4185 3076 mt 4185 3052 L
4185  259 mt 4185  282 L
DO
4185 3076 mt 4185  259 L
4185  259 mt 4185  259 L
SO
4380 3076 mt 4380 3052 L
4380  259 mt 4380  282 L
DO
4380 3076 mt 4380  259 L
4380  259 mt 4380  259 L
SO
4532 3076 mt 4532 3052 L
4532  259 mt 4532  282 L
DO
4532 3076 mt 4532  259 L
4532  259 mt 4532  259 L
SO
4656 3076 mt 4656 3052 L
4656  259 mt 4656  282 L
DO
4656 3076 mt 4656  259 L
4656  259 mt 4656  259 L
SO
4760 3076 mt 4760 3052 L
4760  259 mt 4760  282 L
DO
4760 3076 mt 4760  259 L
4760  259 mt 4760  259 L
SO
4851 3076 mt 4851 3052 L
4851  259 mt 4851  282 L
DO
4851 3076 mt 4851  259 L
4851  259 mt 4851  259 L
SO
4931 3076 mt 4931 3052 L
4931  259 mt 4931  282 L
DO
4931 3076 mt 4931  259 L
4931  259 mt 4931  259 L
SO
5002 3076 mt 5002 3052 L
5002  259 mt 5002  282 L
DO
5002 3076 mt 5002  259 L
5002  259 mt 5002  259 L
SO
5002 3076 mt 5002 3029 L
5002  259 mt 5002  305 L
%%IncludeResource: font Helvetica
/Helvetica /ISOLatin1Encoding 120 FMSR

4914 3258 mt 
(10) s
%%IncludeResource: font Helvetica
/Helvetica /ISOLatin1Encoding 80 FMSR

5047 3184 mt 
(4) s
5473 3076 mt 5473 3052 L
5473  259 mt 5473  282 L
DO
5473 3076 mt 5473  259 L
5473  259 mt 5473  259 L
SO
 786 3076 mt  832 3076 L
5473 3076 mt 5426 3076 L
%%IncludeResource: font Helvetica
/Helvetica /ISOLatin1Encoding 120 FMSR

 548 3120 mt 
(-20) s
 786 2794 mt  832 2794 L
5473 2794 mt 5426 2794 L
 548 2838 mt 
(-18) s
 786 2512 mt  832 2512 L
5473 2512 mt 5426 2512 L
 548 2556 mt 
(-16) s
 786 2230 mt  832 2230 L
5473 2230 mt 5426 2230 L
 548 2274 mt 
(-14) s
 786 1949 mt  832 1949 L
5473 1949 mt 5426 1949 L
 548 1993 mt 
(-12) s
 786 1667 mt  832 1667 L
5473 1667 mt 5426 1667 L
 548 1711 mt 
(-10) s
 786 1385 mt  832 1385 L
5473 1385 mt 5426 1385 L
 615 1429 mt 
(-8) s
 786 1104 mt  832 1104 L
5473 1104 mt 5426 1104 L
 615 1148 mt 
(-6) s
 786  822 mt  832  822 L
5473  822 mt 5426  822 L
 615  866 mt 
(-4) s
 786  540 mt  832  540 L
5473  540 mt 5426  540 L
 615  584 mt 
(-2) s
 786  259 mt  832  259 L
5473  259 mt 5426  259 L
 685  303 mt 
(0) s
 786 3076 mt 5473 3076 L
 786  259 mt 5473  259 L
 786 3076 mt  786  259 L
5473 3076 mt 5473  259 L
gs 786 259 4688 2818 MR c np
DA
36 w
31 5 47 8 48 8 47 7 47 7 47 7 47 7 47 7 
47 7 47 7 47 7 47 7 47 6 47 7 47 6 47 6 
47 6 47 5 47 4 47 4 47 4 47 3 47 2 47 1 
47 0 47 -1 47 -1 47 -3 47 -4 47 -5 47 -7 47 -8 
47 -9 47 -11 47 -14 48 -15 47 -18 47 -20 47 -23 47 -25 
47 -30 47 -32 47 -36 47 -40 47 -45 47 -49 47 -53 47 -59 
47 -64 47 -68 47 -74 47 -80 47 -85 47 -90 47 -96 47 -101 
47 -106 47 -111 47 -116 47 -121 47 -125 47 -129 47 -133 47 -137 
47 -140 47 -144 47 -146 29 -89 2309 3077 69 MP stroke
SO
6 w
31 4 47 5 48 4 47 4 47 3 47 3 47 3 47 2 
47 2 47 2 47 2 47 1 47 1 47 1 47 1 47 1 
47 0 47 1 47 1 47 0 47 0 47 1 47 0 47 0 
47 1 47 0 47 0 47 0 47 0 47 0 47 0 47 1 
47 0 47 0 47 0 48 0 47 0 47 0 47 0 47 0 
47 0 47 0 47 0 47 0 47 0 47 0 47 0 47 0 
47 0 47 0 47 0 47 0 47 0 47 0 47 0 47 0 
47 0 47 0 47 0 47 0 47 0 47 0 47 0 47 0 
47 0 47 0 47 -1 48 0 47 0 47 0 47 0 47 0 
47 0 47 0 47 0 47 0 47 0 47 0 47 -1 47 0 
47 0 47 0 47 0 47 -1 47 0 47 -1 47 0 47 -1 
47 0 47 -1 47 -1 47 -1 47 -1 47 -1 47 -2 47 -1 
47 -2 47 -2 47 -3 833 550 100 MP stroke
47 -3 786 553 2 MP stroke
DD
36 w
39 103 47 121 47 117 47 115 47 111 47 109 47 106 47 103 
47 100 47 98 47 96 47 93 47 91 47 89 47 86 47 84 
47 82 47 80 47 77 48 75 47 73 47 69 47 67 47 64 
47 61 47 58 47 55 47 50 47 48 47 43 47 39 47 35 
47 32 47 27 47 23 47 19 47 15 47 12 47 8 47 5 
47 2 47 -1 47 -3 47 -5 47 -7 47 -8 47 -9 47 -9 
47 -11 47 -10 47 -10 48 -11 47 -9 47 -10 47 -9 47 -8 
47 -8 47 -7 47 -7 47 -6 47 -5 47 -5 47 -5 47 -4 
47 -4 47 -3 47 -3 47 -3 47 -2 47 -2 47 -3 47 -2 
47 -1 47 -2 47 -2 47 -2 47 -2 47 -2 47 -2 47 -2 
47 -2 47 -3 47 -3 47 -3 786 551 85 MP stroke
gr

36 w
DD
2724 3401 mt 
(Frequency [Hz]) s
 466 2137 mt  -90 rotate
(Relative gain [dB]) s
90 rotate
1662  164 mt 
(System frequency response, 1kHz crossover frequency) s
 769 3119 mt 
( ) s
5457  301 mt 
( ) s
SO
6 w
1 sg
0 480 859 0 0 -480 2700 3017 4 MP
PP
-859 0 0 480 859 0 0 -480 2700 3017 5 MP stroke
4 w
DO
SO
6 w
0 sg
2700 3017 mt 3559 3017 L
2700 2537 mt 3559 2537 L
2700 3017 mt 2700 2537 L
3559 3017 mt 3559 2537 L
2700 3017 mt 3559 3017 L
2700 3017 mt 2700 2537 L
2700 3017 mt 3559 3017 L
2700 2537 mt 3559 2537 L
2700 3017 mt 2700 2537 L
3559 3017 mt 3559 2537 L
3190 2671 mt 
(High F) s
gs 2700 2537 860 481 MR c np
DA
36 w
377 0 2775 2628 2 MP stroke
SO
gr

36 w
3190 2820 mt 
(Sum) s
gs 2700 2537 860 481 MR c np
6 w
377 0 2775 2777 2 MP stroke
gr

6 w
3190 2968 mt 
(Low F) s
gs 2700 2537 860 481 MR c np
DD
36 w
377 0 2775 2925 2 MP stroke
SO
6 w
gr


end %%Color Dict

eplot
%%EndObject

epage
end

showpage

%%Trailer
%%EOF
