%!PS-Adobe-2.0 EPSF-1.2
%%Creator: MATLAB, The MathWorks, Inc. Version 7.14.0.739 (R2012a). Operating System: Linux 3.2.0-31-generic-pae #50-Ubuntu SMP Fri Sep 7 16:39:45 UTC 2012 i686.
%%Title: ./low_high_sum.eps
%%CreationDate: 11/22/2012  08:49:00
%%DocumentNeededFonts: Helvetica
%%DocumentProcessColors: Cyan Magenta Yellow Black
%%Pages: 1
%%BoundingBox:    30     2   463   289
%%EndComments

%%BeginProlog
% MathWorks dictionary
/MathWorks 160 dict begin
% definition operators
/bdef {bind def} bind def
/ldef {load def} bind def
/xdef {exch def} bdef
/xstore {exch store} bdef
% operator abbreviations
/c  /clip ldef
/cc /concat ldef
/cp /closepath ldef
/gr /grestore ldef
/gs /gsave ldef
/mt /moveto ldef
/np /newpath ldef
/cm /currentmatrix ldef
/sm /setmatrix ldef
/rm /rmoveto ldef
/rl /rlineto ldef
/s {show newpath} bdef
/sc {setcmykcolor} bdef
/sr /setrgbcolor ldef
/sg /setgray ldef
/w /setlinewidth ldef
/j /setlinejoin ldef
/cap /setlinecap ldef
/rc {rectclip} bdef
/rf {rectfill} bdef
% page state control
/pgsv () def
/bpage {/pgsv save def} bdef
/epage {pgsv restore} bdef
/bplot /gsave ldef
/eplot {stroke grestore} bdef
% orientation switch
/portraitMode 0 def /landscapeMode 1 def /rotateMode 2 def
% coordinate system mappings
/dpi2point 0 def
% font control
/FontSize 0 def
/FMS {/FontSize xstore findfont [FontSize 0 0 FontSize neg 0 0]
  makefont setfont} bdef
/reencode {exch dup where {pop load} {pop StandardEncoding} ifelse
  exch dup 3 1 roll findfont dup length dict begin
  { 1 index /FID ne {def}{pop pop} ifelse } forall
  /Encoding exch def currentdict end definefont pop} bdef
/isroman {findfont /CharStrings get /Agrave known} bdef
/FMSR {3 1 roll 1 index dup isroman {reencode} {pop pop} ifelse
  exch FMS} bdef
/csm {1 dpi2point div -1 dpi2point div scale neg translate
 dup landscapeMode eq {pop -90 rotate}
  {rotateMode eq {90 rotate} if} ifelse} bdef
% line types: solid, dotted, dashed, dotdash
/SO { [] 0 setdash } bdef
/DO { [.5 dpi2point mul 4 dpi2point mul] 0 setdash } bdef
/DA { [6 dpi2point mul] 0 setdash } bdef
/DD { [.5 dpi2point mul 4 dpi2point mul 6 dpi2point mul 4
  dpi2point mul] 0 setdash } bdef
% macros for lines and objects
/L {lineto stroke} bdef
/MP {3 1 roll moveto 1 sub {rlineto} repeat} bdef
/AP {{rlineto} repeat} bdef
/PDlw -1 def
/W {/PDlw currentlinewidth def setlinewidth} def
/PP {closepath eofill} bdef
/DP {closepath stroke} bdef
/MR {4 -2 roll moveto dup  0 exch rlineto exch 0 rlineto
  neg 0 exch rlineto closepath} bdef
/FR {MR stroke} bdef
/PR {MR fill} bdef
/L1i {{currentfile picstr readhexstring pop} image} bdef
/tMatrix matrix def
/MakeOval {newpath tMatrix currentmatrix pop translate scale
0 0 1 0 360 arc tMatrix setmatrix} bdef
/FO {MakeOval stroke} bdef
/PO {MakeOval fill} bdef
/PD {currentlinewidth 2 div 0 360 arc fill
   PDlw -1 eq not {PDlw w /PDlw -1 def} if} def
/FA {newpath tMatrix currentmatrix pop translate scale
  0 0 1 5 -2 roll arc tMatrix setmatrix stroke} bdef
/PA {newpath tMatrix currentmatrix pop	translate 0 0 moveto scale
  0 0 1 5 -2 roll arc closepath tMatrix setmatrix fill} bdef
/FAn {newpath tMatrix currentmatrix pop translate scale
  0 0 1 5 -2 roll arcn tMatrix setmatrix stroke} bdef
/PAn {newpath tMatrix currentmatrix pop translate 0 0 moveto scale
  0 0 1 5 -2 roll arcn closepath tMatrix setmatrix fill} bdef
/vradius 0 def /hradius 0 def /lry 0 def
/lrx 0 def /uly 0 def /ulx 0 def /rad 0 def
/MRR {/vradius xdef /hradius xdef /lry xdef /lrx xdef /uly xdef
  /ulx xdef newpath tMatrix currentmatrix pop ulx hradius add uly
  vradius add translate hradius vradius scale 0 0 1 180 270 arc 
  tMatrix setmatrix lrx hradius sub uly vradius add translate
  hradius vradius scale 0 0 1 270 360 arc tMatrix setmatrix
  lrx hradius sub lry vradius sub translate hradius vradius scale
  0 0 1 0 90 arc tMatrix setmatrix ulx hradius add lry vradius sub
  translate hradius vradius scale 0 0 1 90 180 arc tMatrix setmatrix
  closepath} bdef
/FRR {MRR stroke } bdef
/PRR {MRR fill } bdef
/MlrRR {/lry xdef /lrx xdef /uly xdef /ulx xdef /rad lry uly sub 2 div def
  newpath tMatrix currentmatrix pop ulx rad add uly rad add translate
  rad rad scale 0 0 1 90 270 arc tMatrix setmatrix lrx rad sub lry rad
  sub translate rad rad scale 0 0 1 270 90 arc tMatrix setmatrix
  closepath} bdef
/FlrRR {MlrRR stroke } bdef
/PlrRR {MlrRR fill } bdef
/MtbRR {/lry xdef /lrx xdef /uly xdef /ulx xdef /rad lrx ulx sub 2 div def
  newpath tMatrix currentmatrix pop ulx rad add uly rad add translate
  rad rad scale 0 0 1 180 360 arc tMatrix setmatrix lrx rad sub lry rad
  sub translate rad rad scale 0 0 1 0 180 arc tMatrix setmatrix
  closepath} bdef
/FtbRR {MtbRR stroke } bdef
/PtbRR {MtbRR fill } bdef
/stri 6 array def /dtri 6 array def
/smat 6 array def /dmat 6 array def
/tmat1 6 array def /tmat2 6 array def /dif 3 array def
/asub {/ind2 exch def /ind1 exch def dup dup
  ind1 get exch ind2 get sub exch } bdef
/tri_to_matrix {
  2 0 asub 3 1 asub 4 0 asub 5 1 asub
  dup 0 get exch 1 get 7 -1 roll astore } bdef
/compute_transform {
  dmat dtri tri_to_matrix tmat1 invertmatrix 
  smat stri tri_to_matrix tmat2 concatmatrix } bdef
/ds {stri astore pop} bdef
/dt {dtri astore pop} bdef
/db {2 copy /cols xdef /rows xdef mul dup string
  currentfile exch readhexstring pop
  /bmap xdef pop pop} bdef
/it {gs np dtri aload pop moveto lineto lineto cp c
  cols rows 8 compute_transform 
  {bmap} image gr}bdef
/il {newpath moveto lineto stroke}bdef
currentdict end def
%%EndProlog

%%BeginSetup
MathWorks begin

0 cap

end
%%EndSetup

%%Page: 1 1
%%BeginPageSetup
%%PageBoundingBox:    30     2   463   289
MathWorks begin
bpage
%%EndPageSetup

%%BeginObject: obj1
bplot

/dpi2point 12 def
portraitMode 0000 3456 csm

  367   -20  5196  3444 MR c np
78 dict begin %Colortable dictionary
/c0 { 0.000000 0.000000 0.000000 sr} bdef
/c1 { 1.000000 1.000000 1.000000 sr} bdef
/c2 { 0.900000 0.000000 0.000000 sr} bdef
/c3 { 0.000000 0.820000 0.000000 sr} bdef
/c4 { 0.000000 0.000000 0.800000 sr} bdef
/c5 { 0.910000 0.820000 0.320000 sr} bdef
/c6 { 1.000000 0.260000 0.820000 sr} bdef
/c7 { 0.000000 0.820000 0.820000 sr} bdef
c0
1 j
1 sg
   0    0 6049 3457 PR
6 w
0 2817 4687 0 0 -2817 786 3076 4 MP
PP
-4687 0 0 2817 4687 0 0 -2817 786 3076 5 MP stroke
4 w
DO
0 sg
 786 3076 mt  786  259 L
 786  259 mt  786  259 L
1371 3076 mt 1371  259 L
1371  259 mt 1371  259 L
1957 3076 mt 1957  259 L
1957  259 mt 1957  259 L
2543 3076 mt 2543  259 L
2543  259 mt 2543  259 L
3129 3076 mt 3129  259 L
3129  259 mt 3129  259 L
3715 3076 mt 3715  259 L
3715  259 mt 3715  259 L
4301 3076 mt 4301  259 L
4301  259 mt 4301  259 L
4887 3076 mt 4887  259 L
4887  259 mt 4887  259 L
5473 3076 mt 5473  259 L
5473  259 mt 5473  259 L
 786 3076 mt 5473 3076 L
5473 3076 mt 5473 3076 L
 786 2794 mt 5473 2794 L
5473 2794 mt 5473 2794 L
 786 2512 mt 5473 2512 L
5473 2512 mt 5473 2512 L
 786 2230 mt 5473 2230 L
5473 2230 mt 5473 2230 L
 786 1949 mt 5473 1949 L
5473 1949 mt 5473 1949 L
 786 1667 mt 5473 1667 L
5473 1667 mt 5473 1667 L
 786 1385 mt 5473 1385 L
5473 1385 mt 5473 1385 L
 786 1104 mt 5473 1104 L
5473 1104 mt 5473 1104 L
 786  822 mt 5473  822 L
5473  822 mt 5473  822 L
 786  540 mt 5473  540 L
5473  540 mt 5473  540 L
 786  259 mt 5473  259 L
5473  259 mt 5473  259 L
SO
6 w
 786 3076 mt 5473 3076 L
 786  259 mt 5473  259 L
 786 3076 mt  786  259 L
5473 3076 mt 5473  259 L
 786 3076 mt 5473 3076 L
 786 3076 mt  786  259 L
 786 3076 mt  786 3029 L
 786  259 mt  786  305 L
%%IncludeResource: font Helvetica
/Helvetica /ISOLatin1Encoding 120 FMSR

 753 3221 mt 
(0) s
1371 3076 mt 1371 3029 L
1371  259 mt 1371  305 L
1288 3221 mt 
(0.5) s
1957 3076 mt 1957 3029 L
1957  259 mt 1957  305 L
1924 3221 mt 
(1) s
2543 3076 mt 2543 3029 L
2543  259 mt 2543  305 L
2460 3221 mt 
(1.5) s
3129 3076 mt 3129 3029 L
3129  259 mt 3129  305 L
3096 3221 mt 
(2) s
3715 3076 mt 3715 3029 L
3715  259 mt 3715  305 L
3632 3221 mt 
(2.5) s
4301 3076 mt 4301 3029 L
4301  259 mt 4301  305 L
4268 3221 mt 
(3) s
4887 3076 mt 4887 3029 L
4887  259 mt 4887  305 L
4804 3221 mt 
(3.5) s
5473 3076 mt 5473 3029 L
5473  259 mt 5473  305 L
5440 3221 mt 
(4) s
5156 3423 mt 
(x 10) s
%%IncludeResource: font Helvetica
/Helvetica /ISOLatin1Encoding 80 FMSR

5382 3349 mt 
(-3) s
 786 3076 mt  832 3076 L
5473 3076 mt 5426 3076 L
%%IncludeResource: font Helvetica
/Helvetica /ISOLatin1Encoding 120 FMSR

 685 3120 mt 
(4) s
 786 2794 mt  832 2794 L
5473 2794 mt 5426 2794 L
 585 2838 mt 
(4.2) s
 786 2512 mt  832 2512 L
5473 2512 mt 5426 2512 L
 585 2556 mt 
(4.4) s
 786 2230 mt  832 2230 L
5473 2230 mt 5426 2230 L
 585 2274 mt 
(4.6) s
 786 1949 mt  832 1949 L
5473 1949 mt 5426 1949 L
 585 1993 mt 
(4.8) s
 786 1667 mt  832 1667 L
5473 1667 mt 5426 1667 L
 685 1711 mt 
(5) s
 786 1385 mt  832 1385 L
5473 1385 mt 5426 1385 L
 585 1429 mt 
(5.2) s
 786 1104 mt  832 1104 L
5473 1104 mt 5426 1104 L
 585 1148 mt 
(5.4) s
 786  822 mt  832  822 L
5473  822 mt 5426  822 L
 585  866 mt 
(5.6) s
 786  540 mt  832  540 L
5473  540 mt 5426  540 L
 585  584 mt 
(5.8) s
 786  259 mt  832  259 L
5473  259 mt 5426  259 L
 685  303 mt 
(6) s
 786 3076 mt 5473 3076 L
 786  259 mt 5473  259 L
 786 3076 mt  786  259 L
5473 3076 mt 5473  259 L
gs 786 259 4688 2818 MR c np
2 0 1 0 11 0 11 0 12 0 11 0 11 0 12 0 
11 -1 56 0 57 -1 37 0 56 -1 57 -1 56 0 56 -1 
56 0 57 -1 56 -1 56 0 56 -1 57 -1 56 0 56 -1 
56 -1 57 0 56 -1 56 -1 56 0 57 -1 56 -1 56 0 
38 -1 37 0 38 -1 18 0 19 0 19 0 19 0 18 -1 
19 0 19 0 19 0 18 -1 19 0 19 0 19 0 18 0 
19 -1 19 0 19 0 18 0 19 -1 19 0 19 0 18 0 
19 -1 19 0 19 0 18 0 19 0 19 -1 19 0 18 0 
19 0 19 -1 19 0 18 0 19 0 19 -1 18 0 19 0 
19 0 19 0 18 -1 19 0 19 0 19 0 18 -1 17 0 
8 0 5 1 4 4 3 8 2 18 2 31 1 47 1 70 
1 87 1 108 1 114 1 147 0 227 1 46 0 190 1 24 
0 6 56 1 57 0 3017 1116 100 MP stroke
56 1 56 1 56 0 57 1 56 1 56 0 56 1 57 0 
56 1 56 1 56 0 57 1 56 1 56 0 56 1 56 1 
57 0 56 1 56 1 56 0 57 1 56 1 37 0 38 0 
37 1 19 0 19 0 19 1 18 0 19 0 19 0 19 0 
18 1 19 0 19 0 19 0 18 1 19 0 19 0 19 0 
18 0 19 1 19 0 19 0 18 0 19 1 19 0 19 0 
18 0 19 1 19 0 19 0 18 0 19 0 19 1 19 0 
18 0 19 0 19 1 19 0 18 0 19 0 19 1 19 0 
18 0 19 0 19 1 19 0 18 0 19 0 11 0 6 0 
5 -2 3 -6 2 -13 2 -23 2 -40 1 -58 2 -80 1 -98 
0 -110 1 -129 1 -163 0 -217 1 -113 0 -76 786 2218 87 MP stroke
DA
36 w
2 0 1 0 11 1 11 0 12 0 11 0 11 1 12 0 
11 0 56 2 57 1 37 2 56 2 57 2 56 3 56 2 
56 4 57 3 56 4 56 5 56 4 57 6 56 6 56 6 
56 7 57 7 56 8 56 9 56 9 57 10 56 9 56 10 
38 6 37 7 38 5 18 3 19 3 19 2 19 2 18 2 
19 2 19 1 19 1 18 1 19 0 19 -1 19 -1 18 -1 
19 -2 19 -3 19 -4 18 -5 19 -6 19 -7 19 -9 18 -10 
19 -11 19 -13 19 -15 18 -17 19 -19 19 -22 19 -24 18 -27 
19 -30 19 -34 19 -38 18 -41 19 -46 19 -51 18 -56 19 -62 
19 -68 19 -74 18 -81 19 -88 19 -93 19 -97 18 -95 17 -76 
8 -34 5 -17 4 -7 3 3 2 13 2 28 1 46 1 69 
1 87 1 107 1 114 1 147 0 227 1 45 0 191 1 24 
0 6 56 -1 57 -2 3017 1680 100 MP stroke
56 -2 56 -1 56 -2 57 -3 56 -2 56 -3 56 -3 57 -4 
56 -4 56 -4 56 -5 57 -5 56 -6 56 -6 56 -7 56 -7 
57 -8 56 -9 56 -9 56 -9 57 -10 56 -10 37 -6 38 -6 
37 -6 19 -3 19 -3 19 -2 18 -2 19 -2 19 -2 19 -2 
18 -1 19 -1 19 0 19 0 18 1 19 1 19 2 19 3 
18 3 19 5 19 5 19 7 18 8 19 9 19 10 19 12 
18 14 19 16 19 19 19 20 18 23 19 26 19 29 19 32 
18 35 19 40 19 44 19 49 18 53 19 59 19 65 19 71 
18 78 19 85 19 90 19 96 18 97 19 92 11 48 6 24 
5 11 3 2 2 -8 2 -20 2 -37 1 -58 2 -79 1 -97 
0 -110 1 -129 1 -163 0 -217 1 -112 0 -76 786 1657 87 MP stroke
DD
2 0 1 0 11 0 11 -1 12 0 11 0 11 -1 12 0 
11 -1 56 -2 57 -2 37 -2 56 -3 57 -3 56 -3 56 -3 
56 -4 57 -4 56 -5 56 -5 56 -5 57 -6 56 -7 56 -7 
56 -7 57 -9 56 -8 56 -10 56 -9 57 -10 56 -11 56 -10 
38 -7 37 -7 38 -6 18 -3 19 -3 19 -2 19 -3 18 -2 
19 -2 19 -1 19 -1 18 -1 19 -1 19 1 19 0 18 2 
19 2 19 3 19 3 18 5 19 6 19 7 19 8 18 9 
19 11 19 13 19 15 18 17 19 19 19 21 19 24 18 27 
19 30 19 34 19 37 18 41 19 46 19 51 18 56 19 61 
19 68 19 74 18 80 19 88 19 93 19 96 18 96 17 75 
8 34 5 18 4 10 3 7 2 3 2 3 1 2 1 1 
1 0 1 1 1 0 1 0 1 0 1 0 56 2 57 2 
56 3 56 2 56 3 2849 1095 100 MP stroke
57 3 56 3 56 3 56 4 57 4 56 5 56 5 56 5 
57 6 56 6 56 7 56 8 56 8 57 8 56 10 56 9 
56 10 57 11 56 10 37 7 38 7 37 6 19 3 19 3 
19 3 18 2 19 2 19 2 19 2 18 1 19 1 19 1 
19 0 18 0 19 -1 19 -2 19 -3 18 -3 19 -4 19 -5 
19 -7 18 -7 19 -9 19 -10 19 -12 18 -14 19 -16 19 -18 
19 -20 18 -23 19 -25 19 -29 19 -32 18 -35 19 -40 19 -43 
19 -49 18 -53 19 -59 19 -65 19 -71 18 -77 19 -84 19 -91 
19 -95 18 -97 19 -92 11 -48 6 -24 5 -13 3 -8 2 -5 
2 -3 2 -2 1 -2 2 0 1 -1 1 0 1 0 1 0 
786 2227 81 MP stroke
gr

36 w
DD
1862  164 mt 
(1Vpp Step response, 1kHz crossover frequency) s
2915 3364 mt 
(Time [s]) s
 503 2215 mt  -90 rotate
(Output amplitude [V]) s
90 rotate
 769 3119 mt 
( ) s
5457  301 mt 
( ) s
SO
6 w
1 sg
0 480 859 0 0 -480 4555 799 4 MP
PP
-859 0 0 480 859 0 0 -480 4555 799 5 MP stroke
4 w
DO
SO
6 w
0 sg
4555  799 mt 5414  799 L
4555  319 mt 5414  319 L
4555  799 mt 4555  319 L
5414  799 mt 5414  319 L
4555  799 mt 5414  799 L
4555  799 mt 4555  319 L
4555  799 mt 5414  799 L
4555  319 mt 5414  319 L
4555  799 mt 4555  319 L
5414  799 mt 5414  319 L
5045  453 mt 
(Sum) s
gs 4555 319 860 481 MR c np
377 0 4630 410 2 MP stroke
gr

5045  602 mt 
(High F) s
gs 4555 319 860 481 MR c np
DA
36 w
377 0 4630 559 2 MP stroke
SO
gr

36 w
5045  750 mt 
(Low F) s
gs 4555 319 860 481 MR c np
DD
377 0 4630 707 2 MP stroke
SO
6 w
gr

6 w

end %%Color Dict

eplot
%%EndObject

epage
end

showpage

%%Trailer
%%EOF
