%!PS-Adobe-2.0 EPSF-1.2
%%Creator: MATLAB, The MathWorks, Inc. Version 7.14.0.739 (R2012a). Operating System: Linux 3.2.0-31-generic-pae #50-Ubuntu SMP Fri Sep 7 16:39:45 UTC 2012 i686.
%%Title: ./ultrasonic_infrasonic.eps
%%CreationDate: 11/22/2012  08:49:02
%%DocumentNeededFonts: Helvetica
%%DocumentProcessColors: Cyan Magenta Yellow Black
%%Pages: 1
%%BoundingBox:    27     0   467   289
%%EndComments

%%BeginProlog
% MathWorks dictionary
/MathWorks 160 dict begin
% definition operators
/bdef {bind def} bind def
/ldef {load def} bind def
/xdef {exch def} bdef
/xstore {exch store} bdef
% operator abbreviations
/c  /clip ldef
/cc /concat ldef
/cp /closepath ldef
/gr /grestore ldef
/gs /gsave ldef
/mt /moveto ldef
/np /newpath ldef
/cm /currentmatrix ldef
/sm /setmatrix ldef
/rm /rmoveto ldef
/rl /rlineto ldef
/s {show newpath} bdef
/sc {setcmykcolor} bdef
/sr /setrgbcolor ldef
/sg /setgray ldef
/w /setlinewidth ldef
/j /setlinejoin ldef
/cap /setlinecap ldef
/rc {rectclip} bdef
/rf {rectfill} bdef
% page state control
/pgsv () def
/bpage {/pgsv save def} bdef
/epage {pgsv restore} bdef
/bplot /gsave ldef
/eplot {stroke grestore} bdef
% orientation switch
/portraitMode 0 def /landscapeMode 1 def /rotateMode 2 def
% coordinate system mappings
/dpi2point 0 def
% font control
/FontSize 0 def
/FMS {/FontSize xstore findfont [FontSize 0 0 FontSize neg 0 0]
  makefont setfont} bdef
/reencode {exch dup where {pop load} {pop StandardEncoding} ifelse
  exch dup 3 1 roll findfont dup length dict begin
  { 1 index /FID ne {def}{pop pop} ifelse } forall
  /Encoding exch def currentdict end definefont pop} bdef
/isroman {findfont /CharStrings get /Agrave known} bdef
/FMSR {3 1 roll 1 index dup isroman {reencode} {pop pop} ifelse
  exch FMS} bdef
/csm {1 dpi2point div -1 dpi2point div scale neg translate
 dup landscapeMode eq {pop -90 rotate}
  {rotateMode eq {90 rotate} if} ifelse} bdef
% line types: solid, dotted, dashed, dotdash
/SO { [] 0 setdash } bdef
/DO { [.5 dpi2point mul 4 dpi2point mul] 0 setdash } bdef
/DA { [6 dpi2point mul] 0 setdash } bdef
/DD { [.5 dpi2point mul 4 dpi2point mul 6 dpi2point mul 4
  dpi2point mul] 0 setdash } bdef
% macros for lines and objects
/L {lineto stroke} bdef
/MP {3 1 roll moveto 1 sub {rlineto} repeat} bdef
/AP {{rlineto} repeat} bdef
/PDlw -1 def
/W {/PDlw currentlinewidth def setlinewidth} def
/PP {closepath eofill} bdef
/DP {closepath stroke} bdef
/MR {4 -2 roll moveto dup  0 exch rlineto exch 0 rlineto
  neg 0 exch rlineto closepath} bdef
/FR {MR stroke} bdef
/PR {MR fill} bdef
/L1i {{currentfile picstr readhexstring pop} image} bdef
/tMatrix matrix def
/MakeOval {newpath tMatrix currentmatrix pop translate scale
0 0 1 0 360 arc tMatrix setmatrix} bdef
/FO {MakeOval stroke} bdef
/PO {MakeOval fill} bdef
/PD {currentlinewidth 2 div 0 360 arc fill
   PDlw -1 eq not {PDlw w /PDlw -1 def} if} def
/FA {newpath tMatrix currentmatrix pop translate scale
  0 0 1 5 -2 roll arc tMatrix setmatrix stroke} bdef
/PA {newpath tMatrix currentmatrix pop	translate 0 0 moveto scale
  0 0 1 5 -2 roll arc closepath tMatrix setmatrix fill} bdef
/FAn {newpath tMatrix currentmatrix pop translate scale
  0 0 1 5 -2 roll arcn tMatrix setmatrix stroke} bdef
/PAn {newpath tMatrix currentmatrix pop translate 0 0 moveto scale
  0 0 1 5 -2 roll arcn closepath tMatrix setmatrix fill} bdef
/vradius 0 def /hradius 0 def /lry 0 def
/lrx 0 def /uly 0 def /ulx 0 def /rad 0 def
/MRR {/vradius xdef /hradius xdef /lry xdef /lrx xdef /uly xdef
  /ulx xdef newpath tMatrix currentmatrix pop ulx hradius add uly
  vradius add translate hradius vradius scale 0 0 1 180 270 arc 
  tMatrix setmatrix lrx hradius sub uly vradius add translate
  hradius vradius scale 0 0 1 270 360 arc tMatrix setmatrix
  lrx hradius sub lry vradius sub translate hradius vradius scale
  0 0 1 0 90 arc tMatrix setmatrix ulx hradius add lry vradius sub
  translate hradius vradius scale 0 0 1 90 180 arc tMatrix setmatrix
  closepath} bdef
/FRR {MRR stroke } bdef
/PRR {MRR fill } bdef
/MlrRR {/lry xdef /lrx xdef /uly xdef /ulx xdef /rad lry uly sub 2 div def
  newpath tMatrix currentmatrix pop ulx rad add uly rad add translate
  rad rad scale 0 0 1 90 270 arc tMatrix setmatrix lrx rad sub lry rad
  sub translate rad rad scale 0 0 1 270 90 arc tMatrix setmatrix
  closepath} bdef
/FlrRR {MlrRR stroke } bdef
/PlrRR {MlrRR fill } bdef
/MtbRR {/lry xdef /lrx xdef /uly xdef /ulx xdef /rad lrx ulx sub 2 div def
  newpath tMatrix currentmatrix pop ulx rad add uly rad add translate
  rad rad scale 0 0 1 180 360 arc tMatrix setmatrix lrx rad sub lry rad
  sub translate rad rad scale 0 0 1 0 180 arc tMatrix setmatrix
  closepath} bdef
/FtbRR {MtbRR stroke } bdef
/PtbRR {MtbRR fill } bdef
/stri 6 array def /dtri 6 array def
/smat 6 array def /dmat 6 array def
/tmat1 6 array def /tmat2 6 array def /dif 3 array def
/asub {/ind2 exch def /ind1 exch def dup dup
  ind1 get exch ind2 get sub exch } bdef
/tri_to_matrix {
  2 0 asub 3 1 asub 4 0 asub 5 1 asub
  dup 0 get exch 1 get 7 -1 roll astore } bdef
/compute_transform {
  dmat dtri tri_to_matrix tmat1 invertmatrix 
  smat stri tri_to_matrix tmat2 concatmatrix } bdef
/ds {stri astore pop} bdef
/dt {dtri astore pop} bdef
/db {2 copy /cols xdef /rows xdef mul dup string
  currentfile exch readhexstring pop
  /bmap xdef pop pop} bdef
/it {gs np dtri aload pop moveto lineto lineto cp c
  cols rows 8 compute_transform 
  {bmap} image gr}bdef
/il {newpath moveto lineto stroke}bdef
currentdict end def
%%EndProlog

%%BeginSetup
MathWorks begin

0 cap

end
%%EndSetup

%%Page: 1 1
%%BeginPageSetup
%%PageBoundingBox:    27     0   467   289
MathWorks begin
bpage
%%EndPageSetup

%%BeginObject: obj1
bplot

/dpi2point 12 def
portraitMode 0000 3456 csm

  330   -20  5281  3473 MR c np
78 dict begin %Colortable dictionary
/c0 { 0.000000 0.000000 0.000000 sr} bdef
/c1 { 1.000000 1.000000 1.000000 sr} bdef
/c2 { 0.900000 0.000000 0.000000 sr} bdef
/c3 { 0.000000 0.820000 0.000000 sr} bdef
/c4 { 0.000000 0.000000 0.800000 sr} bdef
/c5 { 0.910000 0.820000 0.320000 sr} bdef
/c6 { 1.000000 0.260000 0.820000 sr} bdef
/c7 { 0.000000 0.820000 0.820000 sr} bdef
c0
1 j
1 sg
   0    0 6049 3457 PR
6 w
0 2817 4688 0 0 -2817 785 3076 4 MP
PP
-4688 0 0 2817 4688 0 0 -2817 785 3076 5 MP stroke
4 w
DO
0 sg
1161 3076 mt 1161  259 L
1161  259 mt 1161  259 L
1880 3076 mt 1880  259 L
1880  259 mt 1880  259 L
2598 3076 mt 2598  259 L
2598  259 mt 2598  259 L
3317 3076 mt 3317  259 L
3317  259 mt 3317  259 L
4035 3076 mt 4035  259 L
4035  259 mt 4035  259 L
4754 3076 mt 4754  259 L
4754  259 mt 4754  259 L
5473 3076 mt 5473  259 L
5473  259 mt 5473  259 L
 785 3076 mt 5473 3076 L
5473 3076 mt 5473 3076 L
 785 2794 mt 5473 2794 L
5473 2794 mt 5473 2794 L
 785 2512 mt 5473 2512 L
5473 2512 mt 5473 2512 L
 785 2230 mt 5473 2230 L
5473 2230 mt 5473 2230 L
 785 1949 mt 5473 1949 L
5473 1949 mt 5473 1949 L
 785 1667 mt 5473 1667 L
5473 1667 mt 5473 1667 L
 785 1385 mt 5473 1385 L
5473 1385 mt 5473 1385 L
 785 1104 mt 5473 1104 L
5473 1104 mt 5473 1104 L
 785  822 mt 5473  822 L
5473  822 mt 5473  822 L
 785  540 mt 5473  540 L
5473  540 mt 5473  540 L
 785  259 mt 5473  259 L
5473  259 mt 5473  259 L
SO
6 w
 785 3076 mt 5473 3076 L
 785  259 mt 5473  259 L
 785 3076 mt  785  259 L
5473 3076 mt 5473  259 L
 785 3076 mt 5473 3076 L
 785 3076 mt  785  259 L
1161 3076 mt 1161 3052 L
1161  259 mt 1161  282 L
DO
1161 3076 mt 1161  259 L
1161  259 mt 1161  259 L
SO
1128 3076 mt 1128 3052 L
1128  259 mt 1128  282 L
DO
1128 3076 mt 1128  259 L
1128  259 mt 1128  259 L
SO
1092 3076 mt 1092 3052 L
1092  259 mt 1092  282 L
DO
1092 3076 mt 1092  259 L
1092  259 mt 1092  259 L
SO
1050 3076 mt 1050 3052 L
1050  259 mt 1050  282 L
DO
1050 3076 mt 1050  259 L
1050  259 mt 1050  259 L
SO
1002 3076 mt 1002 3052 L
1002  259 mt 1002  282 L
DO
1002 3076 mt 1002  259 L
1002  259 mt 1002  259 L
SO
 945 3076 mt  945 3052 L
 945  259 mt  945  282 L
DO
 945 3076 mt  945  259 L
 945  259 mt  945  259 L
SO
 875 3076 mt  875 3052 L
 875  259 mt  875  282 L
DO
 875 3076 mt  875  259 L
 875  259 mt  875  259 L
SO
 785 3076 mt  785 3052 L
 785  259 mt  785  282 L
DO
 785 3076 mt  785  259 L
 785  259 mt  785  259 L
SO
1161 3076 mt 1161 3029 L
1161  259 mt 1161  305 L
%%IncludeResource: font Helvetica
/Helvetica /ISOLatin1Encoding 120 FMSR

1073 3258 mt 
(10) s
%%IncludeResource: font Helvetica
/Helvetica /ISOLatin1Encoding 80 FMSR

1206 3184 mt 
(0) s
1378 3076 mt 1378 3052 L
1378  259 mt 1378  282 L
DO
1378 3076 mt 1378  259 L
1378  259 mt 1378  259 L
SO
1504 3076 mt 1504 3052 L
1504  259 mt 1504  282 L
DO
1504 3076 mt 1504  259 L
1504  259 mt 1504  259 L
SO
1594 3076 mt 1594 3052 L
1594  259 mt 1594  282 L
DO
1594 3076 mt 1594  259 L
1594  259 mt 1594  259 L
SO
1663 3076 mt 1663 3052 L
1663  259 mt 1663  282 L
DO
1663 3076 mt 1663  259 L
1663  259 mt 1663  259 L
SO
1720 3076 mt 1720 3052 L
1720  259 mt 1720  282 L
DO
1720 3076 mt 1720  259 L
1720  259 mt 1720  259 L
SO
1768 3076 mt 1768 3052 L
1768  259 mt 1768  282 L
DO
1768 3076 mt 1768  259 L
1768  259 mt 1768  259 L
SO
1810 3076 mt 1810 3052 L
1810  259 mt 1810  282 L
DO
1810 3076 mt 1810  259 L
1810  259 mt 1810  259 L
SO
1847 3076 mt 1847 3052 L
1847  259 mt 1847  282 L
DO
1847 3076 mt 1847  259 L
1847  259 mt 1847  259 L
SO
1880 3076 mt 1880 3052 L
1880  259 mt 1880  282 L
DO
1880 3076 mt 1880  259 L
1880  259 mt 1880  259 L
SO
1880 3076 mt 1880 3029 L
1880  259 mt 1880  305 L
%%IncludeResource: font Helvetica
/Helvetica /ISOLatin1Encoding 120 FMSR

1792 3258 mt 
(10) s
%%IncludeResource: font Helvetica
/Helvetica /ISOLatin1Encoding 80 FMSR

1925 3184 mt 
(1) s
2096 3076 mt 2096 3052 L
2096  259 mt 2096  282 L
DO
2096 3076 mt 2096  259 L
2096  259 mt 2096  259 L
SO
2223 3076 mt 2223 3052 L
2223  259 mt 2223  282 L
DO
2223 3076 mt 2223  259 L
2223  259 mt 2223  259 L
SO
2312 3076 mt 2312 3052 L
2312  259 mt 2312  282 L
DO
2312 3076 mt 2312  259 L
2312  259 mt 2312  259 L
SO
2382 3076 mt 2382 3052 L
2382  259 mt 2382  282 L
DO
2382 3076 mt 2382  259 L
2382  259 mt 2382  259 L
SO
2439 3076 mt 2439 3052 L
2439  259 mt 2439  282 L
DO
2439 3076 mt 2439  259 L
2439  259 mt 2439  259 L
SO
2487 3076 mt 2487 3052 L
2487  259 mt 2487  282 L
DO
2487 3076 mt 2487  259 L
2487  259 mt 2487  259 L
SO
2529 3076 mt 2529 3052 L
2529  259 mt 2529  282 L
DO
2529 3076 mt 2529  259 L
2529  259 mt 2529  259 L
SO
2565 3076 mt 2565 3052 L
2565  259 mt 2565  282 L
DO
2565 3076 mt 2565  259 L
2565  259 mt 2565  259 L
SO
2598 3076 mt 2598 3052 L
2598  259 mt 2598  282 L
DO
2598 3076 mt 2598  259 L
2598  259 mt 2598  259 L
SO
2598 3076 mt 2598 3029 L
2598  259 mt 2598  305 L
%%IncludeResource: font Helvetica
/Helvetica /ISOLatin1Encoding 120 FMSR

2510 3258 mt 
(10) s
%%IncludeResource: font Helvetica
/Helvetica /ISOLatin1Encoding 80 FMSR

2643 3184 mt 
(2) s
2815 3076 mt 2815 3052 L
2815  259 mt 2815  282 L
DO
2815 3076 mt 2815  259 L
2815  259 mt 2815  259 L
SO
2941 3076 mt 2941 3052 L
2941  259 mt 2941  282 L
DO
2941 3076 mt 2941  259 L
2941  259 mt 2941  259 L
SO
3031 3076 mt 3031 3052 L
3031  259 mt 3031  282 L
DO
3031 3076 mt 3031  259 L
3031  259 mt 3031  259 L
SO
3101 3076 mt 3101 3052 L
3101  259 mt 3101  282 L
DO
3101 3076 mt 3101  259 L
3101  259 mt 3101  259 L
SO
3157 3076 mt 3157 3052 L
3157  259 mt 3157  282 L
DO
3157 3076 mt 3157  259 L
3157  259 mt 3157  259 L
SO
3206 3076 mt 3206 3052 L
3206  259 mt 3206  282 L
DO
3206 3076 mt 3206  259 L
3206  259 mt 3206  259 L
SO
3247 3076 mt 3247 3052 L
3247  259 mt 3247  282 L
DO
3247 3076 mt 3247  259 L
3247  259 mt 3247  259 L
SO
3284 3076 mt 3284 3052 L
3284  259 mt 3284  282 L
DO
3284 3076 mt 3284  259 L
3284  259 mt 3284  259 L
SO
3317 3076 mt 3317 3052 L
3317  259 mt 3317  282 L
DO
3317 3076 mt 3317  259 L
3317  259 mt 3317  259 L
SO
3317 3076 mt 3317 3029 L
3317  259 mt 3317  305 L
%%IncludeResource: font Helvetica
/Helvetica /ISOLatin1Encoding 120 FMSR

3229 3258 mt 
(10) s
%%IncludeResource: font Helvetica
/Helvetica /ISOLatin1Encoding 80 FMSR

3362 3184 mt 
(3) s
3533 3076 mt 3533 3052 L
3533  259 mt 3533  282 L
DO
3533 3076 mt 3533  259 L
3533  259 mt 3533  259 L
SO
3660 3076 mt 3660 3052 L
3660  259 mt 3660  282 L
DO
3660 3076 mt 3660  259 L
3660  259 mt 3660  259 L
SO
3749 3076 mt 3749 3052 L
3749  259 mt 3749  282 L
DO
3749 3076 mt 3749  259 L
3749  259 mt 3749  259 L
SO
3819 3076 mt 3819 3052 L
3819  259 mt 3819  282 L
DO
3819 3076 mt 3819  259 L
3819  259 mt 3819  259 L
SO
3876 3076 mt 3876 3052 L
3876  259 mt 3876  282 L
DO
3876 3076 mt 3876  259 L
3876  259 mt 3876  259 L
SO
3924 3076 mt 3924 3052 L
3924  259 mt 3924  282 L
DO
3924 3076 mt 3924  259 L
3924  259 mt 3924  259 L
SO
3966 3076 mt 3966 3052 L
3966  259 mt 3966  282 L
DO
3966 3076 mt 3966  259 L
3966  259 mt 3966  259 L
SO
4003 3076 mt 4003 3052 L
4003  259 mt 4003  282 L
DO
4003 3076 mt 4003  259 L
4003  259 mt 4003  259 L
SO
4035 3076 mt 4035 3052 L
4035  259 mt 4035  282 L
DO
4035 3076 mt 4035  259 L
4035  259 mt 4035  259 L
SO
4035 3076 mt 4035 3029 L
4035  259 mt 4035  305 L
%%IncludeResource: font Helvetica
/Helvetica /ISOLatin1Encoding 120 FMSR

3947 3258 mt 
(10) s
%%IncludeResource: font Helvetica
/Helvetica /ISOLatin1Encoding 80 FMSR

4080 3184 mt 
(4) s
4252 3076 mt 4252 3052 L
4252  259 mt 4252  282 L
DO
4252 3076 mt 4252  259 L
4252  259 mt 4252  259 L
SO
4378 3076 mt 4378 3052 L
4378  259 mt 4378  282 L
DO
4378 3076 mt 4378  259 L
4378  259 mt 4378  259 L
SO
4468 3076 mt 4468 3052 L
4468  259 mt 4468  282 L
DO
4468 3076 mt 4468  259 L
4468  259 mt 4468  259 L
SO
4538 3076 mt 4538 3052 L
4538  259 mt 4538  282 L
DO
4538 3076 mt 4538  259 L
4538  259 mt 4538  259 L
SO
4595 3076 mt 4595 3052 L
4595  259 mt 4595  282 L
DO
4595 3076 mt 4595  259 L
4595  259 mt 4595  259 L
SO
4643 3076 mt 4643 3052 L
4643  259 mt 4643  282 L
DO
4643 3076 mt 4643  259 L
4643  259 mt 4643  259 L
SO
4684 3076 mt 4684 3052 L
4684  259 mt 4684  282 L
DO
4684 3076 mt 4684  259 L
4684  259 mt 4684  259 L
SO
4721 3076 mt 4721 3052 L
4721  259 mt 4721  282 L
DO
4721 3076 mt 4721  259 L
4721  259 mt 4721  259 L
SO
4754 3076 mt 4754 3052 L
4754  259 mt 4754  282 L
DO
4754 3076 mt 4754  259 L
4754  259 mt 4754  259 L
SO
4754 3076 mt 4754 3029 L
4754  259 mt 4754  305 L
%%IncludeResource: font Helvetica
/Helvetica /ISOLatin1Encoding 120 FMSR

4666 3258 mt 
(10) s
%%IncludeResource: font Helvetica
/Helvetica /ISOLatin1Encoding 80 FMSR

4799 3184 mt 
(5) s
4970 3076 mt 4970 3052 L
4970  259 mt 4970  282 L
DO
4970 3076 mt 4970  259 L
4970  259 mt 4970  259 L
SO
5097 3076 mt 5097 3052 L
5097  259 mt 5097  282 L
DO
5097 3076 mt 5097  259 L
5097  259 mt 5097  259 L
SO
5187 3076 mt 5187 3052 L
5187  259 mt 5187  282 L
DO
5187 3076 mt 5187  259 L
5187  259 mt 5187  259 L
SO
5256 3076 mt 5256 3052 L
5256  259 mt 5256  282 L
DO
5256 3076 mt 5256  259 L
5256  259 mt 5256  259 L
SO
5313 3076 mt 5313 3052 L
5313  259 mt 5313  282 L
DO
5313 3076 mt 5313  259 L
5313  259 mt 5313  259 L
SO
5361 3076 mt 5361 3052 L
5361  259 mt 5361  282 L
DO
5361 3076 mt 5361  259 L
5361  259 mt 5361  259 L
SO
5403 3076 mt 5403 3052 L
5403  259 mt 5403  282 L
DO
5403 3076 mt 5403  259 L
5403  259 mt 5403  259 L
SO
5440 3076 mt 5440 3052 L
5440  259 mt 5440  282 L
DO
5440 3076 mt 5440  259 L
5440  259 mt 5440  259 L
SO
5473 3076 mt 5473 3052 L
5473  259 mt 5473  282 L
DO
5473 3076 mt 5473  259 L
5473  259 mt 5473  259 L
SO
5473 3076 mt 5473 3029 L
5473  259 mt 5473  305 L
%%IncludeResource: font Helvetica
/Helvetica /ISOLatin1Encoding 120 FMSR

5385 3258 mt 
(10) s
%%IncludeResource: font Helvetica
/Helvetica /ISOLatin1Encoding 80 FMSR

5518 3184 mt 
(6) s
 785 3076 mt  832 3076 L
5473 3076 mt 5426 3076 L
%%IncludeResource: font Helvetica
/Helvetica /ISOLatin1Encoding 120 FMSR

 548 3120 mt 
(-20) s
 785 2794 mt  832 2794 L
5473 2794 mt 5426 2794 L
 548 2838 mt 
(-18) s
 785 2512 mt  832 2512 L
5473 2512 mt 5426 2512 L
 548 2556 mt 
(-16) s
 785 2230 mt  832 2230 L
5473 2230 mt 5426 2230 L
 548 2274 mt 
(-14) s
 785 1949 mt  832 1949 L
5473 1949 mt 5426 1949 L
 548 1993 mt 
(-12) s
 785 1667 mt  832 1667 L
5473 1667 mt 5426 1667 L
 548 1711 mt 
(-10) s
 785 1385 mt  832 1385 L
5473 1385 mt 5426 1385 L
 615 1429 mt 
(-8) s
 785 1104 mt  832 1104 L
5473 1104 mt 5426 1104 L
 615 1148 mt 
(-6) s
 785  822 mt  832  822 L
5473  822 mt 5426  822 L
 615  866 mt 
(-4) s
 785  540 mt  832  540 L
5473  540 mt 5426  540 L
 615  584 mt 
(-2) s
 785  259 mt  832  259 L
5473  259 mt 5426  259 L
 685  303 mt 
(0) s
 785 3076 mt 5473 3076 L
 785  259 mt 5473  259 L
 785 3076 mt  785  259 L
5473 3076 mt 5473  259 L
gs 785 259 4689 2818 MR c np
DA
36 w
9 39 22 87 21 86 22 85 22 85 21 84 22 83 22 83 
21 82 22 81 21 81 22 80 22 78 21 78 22 77 22 75 
21 74 22 73 21 71 22 69 22 68 21 65 22 64 22 60 
21 59 22 56 22 53 21 50 22 48 21 44 22 42 22 39 
21 36 22 33 22 30 21 28 22 25 21 24 22 21 22 19 
21 17 22 16 22 14 21 13 22 12 21 10 22 10 22 10 
21 8 22 9 22 7 21 8 22 7 22 7 21 8 22 7 
21 6 22 7 22 7 21 7 22 7 22 6 21 7 22 6 
21 6 22 5 22 5 21 4 22 4 22 3 21 3 22 1 
22 1 21 0 22 -1 21 -2 22 -4 22 -4 21 -6 22 -7 
22 -8 21 -11 22 -12 21 -14 22 -16 22 -19 21 -21 22 -25 
22 -27 21 -30 22 -34 21 -38 22 -42 22 -47 21 -51 22 -56 
22 -60 21 -66 22 -71 3168 1086 100 MP stroke
22 -77 21 -81 22 -88 21 -92 22 -98 22 -104 21 -108 22 -114 
22 -118 21 -122 22 -127 21 -131 22 -135 22 -138 21 -142 22 -144 
22 -148 3 -24 2797 3077 19 MP stroke
SO
6 w
9 39 22 87 21 86 22 85 22 85 21 84 22 83 22 83 
21 82 22 81 21 81 22 79 22 79 21 78 22 77 22 75 
21 74 22 73 21 71 22 69 22 67 21 66 22 63 22 61 
21 58 22 56 22 53 21 50 22 47 21 44 22 42 22 38 
21 36 22 33 22 30 21 27 22 25 21 22 22 21 22 18 
21 16 22 15 22 13 21 11 22 10 21 9 22 8 22 7 
21 7 22 5 22 5 21 4 22 4 22 3 21 3 22 2 
21 2 22 2 22 2 21 1 22 1 22 2 21 1 22 0 
21 1 22 1 22 0 21 1 22 0 22 1 21 0 22 0 
22 0 21 1 22 0 21 0 22 0 22 0 21 0 22 0 
22 1 21 0 22 0 21 0 22 0 22 0 21 0 22 0 
22 0 21 0 22 0 21 0 22 0 22 0 21 0 22 0 
22 0 21 0 22 0 3168 530 100 MP stroke
22 0 21 0 22 0 21 0 22 0 22 0 21 0 22 0 
22 0 21 0 22 0 21 0 22 0 22 0 21 0 22 -1 
22 0 21 0 22 0 22 0 21 0 22 0 21 0 22 0 
22 0 21 0 22 0 22 0 21 -1 22 0 21 0 22 0 
22 -1 21 0 22 0 22 -1 21 0 22 -1 21 -1 22 0 
22 -1 21 -1 22 -1 22 -2 21 -1 22 -2 22 -2 21 -2 
22 -3 21 -3 22 -4 22 -3 21 -5 22 -5 22 -6 21 -7 
22 -7 21 -9 22 -9 22 -11 21 -13 22 -13 22 -16 21 -17 
22 -20 22 -21 21 -24 22 -26 21 -29 22 -32 22 -34 21 -37 
22 -40 22 -43 21 -46 22 -49 21 -52 22 -54 22 -57 21 -60 
22 -62 22 -64 21 -66 22 -69 21 -70 22 -71 22 -73 21 -75 
22 -75 22 -77 21 -78 22 -78 22 -80 21 -80 22 -80 21 -81 
22 -82 22 -82 21 -82 1027 2728 100 MP stroke
22 -83 22 -82 21 -84 22 -83 4 -17 936 3077 6 MP stroke
DD
36 w
5 34 22 122 22 120 21 116 22 113 22 110 21 108 22 104 
22 102 21 100 22 97 21 94 22 92 22 90 21 88 22 85 
22 83 21 81 22 79 21 76 22 74 22 72 21 68 22 66 
22 63 21 59 22 57 21 52 22 50 22 45 21 42 22 37 
22 34 21 29 22 25 22 22 21 17 22 14 21 10 22 6 
22 4 21 1 22 -2 22 -4 21 -6 22 -7 21 -8 22 -10 
22 -10 21 -10 22 -11 22 -10 21 -10 22 -10 22 -9 21 -9 
22 -8 21 -7 22 -7 22 -7 21 -5 22 -6 22 -4 21 -5 
22 -4 21 -3 22 -3 22 -3 21 -3 22 -2 22 -2 21 -2 
22 -2 21 -2 22 -2 22 -2 21 -2 22 -2 22 -2 21 -2 
22 -2 22 -2 21 -3 22 -3 21 -3 22 -4 22 -4 21 -5 
22 -5 22 -6 21 -7 22 -7 21 -9 22 -10 22 -11 21 -12 
22 -14 22 -16 21 -17 1784 679 100 MP stroke
22 -20 22 -21 21 -24 22 -26 21 -29 22 -32 22 -34 21 -37 
22 -40 22 -43 21 -46 22 -49 21 -52 22 -54 22 -57 21 -60 
22 -62 22 -64 21 -66 22 -69 21 -70 22 -71 22 -73 21 -75 
22 -75 22 -77 21 -78 22 -78 22 -80 21 -80 22 -80 21 -81 
22 -82 22 -82 21 -82 22 -83 22 -82 21 -84 22 -83 4 -17 
936 3077 41 MP stroke
gr

36 w
DD
2724 3401 mt 
(Frequency [Hz]) s
 466 2215 mt  -90 rotate
(Output amplitude [V]) s
90 rotate
1661  164 mt 
(System frequency response, 1kHz crossover frequency) s
 768 3119 mt 
( ) s
5457  301 mt 
( ) s
SO
6 w
1 sg
0 480 1126 0 0 -480 2566 3017 4 MP
PP
-1126 0 0 480 1126 0 0 -480 2566 3017 5 MP stroke
4 w
DO
SO
6 w
0 sg
2566 3017 mt 3692 3017 L
2566 2537 mt 3692 2537 L
2566 3017 mt 2566 2537 L
3692 3017 mt 3692 2537 L
2566 3017 mt 3692 3017 L
2566 3017 mt 2566 2537 L
2566 3017 mt 3692 3017 L
2566 2537 mt 3692 2537 L
2566 3017 mt 2566 2537 L
3692 3017 mt 3692 2537 L
3077 2671 mt 
(High f) s
gs 2566 2537 1127 481 MR c np
DA
36 w
393 0 2644 2628 2 MP stroke
SO
gr

36 w
3077 2820 mt 
(Output sum) s
gs 2566 2537 1127 481 MR c np
6 w
393 0 2644 2777 2 MP stroke
gr

6 w
3077 2968 mt 
(Low f) s
gs 2566 2537 1127 481 MR c np
DD
36 w
393 0 2644 2925 2 MP stroke
SO
6 w
gr


end %%Color Dict

eplot
%%EndObject

epage
end

showpage

%%Trailer
%%EOF
