<?xml version="1.0" encoding="UTF-8" standalone="no"?>
<graphml xmlns="http://graphml.graphdrawing.org/xmlns" xmlns:xsi="http://www.w3.org/2001/XMLSchema-instance" xmlns:y="http://www.yworks.com/xml/graphml" xmlns:yed="http://www.yworks.com/xml/yed/3" xsi:schemaLocation="http://graphml.graphdrawing.org/xmlns http://www.yworks.com/xml/schema/graphml/1.1/ygraphml.xsd">
  <!--Created by yFiles for Java 2.11-->
  <key for="graphml" id="d0" yfiles.type="resources"/>
  <key for="port" id="d1" yfiles.type="portgraphics"/>
  <key for="port" id="d2" yfiles.type="portgeometry"/>
  <key for="port" id="d3" yfiles.type="portuserdata"/>
  <key attr.name="url" attr.type="string" for="node" id="d4"/>
  <key attr.name="description" attr.type="string" for="node" id="d5"/>
  <key for="node" id="d6" yfiles.type="nodegraphics"/>
  <key attr.name="Description" attr.type="string" for="graph" id="d7"/>
  <key attr.name="url" attr.type="string" for="edge" id="d8"/>
  <key attr.name="description" attr.type="string" for="edge" id="d9"/>
  <key for="edge" id="d10" yfiles.type="edgegraphics"/>
  <graph edgedefault="directed" id="G">
    <data key="d7"/>
    <node id="n0" yfiles.foldertype="folder">
      <data key="d4"/>
      <data key="d5"/>
      <data key="d6">
        <y:ProxyAutoBoundsNode>
          <y:Realizers active="1">
            <y:GroupNode>
              <y:Geometry height="51.4609375" width="30.0" x="-16.0" y="-37.4609375"/>
              <y:Fill color="#F5F5F5" transparent="false"/>
              <y:BorderStyle color="#000000" type="dashed" width="1.0"/>
              <y:NodeLabel alignment="right" autoSizePolicy="node_width" backgroundColor="#EBEBEB" borderDistance="0.0" fontFamily="Dialog" fontSize="15" fontStyle="plain" hasLineColor="false" height="21.4609375" modelName="internal" modelPosition="t" textColor="#000000" visible="true" width="30.0" x="0.0" y="0.0">1</y:NodeLabel>
              <y:Shape type="roundrectangle"/>
              <y:State closed="false" closedHeight="50.0" closedWidth="50.0" innerGraphDisplayEnabled="false"/>
              <y:Insets bottom="15" bottomF="15.0" left="15" leftF="15.0" right="15" rightF="15.0" top="15" topF="15.0"/>
              <y:BorderInsets bottom="0" bottomF="0.0" left="0" leftF="0.0" right="0" rightF="0.0" top="0" topF="0.0"/>
            </y:GroupNode>
            <y:GroupNode>
              <y:Geometry height="50.0" width="50.0" x="140.93712000000005" y="-117.81999999999996"/>
              <y:Fill color="#F5F5F5" transparent="false"/>
              <y:BorderStyle color="#000000" type="dashed" width="1.0"/>
              <y:NodeLabel alignment="right" autoSizePolicy="node_width" backgroundColor="#EBEBEB" borderDistance="0.0" fontFamily="Dialog" fontSize="15" fontStyle="plain" hasLineColor="false" height="21.4609375" modelName="internal" modelPosition="t" textColor="#000000" visible="true" width="50.0" x="0.0" y="0.0">1</y:NodeLabel>
              <y:Shape type="roundrectangle"/>
              <y:State closed="true" closedHeight="50.0" closedWidth="50.0" innerGraphDisplayEnabled="false"/>
              <y:Insets bottom="15" bottomF="15.0" left="15" leftF="15.0" right="15" rightF="15.0" top="15" topF="15.0"/>
              <y:BorderInsets bottom="0" bottomF="0.0" left="0" leftF="0.0" right="0" rightF="0.0" top="0" topF="0.0"/>
            </y:GroupNode>
          </y:Realizers>
        </y:ProxyAutoBoundsNode>
      </data>
      <graph edgedefault="directed" id="n0:">
        <node id="n0::n0">
          <data key="d5"/>
          <data key="d6">
            <y:GenericNode configuration="com.yworks.entityRelationship.big_entity">
              <y:Geometry height="219.0" width="280.0" x="1.0" y="267.0"/>
              <y:Fill color="#E8EEF7" color2="#B7C9E3" transparent="false"/>
              <y:BorderStyle color="#000000" type="line" width="1.0"/>
              <y:NodeLabel alignment="center" autoSizePolicy="content" backgroundColor="#B7C9E3" configuration="com.yworks.entityRelationship.label.name" fontFamily="Dialog" fontSize="12" fontStyle="plain" hasLineColor="false" height="17.96875" modelName="internal" modelPosition="t" textColor="#000000" visible="true" width="25.873046875" x="127.0634765625" y="4.0">Idle</y:NodeLabel>
              <y:NodeLabel alignment="left" autoSizePolicy="content" configuration="com.yworks.entityRelationship.label.attributes" fontFamily="Dialog" fontSize="12" fontStyle="plain" hasBackgroundColor="false" hasLineColor="false" height="31.9375" modelName="custom" textColor="#000000" visible="true" width="179.9921875" x="2.0" y="29.96875">Motor to brake/coast
Enable output &amp; LED inactive<y:LabelModel>
                  <y:ErdAttributesNodeLabelModel/>
                </y:LabelModel>
                <y:ModelParameter>
                  <y:ErdAttributesNodeLabelModelParameter/>
                </y:ModelParameter>
              </y:NodeLabel>
              <y:StyleProperties>
                <y:Property class="java.lang.Boolean" name="y.view.ShadowNodePainter.SHADOW_PAINTING" value="true"/>
              </y:StyleProperties>
            </y:GenericNode>
          </data>
        </node>
        <node id="n0::n1">
          <data key="d5"/>
          <data key="d6">
            <y:GenericNode configuration="com.yworks.entityRelationship.big_entity">
              <y:Geometry height="208.0" width="242.0" x="313.0" y="10.0"/>
              <y:Fill color="#E8EEF7" color2="#B7C9E3" transparent="false"/>
              <y:BorderStyle color="#000000" type="line" width="1.0"/>
              <y:NodeLabel alignment="center" autoSizePolicy="content" backgroundColor="#B7C9E3" configuration="com.yworks.entityRelationship.label.name" fontFamily="Dialog" fontSize="12" fontStyle="plain" hasLineColor="false" height="17.96875" modelName="internal" modelPosition="t" textColor="#000000" visible="true" width="41.330078125" x="100.3349609375" y="4.0">Active</y:NodeLabel>
              <y:NodeLabel alignment="left" autoSizePolicy="content" configuration="com.yworks.entityRelationship.label.attributes" fontFamily="Dialog" fontSize="12" fontStyle="plain" hasBackgroundColor="false" hasLineColor="false" height="45.90625" modelName="custom" textColor="#000000" visible="true" width="67.791015625" x="2.0" y="29.96875">attribute 1
attribute 2
attribute 3<y:LabelModel>
                  <y:ErdAttributesNodeLabelModel/>
                </y:LabelModel>
                <y:ModelParameter>
                  <y:ErdAttributesNodeLabelModelParameter/>
                </y:ModelParameter>
              </y:NodeLabel>
              <y:StyleProperties>
                <y:Property class="java.lang.Boolean" name="y.view.ShadowNodePainter.SHADOW_PAINTING" value="true"/>
              </y:StyleProperties>
            </y:GenericNode>
          </data>
        </node>
        <node id="n0::n2">
          <data key="d5"/>
          <data key="d6">
            <y:GenericNode configuration="com.yworks.entityRelationship.big_entity">
              <y:Geometry height="219.0" width="259.0" x="658.0" y="273.0"/>
              <y:Fill color="#E8EEF7" color2="#B7C9E3" transparent="false"/>
              <y:BorderStyle color="#000000" type="line" width="1.0"/>
              <y:NodeLabel alignment="center" autoSizePolicy="content" backgroundColor="#B7C9E3" configuration="com.yworks.entityRelationship.label.name" fontFamily="Dialog" fontSize="12" fontStyle="plain" hasLineColor="false" height="17.96875" modelName="internal" modelPosition="t" textColor="#000000" visible="true" width="33.900390625" x="112.5498046875" y="4.0">Fault</y:NodeLabel>
              <y:NodeLabel alignment="left" autoSizePolicy="content" configuration="com.yworks.entityRelationship.label.attributes" fontFamily="Dialog" fontSize="12" fontStyle="plain" hasBackgroundColor="false" hasLineColor="false" height="59.875" modelName="custom" textColor="#000000" visible="true" width="160.544921875" x="2.0" y="29.96875">Position controller diabled
Motor to coast state
Fault output set
Fault logged<y:LabelModel>
                  <y:ErdAttributesNodeLabelModel/>
                </y:LabelModel>
                <y:ModelParameter>
                  <y:ErdAttributesNodeLabelModelParameter/>
                </y:ModelParameter>
              </y:NodeLabel>
              <y:StyleProperties>
                <y:Property class="java.lang.Boolean" name="y.view.ShadowNodePainter.SHADOW_PAINTING" value="true"/>
              </y:StyleProperties>
            </y:GenericNode>
          </data>
        </node>
        <node id="n0::n3">
          <data key="d5"/>
          <data key="d6">
            <y:GenericNode configuration="com.yworks.entityRelationship.big_entity">
              <y:Geometry height="257.0" width="259.0" x="369.0" y="554.0"/>
              <y:Fill color="#E8EEF7" color2="#B7C9E3" transparent="false"/>
              <y:BorderStyle color="#000000" type="line" width="1.0"/>
              <y:NodeLabel alignment="center" autoSizePolicy="content" backgroundColor="#B7C9E3" configuration="com.yworks.entityRelationship.label.name" fontFamily="Dialog" fontSize="12" fontStyle="plain" hasLineColor="false" height="17.96875" modelName="internal" modelPosition="t" textColor="#000000" visible="true" width="59.798828125" x="99.6005859375" y="4.0">Idle-latch</y:NodeLabel>
              <y:NodeLabel alignment="left" autoSizePolicy="content" configuration="com.yworks.entityRelationship.label.attributes" fontFamily="Dialog" fontSize="12" fontStyle="plain" hasBackgroundColor="false" hasLineColor="false" height="31.9375" modelName="custom" textColor="#000000" visible="true" width="179.9921875" x="2.0" y="29.96875">Motor to brake/coast
Enable output &amp; LED inactive<y:LabelModel>
                  <y:ErdAttributesNodeLabelModel/>
                </y:LabelModel>
                <y:ModelParameter>
                  <y:ErdAttributesNodeLabelModelParameter/>
                </y:ModelParameter>
              </y:NodeLabel>
              <y:StyleProperties>
                <y:Property class="java.lang.Boolean" name="y.view.ShadowNodePainter.SHADOW_PAINTING" value="true"/>
              </y:StyleProperties>
            </y:GenericNode>
          </data>
        </node>
        <edge id="n0::e0" source="n0::n0" target="n0::n1">
          <data key="d9"/>
          <data key="d10">
            <y:PolyLineEdge>
              <y:Path sx="0.0" sy="0.0" tx="0.0" ty="0.0">
                <y:Point x="419.0" y="298.0"/>
              </y:Path>
              <y:LineStyle color="#000000" type="line" width="1.0"/>
              <y:Arrows source="none" target="standard"/>
              <y:EdgeLabel alignment="center" configuration="AutoFlippingLabel" distance="2.0" fontFamily="Dialog" fontSize="12" fontStyle="plain" hasBackgroundColor="false" hasLineColor="false" height="17.96875" modelName="custom" preferredPlacement="anywhere" ratio="0.5" textColor="#000000" visible="true" width="119.845703125" x="45.63066230773393" y="-7.616862284418232">Enable input active<y:LabelModel>
                  <y:SmartEdgeLabelModel autoRotationEnabled="false" defaultAngle="0.0" defaultDistance="10.0"/>
                </y:LabelModel>
                <y:ModelParameter>
                  <y:SmartEdgeLabelModelParameter angle="0.0" distance="30.0" distanceToCenter="true" position="right" ratio="0.5" segment="0"/>
                </y:ModelParameter>
                <y:PreferredPlacementDescriptor angle="0.0" angleOffsetOnRightSide="0" angleReference="absolute" angleRotationOnRightSide="co" distance="-1.0" frozen="true" placement="anywhere" side="anywhere" sideReference="relative_to_edge_flow"/>
              </y:EdgeLabel>
              <y:BendStyle smoothed="false"/>
            </y:PolyLineEdge>
          </data>
        </edge>
        <edge id="n0::e1" source="n0::n1" target="n0::n0">
          <data key="d9"/>
          <data key="d10">
            <y:PolyLineEdge>
              <y:Path sx="0.0" sy="0.0" tx="0.0" ty="0.0">
                <y:Point x="308.0" y="173.0"/>
              </y:Path>
              <y:LineStyle color="#000000" type="line" width="1.0"/>
              <y:Arrows source="none" target="standard"/>
              <y:EdgeLabel alignment="center" configuration="AutoFlippingLabel" distance="2.0" fontFamily="Dialog" fontSize="12" fontStyle="plain" hasBackgroundColor="false" hasLineColor="false" height="17.96875" modelName="custom" preferredPlacement="anywhere" ratio="0.5" textColor="#000000" visible="true" width="130.78515625" x="-76.76772143886134" y="-36.78397522709358">Enable input inactive<y:LabelModel>
                  <y:SmartEdgeLabelModel autoRotationEnabled="false" defaultAngle="0.0" defaultDistance="10.0"/>
                </y:LabelModel>
                <y:ModelParameter>
                  <y:SmartEdgeLabelModelParameter angle="0.0" distance="30.0" distanceToCenter="true" position="right" ratio="0.5" segment="0"/>
                </y:ModelParameter>
                <y:PreferredPlacementDescriptor angle="0.0" angleOffsetOnRightSide="0" angleReference="absolute" angleRotationOnRightSide="co" distance="-1.0" frozen="true" placement="anywhere" side="anywhere" sideReference="relative_to_edge_flow"/>
              </y:EdgeLabel>
              <y:BendStyle smoothed="false"/>
            </y:PolyLineEdge>
          </data>
        </edge>
        <edge id="n0::e2" source="n0::n1" target="n0::n2">
          <data key="d9"/>
          <data key="d10">
            <y:PolyLineEdge>
              <y:Path sx="0.0" sy="0.0" tx="0.0" ty="0.0"/>
              <y:LineStyle color="#000000" type="line" width="1.0"/>
              <y:Arrows source="none" target="standard"/>
              <y:EdgeLabel alignment="center" configuration="AutoFlippingLabel" distance="2.0" fontFamily="Dialog" fontSize="12" fontStyle="plain" hasBackgroundColor="false" hasLineColor="false" height="17.96875" modelName="custom" preferredPlacement="anywhere" ratio="0.5" textColor="#000000" visible="true" width="91.10546875" x="-26.9802980317354" y="42.79484335678501">Fault detected<y:LabelModel>
                  <y:SmartEdgeLabelModel autoRotationEnabled="false" defaultAngle="0.0" defaultDistance="10.0"/>
                </y:LabelModel>
                <y:ModelParameter>
                  <y:SmartEdgeLabelModelParameter angle="0.0" distance="30.0" distanceToCenter="true" position="right" ratio="0.5" segment="0"/>
                </y:ModelParameter>
                <y:PreferredPlacementDescriptor angle="0.0" angleOffsetOnRightSide="0" angleReference="absolute" angleRotationOnRightSide="co" distance="-1.0" frozen="true" placement="anywhere" side="anywhere" sideReference="relative_to_edge_flow"/>
              </y:EdgeLabel>
              <y:BendStyle smoothed="false"/>
            </y:PolyLineEdge>
          </data>
        </edge>
        <edge id="n0::e3" source="n0::n0" target="n0::n2">
          <data key="d9"/>
          <data key="d10">
            <y:PolyLineEdge>
              <y:Path sx="0.0" sy="0.0" tx="0.0" ty="0.0"/>
              <y:LineStyle color="#000000" type="line" width="1.0"/>
              <y:Arrows source="none" target="standard"/>
              <y:EdgeLabel alignment="center" configuration="AutoFlippingLabel" distance="2.0" fontFamily="Dialog" fontSize="12" fontStyle="plain" hasBackgroundColor="false" hasLineColor="false" height="17.96875" modelName="custom" preferredPlacement="anywhere" ratio="0.5" textColor="#000000" visible="true" width="91.10546875" x="142.98538208007812" y="22.766690657489164">Fault detected<y:LabelModel>
                  <y:SmartEdgeLabelModel autoRotationEnabled="false" defaultAngle="0.0" defaultDistance="10.0"/>
                </y:LabelModel>
                <y:ModelParameter>
                  <y:SmartEdgeLabelModelParameter angle="0.0" distance="30.0" distanceToCenter="true" position="right" ratio="0.5" segment="0"/>
                </y:ModelParameter>
                <y:PreferredPlacementDescriptor angle="0.0" angleOffsetOnRightSide="0" angleReference="absolute" angleRotationOnRightSide="co" distance="-1.0" frozen="true" placement="anywhere" side="anywhere" sideReference="relative_to_edge_flow"/>
              </y:EdgeLabel>
              <y:BendStyle smoothed="false"/>
            </y:PolyLineEdge>
          </data>
        </edge>
        <edge id="n0::e4" source="n0::n2" target="n0::n3">
          <data key="d9"/>
          <data key="d10">
            <y:PolyLineEdge>
              <y:Path sx="0.0" sy="0.0" tx="93.5" ty="-112.5"/>
              <y:LineStyle color="#000000" type="line" width="1.0"/>
              <y:Arrows source="none" target="standard"/>
              <y:EdgeLabel alignment="center" configuration="AutoFlippingLabel" distance="2.0" fontFamily="Dialog" fontSize="12" fontStyle="plain" hasBackgroundColor="false" hasLineColor="false" height="17.96875" modelName="custom" preferredPlacement="anywhere" ratio="0.5" textColor="#000000" visible="true" width="89.060546875" x="-113.75904169354044" y="15.844090181181059">Fault resolved<y:LabelModel>
                  <y:SmartEdgeLabelModel autoRotationEnabled="false" defaultAngle="0.0" defaultDistance="10.0"/>
                </y:LabelModel>
                <y:ModelParameter>
                  <y:SmartEdgeLabelModelParameter angle="0.0" distance="30.0" distanceToCenter="true" position="right" ratio="0.5" segment="0"/>
                </y:ModelParameter>
                <y:PreferredPlacementDescriptor angle="0.0" angleOffsetOnRightSide="0" angleReference="absolute" angleRotationOnRightSide="co" distance="-1.0" frozen="true" placement="anywhere" side="anywhere" sideReference="relative_to_edge_flow"/>
              </y:EdgeLabel>
              <y:BendStyle smoothed="false"/>
            </y:PolyLineEdge>
          </data>
        </edge>
        <edge id="n0::e5" source="n0::n3" target="n0::n2">
          <data key="d9"/>
          <data key="d10">
            <y:PolyLineEdge>
              <y:Path sx="0.0" sy="0.0" tx="0.0" ty="0.0">
                <y:Point x="489.0" y="445.0"/>
              </y:Path>
              <y:LineStyle color="#000000" type="line" width="1.0"/>
              <y:Arrows source="none" target="standard"/>
              <y:EdgeLabel alignment="center" configuration="AutoFlippingLabel" distance="2.0" fontFamily="Dialog" fontSize="12" fontStyle="plain" hasBackgroundColor="false" hasLineColor="false" height="17.96875" modelName="custom" preferredPlacement="anywhere" ratio="0.5" textColor="#000000" visible="true" width="91.10546875" x="-18.011604184868247" y="-71.05588043851435">Fault detected<y:LabelModel>
                  <y:SmartEdgeLabelModel autoRotationEnabled="false" defaultAngle="0.0" defaultDistance="10.0"/>
                </y:LabelModel>
                <y:ModelParameter>
                  <y:SmartEdgeLabelModelParameter angle="0.0" distance="30.0" distanceToCenter="true" position="right" ratio="0.5" segment="0"/>
                </y:ModelParameter>
                <y:PreferredPlacementDescriptor angle="0.0" angleOffsetOnRightSide="0" angleReference="absolute" angleRotationOnRightSide="co" distance="-1.0" frozen="true" placement="anywhere" side="anywhere" sideReference="relative_to_edge_flow"/>
              </y:EdgeLabel>
              <y:BendStyle smoothed="false"/>
            </y:PolyLineEdge>
          </data>
        </edge>
        <edge id="n0::e6" source="n0::n3" target="n0::n0">
          <data key="d9"/>
          <data key="d10">
            <y:PolyLineEdge>
              <y:Path sx="0.0" sy="0.0" tx="0.0" ty="0.0"/>
              <y:LineStyle color="#000000" type="line" width="1.0"/>
              <y:Arrows source="none" target="standard"/>
              <y:EdgeLabel alignment="center" configuration="AutoFlippingLabel" distance="2.0" fontFamily="Dialog" fontSize="12" fontStyle="plain" hasBackgroundColor="false" hasLineColor="false" height="17.96875" modelName="custom" preferredPlacement="anywhere" ratio="0.5" textColor="#000000" visible="true" width="130.78515625" x="-79.60437684420708" y="-60.6378173828125">Enable input inactive<y:LabelModel>
                  <y:SmartEdgeLabelModel autoRotationEnabled="false" defaultAngle="0.0" defaultDistance="10.0"/>
                </y:LabelModel>
                <y:ModelParameter>
                  <y:SmartEdgeLabelModelParameter angle="0.0" distance="30.0" distanceToCenter="true" position="right" ratio="0.5" segment="0"/>
                </y:ModelParameter>
                <y:PreferredPlacementDescriptor angle="0.0" angleOffsetOnRightSide="0" angleReference="absolute" angleRotationOnRightSide="co" distance="-1.0" frozen="true" placement="anywhere" side="anywhere" sideReference="relative_to_edge_flow"/>
              </y:EdgeLabel>
              <y:BendStyle smoothed="false"/>
            </y:PolyLineEdge>
          </data>
        </edge>
        <edge id="n0::e7" source="n0::n1" target="n0::n3">
          <data key="d9"/>
          <data key="d10">
            <y:PolyLineEdge>
              <y:Path sx="0.0" sy="0.0" tx="0.0" ty="0.0"/>
              <y:LineStyle color="#000000" type="line" width="1.0"/>
              <y:Arrows source="none" target="standard"/>
              <y:EdgeLabel alignment="center" configuration="AutoFlippingLabel" distance="2.0" fontFamily="Dialog" fontSize="12" fontStyle="plain" hasBackgroundColor="false" hasLineColor="false" height="17.96875" modelName="custom" preferredPlacement="anywhere" ratio="0.5" textColor="#000000" visible="true" width="125.810546875" x="-74.03607569769099" y="159.02426147460938">Minor fault detected<y:LabelModel>
                  <y:SmartEdgeLabelModel autoRotationEnabled="false" defaultAngle="0.0" defaultDistance="10.0"/>
                </y:LabelModel>
                <y:ModelParameter>
                  <y:SmartEdgeLabelModelParameter angle="0.0" distance="30.0" distanceToCenter="true" position="right" ratio="0.5" segment="0"/>
                </y:ModelParameter>
                <y:PreferredPlacementDescriptor angle="0.0" angleOffsetOnRightSide="0" angleReference="absolute" angleRotationOnRightSide="co" distance="-1.0" frozen="true" placement="anywhere" side="anywhere" sideReference="relative_to_edge_flow"/>
              </y:EdgeLabel>
              <y:BendStyle smoothed="false"/>
            </y:PolyLineEdge>
          </data>
        </edge>
      </graph>
    </node>
  </graph>
  <data key="d0">
    <y:Resources/>
  </data>
</graphml>
