%!PS-Adobe-2.0 EPSF-1.2
%%Creator: MATLAB, The MathWorks, Inc. Version 7.14.0.739 (R2012a). Operating System: Linux 3.2.0-31-generic-pae #50-Ubuntu SMP Fri Sep 7 16:39:45 UTC 2012 i686.
%%Title: ./freq_response.eps
%%CreationDate: 11/22/2012  08:51:15
%%DocumentNeededFonts: Helvetica
%%DocumentProcessColors: Cyan Magenta Yellow Black
%%Pages: 1
%%BoundingBox:     6     0   312   231
%%EndComments

%%BeginProlog
% MathWorks dictionary
/MathWorks 160 dict begin
% definition operators
/bdef {bind def} bind def
/ldef {load def} bind def
/xdef {exch def} bdef
/xstore {exch store} bdef
% operator abbreviations
/c  /clip ldef
/cc /concat ldef
/cp /closepath ldef
/gr /grestore ldef
/gs /gsave ldef
/mt /moveto ldef
/np /newpath ldef
/cm /currentmatrix ldef
/sm /setmatrix ldef
/rm /rmoveto ldef
/rl /rlineto ldef
/s {show newpath} bdef
/sc {setcmykcolor} bdef
/sr /setrgbcolor ldef
/sg /setgray ldef
/w /setlinewidth ldef
/j /setlinejoin ldef
/cap /setlinecap ldef
/rc {rectclip} bdef
/rf {rectfill} bdef
% page state control
/pgsv () def
/bpage {/pgsv save def} bdef
/epage {pgsv restore} bdef
/bplot /gsave ldef
/eplot {stroke grestore} bdef
% orientation switch
/portraitMode 0 def /landscapeMode 1 def /rotateMode 2 def
% coordinate system mappings
/dpi2point 0 def
% font control
/FontSize 0 def
/FMS {/FontSize xstore findfont [FontSize 0 0 FontSize neg 0 0]
  makefont setfont} bdef
/reencode {exch dup where {pop load} {pop StandardEncoding} ifelse
  exch dup 3 1 roll findfont dup length dict begin
  { 1 index /FID ne {def}{pop pop} ifelse } forall
  /Encoding exch def currentdict end definefont pop} bdef
/isroman {findfont /CharStrings get /Agrave known} bdef
/FMSR {3 1 roll 1 index dup isroman {reencode} {pop pop} ifelse
  exch FMS} bdef
/csm {1 dpi2point div -1 dpi2point div scale neg translate
 dup landscapeMode eq {pop -90 rotate}
  {rotateMode eq {90 rotate} if} ifelse} bdef
% line types: solid, dotted, dashed, dotdash
/SO { [] 0 setdash } bdef
/DO { [.5 dpi2point mul 4 dpi2point mul] 0 setdash } bdef
/DA { [6 dpi2point mul] 0 setdash } bdef
/DD { [.5 dpi2point mul 4 dpi2point mul 6 dpi2point mul 4
  dpi2point mul] 0 setdash } bdef
% macros for lines and objects
/L {lineto stroke} bdef
/MP {3 1 roll moveto 1 sub {rlineto} repeat} bdef
/AP {{rlineto} repeat} bdef
/PDlw -1 def
/W {/PDlw currentlinewidth def setlinewidth} def
/PP {closepath eofill} bdef
/DP {closepath stroke} bdef
/MR {4 -2 roll moveto dup  0 exch rlineto exch 0 rlineto
  neg 0 exch rlineto closepath} bdef
/FR {MR stroke} bdef
/PR {MR fill} bdef
/L1i {{currentfile picstr readhexstring pop} image} bdef
/tMatrix matrix def
/MakeOval {newpath tMatrix currentmatrix pop translate scale
0 0 1 0 360 arc tMatrix setmatrix} bdef
/FO {MakeOval stroke} bdef
/PO {MakeOval fill} bdef
/PD {currentlinewidth 2 div 0 360 arc fill
   PDlw -1 eq not {PDlw w /PDlw -1 def} if} def
/FA {newpath tMatrix currentmatrix pop translate scale
  0 0 1 5 -2 roll arc tMatrix setmatrix stroke} bdef
/PA {newpath tMatrix currentmatrix pop	translate 0 0 moveto scale
  0 0 1 5 -2 roll arc closepath tMatrix setmatrix fill} bdef
/FAn {newpath tMatrix currentmatrix pop translate scale
  0 0 1 5 -2 roll arcn tMatrix setmatrix stroke} bdef
/PAn {newpath tMatrix currentmatrix pop translate 0 0 moveto scale
  0 0 1 5 -2 roll arcn closepath tMatrix setmatrix fill} bdef
/vradius 0 def /hradius 0 def /lry 0 def
/lrx 0 def /uly 0 def /ulx 0 def /rad 0 def
/MRR {/vradius xdef /hradius xdef /lry xdef /lrx xdef /uly xdef
  /ulx xdef newpath tMatrix currentmatrix pop ulx hradius add uly
  vradius add translate hradius vradius scale 0 0 1 180 270 arc 
  tMatrix setmatrix lrx hradius sub uly vradius add translate
  hradius vradius scale 0 0 1 270 360 arc tMatrix setmatrix
  lrx hradius sub lry vradius sub translate hradius vradius scale
  0 0 1 0 90 arc tMatrix setmatrix ulx hradius add lry vradius sub
  translate hradius vradius scale 0 0 1 90 180 arc tMatrix setmatrix
  closepath} bdef
/FRR {MRR stroke } bdef
/PRR {MRR fill } bdef
/MlrRR {/lry xdef /lrx xdef /uly xdef /ulx xdef /rad lry uly sub 2 div def
  newpath tMatrix currentmatrix pop ulx rad add uly rad add translate
  rad rad scale 0 0 1 90 270 arc tMatrix setmatrix lrx rad sub lry rad
  sub translate rad rad scale 0 0 1 270 90 arc tMatrix setmatrix
  closepath} bdef
/FlrRR {MlrRR stroke } bdef
/PlrRR {MlrRR fill } bdef
/MtbRR {/lry xdef /lrx xdef /uly xdef /ulx xdef /rad lrx ulx sub 2 div def
  newpath tMatrix currentmatrix pop ulx rad add uly rad add translate
  rad rad scale 0 0 1 180 360 arc tMatrix setmatrix lrx rad sub lry rad
  sub translate rad rad scale 0 0 1 0 180 arc tMatrix setmatrix
  closepath} bdef
/FtbRR {MtbRR stroke } bdef
/PtbRR {MtbRR fill } bdef
/stri 6 array def /dtri 6 array def
/smat 6 array def /dmat 6 array def
/tmat1 6 array def /tmat2 6 array def /dif 3 array def
/asub {/ind2 exch def /ind1 exch def dup dup
  ind1 get exch ind2 get sub exch } bdef
/tri_to_matrix {
  2 0 asub 3 1 asub 4 0 asub 5 1 asub
  dup 0 get exch 1 get 7 -1 roll astore } bdef
/compute_transform {
  dmat dtri tri_to_matrix tmat1 invertmatrix 
  smat stri tri_to_matrix tmat2 concatmatrix } bdef
/ds {stri astore pop} bdef
/dt {dtri astore pop} bdef
/db {2 copy /cols xdef /rows xdef mul dup string
  currentfile exch readhexstring pop
  /bmap xdef pop pop} bdef
/it {gs np dtri aload pop moveto lineto lineto cp c
  cols rows 8 compute_transform 
  {bmap} image gr}bdef
/il {newpath moveto lineto stroke}bdef
currentdict end def
%%EndProlog

%%BeginSetup
MathWorks begin

0 cap

end
%%EndSetup

%%Page: 1 1
%%BeginPageSetup
%%PageBoundingBox:     6     0   312   231
MathWorks begin
bpage
%%EndPageSetup

%%BeginObject: obj1
bplot

/dpi2point 12 def
portraitMode 0000 2724 csm

   76   -48  3676  2775 MR c np
78 dict begin %Colortable dictionary
/c0 { 0.000000 0.000000 0.000000 sr} bdef
/c1 { 1.000000 1.000000 1.000000 sr} bdef
/c2 { 0.900000 0.000000 0.000000 sr} bdef
/c3 { 0.000000 0.820000 0.000000 sr} bdef
/c4 { 0.000000 0.000000 0.800000 sr} bdef
/c5 { 0.910000 0.820000 0.320000 sr} bdef
/c6 { 1.000000 0.260000 0.820000 sr} bdef
/c7 { 0.000000 0.820000 0.820000 sr} bdef
c0
1 j
1 sg
   0    0 4092 2728 PR
6 w
0 2204 3170 0 0 -2204 532 2410 4 MP
PP
-3170 0 0 2204 3170 0 0 -2204 532 2410 5 MP stroke
4 w
DO
0 sg
 762 2410 mt  762  206 L
 762  206 mt  762  206 L
1526 2410 mt 1526  206 L
1526  206 mt 1526  206 L
2291 2410 mt 2291  206 L
2291  206 mt 2291  206 L
3055 2410 mt 3055  206 L
3055  206 mt 3055  206 L
 532 2410 mt 3702 2410 L
3702 2410 mt 3702 2410 L
 532 2070 mt 3702 2070 L
3702 2070 mt 3702 2070 L
 532 1731 mt 3702 1731 L
3702 1731 mt 3702 1731 L
 532 1392 mt 3702 1392 L
3702 1392 mt 3702 1392 L
 532 1053 mt 3702 1053 L
3702 1053 mt 3702 1053 L
 532  714 mt 3702  714 L
3702  714 mt 3702  714 L
 532  375 mt 3702  375 L
3702  375 mt 3702  375 L
SO
6 w
 532 2410 mt 3702 2410 L
 532  206 mt 3702  206 L
 532 2410 mt  532  206 L
3702 2410 mt 3702  206 L
 532 2410 mt 3702 2410 L
 532 2410 mt  532  206 L
 762 2410 mt  762 2394 L
 762  206 mt  762  221 L
DO
 762 2410 mt  762  206 L
 762  206 mt  762  206 L
SO
 727 2410 mt  727 2394 L
 727  206 mt  727  221 L
DO
 727 2410 mt  727  206 L
 727  206 mt  727  206 L
SO
 688 2410 mt  688 2394 L
 688  206 mt  688  221 L
DO
 688 2410 mt  688  206 L
 688  206 mt  688  206 L
SO
 643 2410 mt  643 2394 L
 643  206 mt  643  221 L
DO
 643 2410 mt  643  206 L
 643  206 mt  643  206 L
SO
 592 2410 mt  592 2394 L
 592  206 mt  592  221 L
DO
 592 2410 mt  592  206 L
 592  206 mt  592  206 L
SO
 532 2410 mt  532 2394 L
 532  206 mt  532  221 L
DO
 532 2410 mt  532  206 L
 532  206 mt  532  206 L
SO
 762 2410 mt  762 2378 L
 762  206 mt  762  237 L
%%IncludeResource: font Helvetica
/Helvetica /ISOLatin1Encoding 120 FMSR

 696 2555 mt 
(10) s
 992 2410 mt  992 2394 L
 992  206 mt  992  221 L
DO
 992 2410 mt  992  206 L
 992  206 mt  992  206 L
SO
1126 2410 mt 1126 2394 L
1126  206 mt 1126  221 L
DO
1126 2410 mt 1126  206 L
1126  206 mt 1126  206 L
SO
1222 2410 mt 1222 2394 L
1222  206 mt 1222  221 L
DO
1222 2410 mt 1222  206 L
1222  206 mt 1222  206 L
SO
1296 2410 mt 1296 2394 L
1296  206 mt 1296  221 L
DO
1296 2410 mt 1296  206 L
1296  206 mt 1296  206 L
SO
1357 2410 mt 1357 2394 L
1357  206 mt 1357  221 L
DO
1357 2410 mt 1357  206 L
1357  206 mt 1357  206 L
SO
1408 2410 mt 1408 2394 L
1408  206 mt 1408  221 L
DO
1408 2410 mt 1408  206 L
1408  206 mt 1408  206 L
SO
1452 2410 mt 1452 2394 L
1452  206 mt 1452  221 L
DO
1452 2410 mt 1452  206 L
1452  206 mt 1452  206 L
SO
1491 2410 mt 1491 2394 L
1491  206 mt 1491  221 L
DO
1491 2410 mt 1491  206 L
1491  206 mt 1491  206 L
SO
1526 2410 mt 1526 2394 L
1526  206 mt 1526  221 L
DO
1526 2410 mt 1526  206 L
1526  206 mt 1526  206 L
SO
1526 2410 mt 1526 2378 L
1526  206 mt 1526  237 L
1426 2555 mt 
(100) s
1756 2410 mt 1756 2394 L
1756  206 mt 1756  221 L
DO
1756 2410 mt 1756  206 L
1756  206 mt 1756  206 L
SO
1891 2410 mt 1891 2394 L
1891  206 mt 1891  221 L
DO
1891 2410 mt 1891  206 L
1891  206 mt 1891  206 L
SO
1987 2410 mt 1987 2394 L
1987  206 mt 1987  221 L
DO
1987 2410 mt 1987  206 L
1987  206 mt 1987  206 L
SO
2061 2410 mt 2061 2394 L
2061  206 mt 2061  221 L
DO
2061 2410 mt 2061  206 L
2061  206 mt 2061  206 L
SO
2121 2410 mt 2121 2394 L
2121  206 mt 2121  221 L
DO
2121 2410 mt 2121  206 L
2121  206 mt 2121  206 L
SO
2172 2410 mt 2172 2394 L
2172  206 mt 2172  221 L
DO
2172 2410 mt 2172  206 L
2172  206 mt 2172  206 L
SO
2217 2410 mt 2217 2394 L
2217  206 mt 2217  221 L
DO
2217 2410 mt 2217  206 L
2217  206 mt 2217  206 L
SO
2256 2410 mt 2256 2394 L
2256  206 mt 2256  221 L
DO
2256 2410 mt 2256  206 L
2256  206 mt 2256  206 L
SO
2291 2410 mt 2291 2394 L
2291  206 mt 2291  221 L
DO
2291 2410 mt 2291  206 L
2291  206 mt 2291  206 L
SO
2291 2410 mt 2291 2378 L
2291  206 mt 2291  237 L
2158 2555 mt 
(1000) s
2521 2410 mt 2521 2394 L
2521  206 mt 2521  221 L
DO
2521 2410 mt 2521  206 L
2521  206 mt 2521  206 L
SO
2656 2410 mt 2656 2394 L
2656  206 mt 2656  221 L
DO
2656 2410 mt 2656  206 L
2656  206 mt 2656  206 L
SO
2751 2410 mt 2751 2394 L
2751  206 mt 2751  221 L
DO
2751 2410 mt 2751  206 L
2751  206 mt 2751  206 L
SO
2825 2410 mt 2825 2394 L
2825  206 mt 2825  221 L
DO
2825 2410 mt 2825  206 L
2825  206 mt 2825  206 L
SO
2886 2410 mt 2886 2394 L
2886  206 mt 2886  221 L
DO
2886 2410 mt 2886  206 L
2886  206 mt 2886  206 L
SO
2937 2410 mt 2937 2394 L
2937  206 mt 2937  221 L
DO
2937 2410 mt 2937  206 L
2937  206 mt 2937  206 L
SO
2981 2410 mt 2981 2394 L
2981  206 mt 2981  221 L
DO
2981 2410 mt 2981  206 L
2981  206 mt 2981  206 L
SO
3020 2410 mt 3020 2394 L
3020  206 mt 3020  221 L
DO
3020 2410 mt 3020  206 L
3020  206 mt 3020  206 L
SO
3055 2410 mt 3055 2394 L
3055  206 mt 3055  221 L
DO
3055 2410 mt 3055  206 L
3055  206 mt 3055  206 L
SO
3055 2410 mt 3055 2378 L
3055  206 mt 3055  237 L
2889 2555 mt 
(10000) s
3286 2410 mt 3286 2394 L
3286  206 mt 3286  221 L
DO
3286 2410 mt 3286  206 L
3286  206 mt 3286  206 L
SO
3420 2410 mt 3420 2394 L
3420  206 mt 3420  221 L
DO
3420 2410 mt 3420  206 L
3420  206 mt 3420  206 L
SO
3516 2410 mt 3516 2394 L
3516  206 mt 3516  221 L
DO
3516 2410 mt 3516  206 L
3516  206 mt 3516  206 L
SO
3590 2410 mt 3590 2394 L
3590  206 mt 3590  221 L
DO
3590 2410 mt 3590  206 L
3590  206 mt 3590  206 L
SO
3650 2410 mt 3650 2394 L
3650  206 mt 3650  221 L
DO
3650 2410 mt 3650  206 L
3650  206 mt 3650  206 L
SO
3702 2410 mt 3702 2394 L
3702  206 mt 3702  221 L
DO
3702 2410 mt 3702  206 L
3702  206 mt 3702  206 L
SO
 532 2410 mt  563 2410 L
3702 2410 mt 3670 2410 L
 294 2454 mt 
(-10) s
 532 2070 mt  563 2070 L
3702 2070 mt 3670 2070 L
 361 2114 mt 
(-8) s
 532 1731 mt  563 1731 L
3702 1731 mt 3670 1731 L
 361 1775 mt 
(-6) s
 532 1392 mt  563 1392 L
3702 1392 mt 3670 1392 L
 361 1436 mt 
(-4) s
 532 1053 mt  563 1053 L
3702 1053 mt 3670 1053 L
 361 1097 mt 
(-2) s
 532  714 mt  563  714 L
3702  714 mt 3670  714 L
 431  758 mt 
(0) s
 532  375 mt  563  375 L
3702  375 mt 3670  375 L
 431  419 mt 
(2) s
 532 2410 mt 3702 2410 L
 532  206 mt 3702  206 L
 532 2410 mt  532  206 L
3702 2410 mt 3702  206 L
gs 532 206 3171 2205 MR c np
45 306 119 604 111 363 109 191 135 78 135 76 230 64 230 6 
230 9 304 0 461 -9 118 -6 147 -108 195 -177 170 -326 134 -407 
182 -664 580 2411 18 MP stroke
gr

1128  111 mt 
(Relative power output over frequency) s
 212 1826 mt  -90 rotate
(Relative power [dB]) s
90 rotate
1712 2698 mt 
(Frequency [Hz]) s

end %%Color Dict

eplot
%%EndObject

epage
end

showpage

%%Trailer
%%EOF
