G75*
G70*
%OFA0B0*%
%FSLAX24Y24*%
%IPPOS*%
%LPD*%
%AMOC8*
5,1,8,0,0,1.08239X$1,22.5*
%
%ADD10C,0.0000*%
%ADD11OC8,0.0517*%
%ADD12OC8,0.0630*%
%ADD13OC8,0.0600*%
%ADD14C,0.0780*%
%ADD15C,0.0630*%
%ADD16OC8,0.0560*%
%ADD17C,0.0517*%
%ADD18C,0.0517*%
%ADD19OC8,0.0850*%
%ADD20OC8,0.0709*%
%ADD21C,0.0160*%
%ADD22OC8,0.0236*%
%ADD23C,0.0320*%
%ADD24C,0.0240*%
D10*
X001099Y001937D02*
X001099Y019260D01*
X001101Y019326D01*
X001106Y019392D01*
X001116Y019458D01*
X001129Y019523D01*
X001145Y019587D01*
X001165Y019650D01*
X001189Y019712D01*
X001216Y019772D01*
X001246Y019831D01*
X001280Y019888D01*
X001317Y019943D01*
X001357Y019996D01*
X001399Y020047D01*
X001445Y020095D01*
X001493Y020141D01*
X001544Y020183D01*
X001597Y020223D01*
X001652Y020260D01*
X001709Y020294D01*
X001768Y020324D01*
X001828Y020351D01*
X001890Y020375D01*
X001953Y020395D01*
X002017Y020411D01*
X002082Y020424D01*
X002148Y020434D01*
X002214Y020439D01*
X002280Y020441D01*
X019603Y020441D01*
X019669Y020439D01*
X019735Y020434D01*
X019801Y020424D01*
X019866Y020411D01*
X019930Y020395D01*
X019993Y020375D01*
X020055Y020351D01*
X020115Y020324D01*
X020174Y020294D01*
X020231Y020260D01*
X020286Y020223D01*
X020339Y020183D01*
X020390Y020141D01*
X020438Y020095D01*
X020484Y020047D01*
X020526Y019996D01*
X020566Y019943D01*
X020603Y019888D01*
X020637Y019831D01*
X020667Y019772D01*
X020694Y019712D01*
X020718Y019650D01*
X020738Y019587D01*
X020754Y019523D01*
X020767Y019458D01*
X020777Y019392D01*
X020782Y019326D01*
X020784Y019260D01*
X020784Y001937D01*
X020782Y001871D01*
X020777Y001805D01*
X020767Y001739D01*
X020754Y001674D01*
X020738Y001610D01*
X020718Y001547D01*
X020694Y001485D01*
X020667Y001425D01*
X020637Y001366D01*
X020603Y001309D01*
X020566Y001254D01*
X020526Y001201D01*
X020484Y001150D01*
X020438Y001102D01*
X020390Y001056D01*
X020339Y001014D01*
X020286Y000974D01*
X020231Y000937D01*
X020174Y000903D01*
X020115Y000873D01*
X020055Y000846D01*
X019993Y000822D01*
X019930Y000802D01*
X019866Y000786D01*
X019801Y000773D01*
X019735Y000763D01*
X019669Y000758D01*
X019603Y000756D01*
X002280Y000756D01*
X002214Y000758D01*
X002148Y000763D01*
X002082Y000773D01*
X002017Y000786D01*
X001953Y000802D01*
X001890Y000822D01*
X001828Y000846D01*
X001768Y000873D01*
X001709Y000903D01*
X001652Y000937D01*
X001597Y000974D01*
X001544Y001014D01*
X001493Y001056D01*
X001445Y001102D01*
X001399Y001150D01*
X001357Y001201D01*
X001317Y001254D01*
X001280Y001309D01*
X001246Y001366D01*
X001216Y001425D01*
X001189Y001485D01*
X001165Y001547D01*
X001145Y001610D01*
X001129Y001674D01*
X001116Y001739D01*
X001106Y001805D01*
X001101Y001871D01*
X001099Y001937D01*
X002260Y002724D02*
X002262Y002780D01*
X002268Y002836D01*
X002278Y002892D01*
X002291Y002946D01*
X002309Y003000D01*
X002330Y003052D01*
X002354Y003103D01*
X002383Y003152D01*
X002414Y003198D01*
X002449Y003243D01*
X002486Y003285D01*
X002527Y003324D01*
X002570Y003360D01*
X002616Y003393D01*
X002663Y003423D01*
X002713Y003449D01*
X002765Y003472D01*
X002818Y003492D01*
X002872Y003507D01*
X002927Y003519D01*
X002983Y003527D01*
X003039Y003531D01*
X003095Y003531D01*
X003151Y003527D01*
X003207Y003519D01*
X003262Y003507D01*
X003316Y003492D01*
X003369Y003472D01*
X003421Y003449D01*
X003470Y003423D01*
X003518Y003393D01*
X003564Y003360D01*
X003607Y003324D01*
X003648Y003285D01*
X003685Y003243D01*
X003720Y003198D01*
X003751Y003152D01*
X003780Y003103D01*
X003804Y003052D01*
X003825Y003000D01*
X003843Y002946D01*
X003856Y002892D01*
X003866Y002836D01*
X003872Y002780D01*
X003874Y002724D01*
X003872Y002668D01*
X003866Y002612D01*
X003856Y002556D01*
X003843Y002502D01*
X003825Y002448D01*
X003804Y002396D01*
X003780Y002345D01*
X003751Y002296D01*
X003720Y002250D01*
X003685Y002205D01*
X003648Y002163D01*
X003607Y002124D01*
X003564Y002088D01*
X003518Y002055D01*
X003471Y002025D01*
X003421Y001999D01*
X003369Y001976D01*
X003316Y001956D01*
X003262Y001941D01*
X003207Y001929D01*
X003151Y001921D01*
X003095Y001917D01*
X003039Y001917D01*
X002983Y001921D01*
X002927Y001929D01*
X002872Y001941D01*
X002818Y001956D01*
X002765Y001976D01*
X002713Y001999D01*
X002663Y002025D01*
X002616Y002055D01*
X002570Y002088D01*
X002527Y002124D01*
X002486Y002163D01*
X002449Y002205D01*
X002414Y002250D01*
X002383Y002296D01*
X002354Y002345D01*
X002330Y002396D01*
X002309Y002448D01*
X002291Y002502D01*
X002278Y002556D01*
X002268Y002612D01*
X002262Y002668D01*
X002260Y002724D01*
X002260Y018472D02*
X002262Y018528D01*
X002268Y018584D01*
X002278Y018640D01*
X002291Y018694D01*
X002309Y018748D01*
X002330Y018800D01*
X002354Y018851D01*
X002383Y018900D01*
X002414Y018946D01*
X002449Y018991D01*
X002486Y019033D01*
X002527Y019072D01*
X002570Y019108D01*
X002616Y019141D01*
X002663Y019171D01*
X002713Y019197D01*
X002765Y019220D01*
X002818Y019240D01*
X002872Y019255D01*
X002927Y019267D01*
X002983Y019275D01*
X003039Y019279D01*
X003095Y019279D01*
X003151Y019275D01*
X003207Y019267D01*
X003262Y019255D01*
X003316Y019240D01*
X003369Y019220D01*
X003421Y019197D01*
X003470Y019171D01*
X003518Y019141D01*
X003564Y019108D01*
X003607Y019072D01*
X003648Y019033D01*
X003685Y018991D01*
X003720Y018946D01*
X003751Y018900D01*
X003780Y018851D01*
X003804Y018800D01*
X003825Y018748D01*
X003843Y018694D01*
X003856Y018640D01*
X003866Y018584D01*
X003872Y018528D01*
X003874Y018472D01*
X003872Y018416D01*
X003866Y018360D01*
X003856Y018304D01*
X003843Y018250D01*
X003825Y018196D01*
X003804Y018144D01*
X003780Y018093D01*
X003751Y018044D01*
X003720Y017998D01*
X003685Y017953D01*
X003648Y017911D01*
X003607Y017872D01*
X003564Y017836D01*
X003518Y017803D01*
X003471Y017773D01*
X003421Y017747D01*
X003369Y017724D01*
X003316Y017704D01*
X003262Y017689D01*
X003207Y017677D01*
X003151Y017669D01*
X003095Y017665D01*
X003039Y017665D01*
X002983Y017669D01*
X002927Y017677D01*
X002872Y017689D01*
X002818Y017704D01*
X002765Y017724D01*
X002713Y017747D01*
X002663Y017773D01*
X002616Y017803D01*
X002570Y017836D01*
X002527Y017872D01*
X002486Y017911D01*
X002449Y017953D01*
X002414Y017998D01*
X002383Y018044D01*
X002354Y018093D01*
X002330Y018144D01*
X002309Y018196D01*
X002291Y018250D01*
X002278Y018304D01*
X002268Y018360D01*
X002262Y018416D01*
X002260Y018472D01*
X018008Y018472D02*
X018010Y018528D01*
X018016Y018584D01*
X018026Y018640D01*
X018039Y018694D01*
X018057Y018748D01*
X018078Y018800D01*
X018102Y018851D01*
X018131Y018900D01*
X018162Y018946D01*
X018197Y018991D01*
X018234Y019033D01*
X018275Y019072D01*
X018318Y019108D01*
X018364Y019141D01*
X018411Y019171D01*
X018461Y019197D01*
X018513Y019220D01*
X018566Y019240D01*
X018620Y019255D01*
X018675Y019267D01*
X018731Y019275D01*
X018787Y019279D01*
X018843Y019279D01*
X018899Y019275D01*
X018955Y019267D01*
X019010Y019255D01*
X019064Y019240D01*
X019117Y019220D01*
X019169Y019197D01*
X019218Y019171D01*
X019266Y019141D01*
X019312Y019108D01*
X019355Y019072D01*
X019396Y019033D01*
X019433Y018991D01*
X019468Y018946D01*
X019499Y018900D01*
X019528Y018851D01*
X019552Y018800D01*
X019573Y018748D01*
X019591Y018694D01*
X019604Y018640D01*
X019614Y018584D01*
X019620Y018528D01*
X019622Y018472D01*
X019620Y018416D01*
X019614Y018360D01*
X019604Y018304D01*
X019591Y018250D01*
X019573Y018196D01*
X019552Y018144D01*
X019528Y018093D01*
X019499Y018044D01*
X019468Y017998D01*
X019433Y017953D01*
X019396Y017911D01*
X019355Y017872D01*
X019312Y017836D01*
X019266Y017803D01*
X019219Y017773D01*
X019169Y017747D01*
X019117Y017724D01*
X019064Y017704D01*
X019010Y017689D01*
X018955Y017677D01*
X018899Y017669D01*
X018843Y017665D01*
X018787Y017665D01*
X018731Y017669D01*
X018675Y017677D01*
X018620Y017689D01*
X018566Y017704D01*
X018513Y017724D01*
X018461Y017747D01*
X018411Y017773D01*
X018364Y017803D01*
X018318Y017836D01*
X018275Y017872D01*
X018234Y017911D01*
X018197Y017953D01*
X018162Y017998D01*
X018131Y018044D01*
X018102Y018093D01*
X018078Y018144D01*
X018057Y018196D01*
X018039Y018250D01*
X018026Y018304D01*
X018016Y018360D01*
X018010Y018416D01*
X018008Y018472D01*
X018008Y002724D02*
X018010Y002780D01*
X018016Y002836D01*
X018026Y002892D01*
X018039Y002946D01*
X018057Y003000D01*
X018078Y003052D01*
X018102Y003103D01*
X018131Y003152D01*
X018162Y003198D01*
X018197Y003243D01*
X018234Y003285D01*
X018275Y003324D01*
X018318Y003360D01*
X018364Y003393D01*
X018411Y003423D01*
X018461Y003449D01*
X018513Y003472D01*
X018566Y003492D01*
X018620Y003507D01*
X018675Y003519D01*
X018731Y003527D01*
X018787Y003531D01*
X018843Y003531D01*
X018899Y003527D01*
X018955Y003519D01*
X019010Y003507D01*
X019064Y003492D01*
X019117Y003472D01*
X019169Y003449D01*
X019218Y003423D01*
X019266Y003393D01*
X019312Y003360D01*
X019355Y003324D01*
X019396Y003285D01*
X019433Y003243D01*
X019468Y003198D01*
X019499Y003152D01*
X019528Y003103D01*
X019552Y003052D01*
X019573Y003000D01*
X019591Y002946D01*
X019604Y002892D01*
X019614Y002836D01*
X019620Y002780D01*
X019622Y002724D01*
X019620Y002668D01*
X019614Y002612D01*
X019604Y002556D01*
X019591Y002502D01*
X019573Y002448D01*
X019552Y002396D01*
X019528Y002345D01*
X019499Y002296D01*
X019468Y002250D01*
X019433Y002205D01*
X019396Y002163D01*
X019355Y002124D01*
X019312Y002088D01*
X019266Y002055D01*
X019219Y002025D01*
X019169Y001999D01*
X019117Y001976D01*
X019064Y001956D01*
X019010Y001941D01*
X018955Y001929D01*
X018899Y001921D01*
X018843Y001917D01*
X018787Y001917D01*
X018731Y001921D01*
X018675Y001929D01*
X018620Y001941D01*
X018566Y001956D01*
X018513Y001976D01*
X018461Y001999D01*
X018411Y002025D01*
X018364Y002055D01*
X018318Y002088D01*
X018275Y002124D01*
X018234Y002163D01*
X018197Y002205D01*
X018162Y002250D01*
X018131Y002296D01*
X018102Y002345D01*
X018078Y002396D01*
X018057Y002448D01*
X018039Y002502D01*
X018026Y002556D01*
X018016Y002612D01*
X018010Y002668D01*
X018008Y002724D01*
D11*
X016474Y002256D03*
X015474Y002256D03*
X014224Y002381D03*
X014224Y001381D03*
X013099Y001506D03*
X012099Y001506D03*
X010599Y003506D03*
X010599Y005506D03*
X010974Y006756D03*
X012974Y006756D03*
X014474Y009006D03*
X014474Y010006D03*
X015849Y010006D03*
X015849Y009006D03*
X015474Y007881D03*
X015474Y005881D03*
X015224Y004631D03*
X017224Y004631D03*
X017724Y005881D03*
X018974Y005631D03*
X019974Y005631D03*
X019974Y006631D03*
X019974Y007631D03*
X018974Y007631D03*
X018974Y006631D03*
X017724Y007881D03*
X017599Y009106D03*
X019099Y009506D03*
X019849Y010006D03*
X019849Y009006D03*
X019599Y011381D03*
X017599Y011381D03*
X015974Y012631D03*
X015974Y013631D03*
X015974Y014631D03*
X015974Y015631D03*
X014974Y015631D03*
X014974Y014631D03*
X014974Y013631D03*
X014974Y012631D03*
X013974Y012631D03*
X013974Y013631D03*
X013974Y014631D03*
X013974Y015631D03*
X012599Y016631D03*
X013349Y018256D03*
X013349Y019256D03*
X014599Y019256D03*
X014599Y018256D03*
X015974Y017756D03*
X015974Y019756D03*
X010599Y016631D03*
X007599Y016506D03*
X007599Y014506D03*
X007599Y013506D03*
X006599Y013506D03*
X006599Y012506D03*
X007599Y012506D03*
X008599Y012506D03*
X008599Y013506D03*
X007849Y011381D03*
X007849Y009381D03*
X004974Y007256D03*
X004974Y006256D03*
X004974Y005256D03*
X004974Y004256D03*
X005474Y012506D03*
X004474Y012506D03*
X004474Y015631D03*
X005474Y015631D03*
D12*
X009849Y015506D03*
X009849Y014506D03*
X009849Y013506D03*
X009849Y012506D03*
X010224Y011006D03*
X010224Y010006D03*
X010224Y009006D03*
X010224Y008006D03*
X009224Y006506D03*
X008224Y006506D03*
X007224Y006506D03*
X006224Y006506D03*
X006224Y003506D03*
X007224Y003506D03*
X008224Y003506D03*
X009224Y003506D03*
X013099Y004581D03*
X013224Y008006D03*
X013224Y009006D03*
X013224Y010006D03*
X013224Y011006D03*
X012849Y012506D03*
X012849Y013506D03*
X012849Y014506D03*
X012849Y015506D03*
X017099Y015756D03*
X017099Y014756D03*
X017099Y013756D03*
X017099Y012756D03*
X020099Y012756D03*
X020099Y013756D03*
X020099Y014756D03*
X020099Y015756D03*
D13*
X012049Y018756D03*
X006149Y018756D03*
D14*
X002989Y015528D02*
X002209Y015528D01*
X002209Y013558D02*
X002989Y013558D01*
X002989Y011588D02*
X002209Y011588D01*
X002209Y009608D02*
X002989Y009608D01*
X002989Y007638D02*
X002209Y007638D01*
X002209Y005668D02*
X002989Y005668D01*
D15*
X013099Y003181D03*
D16*
X005349Y009381D03*
X005349Y011381D03*
D17*
X017599Y009906D03*
D18*
X011357Y002256D02*
X010840Y002256D01*
X010357Y001256D02*
X009840Y001256D01*
X009357Y002256D02*
X008840Y002256D01*
X007857Y002256D02*
X007340Y002256D01*
X006857Y001256D02*
X006340Y001256D01*
X005857Y002256D02*
X005340Y002256D01*
D19*
X020224Y004881D03*
D20*
X009349Y008131D03*
X007349Y008131D03*
X006536Y008131D03*
X004536Y008131D03*
D21*
X004767Y007754D02*
X004519Y007506D01*
X003724Y007506D01*
X003724Y010193D01*
X005911Y010193D01*
X005911Y008072D01*
X005884Y008045D01*
X005824Y007898D01*
X005824Y007506D01*
X005428Y007506D01*
X005180Y007754D01*
X004767Y007754D01*
X004745Y007732D02*
X003724Y007732D01*
X003724Y007890D02*
X005824Y007890D01*
X005824Y007732D02*
X005202Y007732D01*
X005361Y007573D02*
X005824Y007573D01*
X005975Y007186D02*
X006092Y007235D01*
X006182Y007325D01*
X006231Y007442D01*
X006231Y007570D01*
X006231Y007680D01*
X006315Y007597D01*
X006498Y007597D01*
X006498Y008093D01*
X006574Y008093D01*
X006574Y007597D01*
X006757Y007597D01*
X006900Y007739D01*
X007102Y007537D01*
X007442Y007537D01*
X007404Y007445D01*
X007404Y007061D01*
X006994Y007061D01*
X006681Y006748D01*
X006429Y007001D01*
X006224Y007001D01*
X006224Y006506D01*
X006223Y006506D01*
X006223Y006506D01*
X005729Y006506D01*
X005729Y006711D01*
X006019Y007001D01*
X006223Y007001D01*
X006223Y006506D01*
X005729Y006506D01*
X005729Y006301D01*
X006019Y006011D01*
X006223Y006011D01*
X006223Y006505D01*
X006224Y006505D01*
X006224Y006011D01*
X006429Y006011D01*
X006681Y006264D01*
X006904Y006041D01*
X006904Y005888D01*
X006591Y005576D01*
X005358Y005576D01*
X005180Y005754D01*
X004767Y005754D01*
X004475Y005462D01*
X004475Y005049D01*
X004767Y004757D01*
X005180Y004757D01*
X005358Y004936D01*
X006404Y004936D01*
X006404Y004061D01*
X005994Y004061D01*
X005669Y003736D01*
X005669Y003276D01*
X005994Y002951D01*
X006279Y002951D01*
X006279Y002539D01*
X006139Y002678D01*
X005956Y002754D01*
X005303Y002754D01*
X005231Y003304D01*
X005231Y003304D01*
X005043Y003757D01*
X005180Y003757D01*
X005472Y004049D01*
X005472Y004462D01*
X005180Y004754D01*
X004767Y004754D01*
X004475Y004462D01*
X004475Y004443D01*
X004187Y004664D01*
X003647Y004888D01*
X003647Y004888D01*
X003067Y004964D01*
X002487Y004888D01*
X001947Y004664D01*
X001483Y004308D01*
X001339Y004120D01*
X001339Y008446D01*
X001732Y008053D01*
X001674Y007995D01*
X001579Y007764D01*
X001579Y007513D01*
X001674Y007282D01*
X001852Y007104D01*
X002083Y007008D01*
X003114Y007008D01*
X003345Y007104D01*
X003509Y007268D01*
X003542Y007235D01*
X003660Y007186D01*
X003787Y007186D01*
X004475Y007186D01*
X004475Y007049D01*
X004767Y006757D01*
X005180Y006757D01*
X005472Y007049D01*
X005472Y007186D01*
X005660Y007186D01*
X005975Y007186D01*
X006114Y007256D02*
X007404Y007256D01*
X007404Y007098D02*
X005472Y007098D01*
X005362Y006939D02*
X005957Y006939D01*
X005798Y006781D02*
X005203Y006781D01*
X005155Y006694D02*
X004974Y006694D01*
X004974Y006256D01*
X005412Y006256D01*
X005412Y006437D01*
X005155Y006694D01*
X005227Y006622D02*
X005729Y006622D01*
X005729Y006463D02*
X005386Y006463D01*
X005412Y006305D02*
X005729Y006305D01*
X005883Y006146D02*
X005412Y006146D01*
X005412Y006074D02*
X005412Y006256D01*
X004974Y006256D01*
X004974Y006256D01*
X004973Y006256D01*
X004973Y006256D01*
X004535Y006256D01*
X004535Y006437D01*
X004792Y006694D01*
X004973Y006694D01*
X004973Y006256D01*
X004535Y006256D01*
X004535Y006074D01*
X004792Y005817D01*
X004973Y005817D01*
X004973Y006255D01*
X004974Y006255D01*
X004974Y005817D01*
X005155Y005817D01*
X005412Y006074D01*
X005326Y005988D02*
X006904Y005988D01*
X006844Y005829D02*
X005167Y005829D01*
X005264Y005671D02*
X006686Y005671D01*
X006724Y005256D02*
X004974Y005256D01*
X005301Y004878D02*
X006404Y004878D01*
X006404Y004719D02*
X005215Y004719D01*
X005373Y004561D02*
X006404Y004561D01*
X006404Y004402D02*
X005472Y004402D01*
X005472Y004244D02*
X006404Y004244D01*
X006404Y004085D02*
X005472Y004085D01*
X005349Y003927D02*
X005860Y003927D01*
X005701Y003768D02*
X005191Y003768D01*
X005104Y003610D02*
X005669Y003610D01*
X005669Y003451D02*
X005170Y003451D01*
X005232Y003293D02*
X005669Y003293D01*
X005811Y003134D02*
X005253Y003134D01*
X005274Y002976D02*
X005969Y002976D01*
X006279Y002817D02*
X005295Y002817D01*
X006159Y002658D02*
X006279Y002658D01*
X006599Y003006D02*
X006599Y001256D01*
X007599Y002256D02*
X007724Y002381D01*
X007724Y004506D01*
X008224Y005381D02*
X007724Y005881D01*
X007724Y007381D01*
X007974Y007631D01*
X007974Y008381D01*
X006974Y009381D01*
X006974Y010631D01*
X005474Y012131D01*
X005474Y012506D01*
X005474Y013381D01*
X004849Y014006D01*
X004724Y014006D01*
X004754Y013648D02*
X004575Y013648D01*
X004365Y013858D01*
X004365Y014154D01*
X004575Y014364D01*
X004872Y014364D01*
X004910Y014326D01*
X004912Y014326D01*
X005030Y014277D01*
X005655Y013652D01*
X005655Y013652D01*
X005716Y013591D01*
X005716Y014936D01*
X005519Y015132D01*
X005267Y015132D01*
X004975Y015424D01*
X004975Y015837D01*
X005267Y016129D01*
X005680Y016129D01*
X005972Y015837D01*
X005972Y015585D01*
X006307Y015250D01*
X006356Y015132D01*
X006356Y015005D01*
X006356Y013968D01*
X006392Y014004D01*
X006779Y014004D01*
X006779Y014819D01*
X006740Y014858D01*
X006740Y015154D01*
X006950Y015364D01*
X007247Y015364D01*
X007457Y015154D01*
X007457Y015004D01*
X007805Y015004D01*
X007904Y014906D01*
X007904Y015567D01*
X007904Y015695D01*
X007952Y015812D01*
X007990Y015850D01*
X007990Y015904D01*
X008200Y016114D01*
X008497Y016114D01*
X008707Y015904D01*
X008707Y015608D01*
X008544Y015444D01*
X008544Y014067D01*
X008517Y014004D01*
X008805Y014004D01*
X008824Y013986D01*
X008824Y017176D01*
X008824Y017335D01*
X008884Y017482D01*
X009247Y017845D01*
X009394Y017906D01*
X009553Y017906D01*
X009700Y017845D01*
X009813Y017732D01*
X009874Y017585D01*
X009874Y017426D01*
X009813Y017279D01*
X009624Y017090D01*
X009624Y016061D01*
X010078Y016061D01*
X010404Y015736D01*
X010404Y015276D01*
X010133Y015006D01*
X010404Y014736D01*
X010404Y014276D01*
X010133Y014006D01*
X010404Y013736D01*
X010404Y013276D01*
X010091Y012963D01*
X010344Y012711D01*
X010344Y012506D01*
X009849Y012506D01*
X009849Y012506D01*
X010344Y012506D01*
X010344Y012382D01*
X010388Y012426D01*
X010684Y012426D01*
X010894Y012217D01*
X010894Y011920D01*
X010684Y011710D01*
X010631Y011710D01*
X010544Y011623D01*
X010544Y011471D01*
X010779Y011236D01*
X010779Y010776D01*
X010508Y010506D01*
X010779Y010236D01*
X010779Y009776D01*
X010508Y009506D01*
X010779Y009236D01*
X010779Y008776D01*
X010466Y008463D01*
X010719Y008211D01*
X010719Y008006D01*
X010224Y008006D01*
X010224Y008006D01*
X010719Y008006D01*
X010719Y007801D01*
X010429Y007511D01*
X010224Y007511D01*
X010224Y008005D01*
X010223Y008005D01*
X010223Y007511D01*
X010019Y007511D01*
X009794Y007736D01*
X009595Y007537D01*
X009102Y007537D01*
X009044Y007595D01*
X009044Y007061D01*
X009453Y007061D01*
X009779Y006736D01*
X009779Y006276D01*
X009453Y005951D01*
X009044Y005951D01*
X009044Y005263D01*
X010245Y004062D01*
X010294Y003945D01*
X010294Y003906D01*
X010392Y004004D01*
X010805Y004004D01*
X011097Y003712D01*
X011097Y003299D01*
X010805Y003007D01*
X010392Y003007D01*
X010294Y003106D01*
X010294Y002763D01*
X010468Y002589D01*
X010558Y002678D01*
X010741Y002754D01*
X011218Y002754D01*
X011199Y002801D01*
X011199Y002960D01*
X011259Y003107D01*
X012074Y003922D01*
X012074Y006090D01*
X011772Y006391D01*
X011745Y006325D01*
X011669Y006248D01*
X011669Y004692D01*
X011707Y004654D01*
X011707Y004358D01*
X011497Y004148D01*
X011200Y004148D01*
X010990Y004358D01*
X010990Y004654D01*
X011029Y004692D01*
X011029Y005316D01*
X010780Y005067D01*
X010599Y005067D01*
X010599Y005505D01*
X010598Y005505D01*
X010598Y005067D01*
X010417Y005067D01*
X010160Y005324D01*
X010160Y005506D01*
X010598Y005506D01*
X010598Y005506D01*
X010160Y005506D01*
X010160Y005687D01*
X010417Y005944D01*
X010598Y005944D01*
X010598Y005506D01*
X010599Y005506D01*
X010599Y005944D01*
X010780Y005944D01*
X011029Y005696D01*
X011029Y006317D01*
X011029Y006317D01*
X010974Y006317D01*
X010974Y006755D01*
X010973Y006755D01*
X010973Y006317D01*
X010792Y006317D01*
X010535Y006574D01*
X010535Y006756D01*
X010973Y006756D01*
X010973Y006756D01*
X010535Y006756D01*
X010535Y006937D01*
X010792Y007194D01*
X010973Y007194D01*
X010973Y006756D01*
X010974Y006756D01*
X010974Y007194D01*
X011029Y007194D01*
X011029Y014319D01*
X010990Y014358D01*
X010990Y014654D01*
X011200Y014864D01*
X011497Y014864D01*
X011574Y014787D01*
X011574Y016801D01*
X011574Y016960D01*
X011634Y017107D01*
X012134Y017607D01*
X012247Y017720D01*
X012394Y017781D01*
X013119Y017781D01*
X012850Y018049D01*
X012850Y018462D01*
X013142Y018754D01*
X013555Y018754D01*
X013574Y018736D01*
X013574Y018776D01*
X013555Y018757D01*
X013142Y018757D01*
X012850Y019049D01*
X012850Y019462D01*
X013074Y019686D01*
X006231Y019686D01*
X005544Y018998D01*
X005544Y017695D01*
X005544Y017567D01*
X005495Y017450D01*
X004120Y016075D01*
X004030Y015985D01*
X003912Y015936D01*
X003472Y015936D01*
X003523Y015885D01*
X003619Y015654D01*
X003619Y015403D01*
X003523Y015172D01*
X003345Y014994D01*
X003114Y014898D01*
X002083Y014898D01*
X001852Y014994D01*
X001794Y015053D01*
X001794Y014034D01*
X001852Y014092D01*
X002083Y014188D01*
X003114Y014188D01*
X003345Y014092D01*
X003523Y013915D01*
X004365Y013915D01*
X004365Y014074D02*
X003364Y014074D01*
X003523Y013915D02*
X003619Y013684D01*
X003619Y013433D01*
X003523Y013202D01*
X003345Y013024D01*
X003114Y012928D01*
X002083Y012928D01*
X001852Y013024D01*
X001794Y013083D01*
X001794Y012064D01*
X001852Y012122D01*
X002083Y012218D01*
X003114Y012218D01*
X003345Y012122D01*
X003523Y011945D01*
X003619Y011714D01*
X003619Y011463D01*
X003523Y011232D01*
X003345Y011054D01*
X003114Y010958D01*
X002083Y010958D01*
X001852Y011054D01*
X001794Y011113D01*
X001794Y010084D01*
X001852Y010142D01*
X002083Y010238D01*
X003114Y010238D01*
X003345Y010142D01*
X003404Y010084D01*
X003404Y010130D01*
X003404Y010257D01*
X003452Y010375D01*
X003542Y010465D01*
X003660Y010513D01*
X004011Y010513D01*
X004011Y011398D01*
X004072Y011545D01*
X004184Y011657D01*
X004331Y011718D01*
X004491Y011718D01*
X004638Y011657D01*
X004750Y011545D01*
X004811Y011398D01*
X004811Y010513D01*
X005713Y010513D01*
X005365Y010861D01*
X005133Y010861D01*
X004829Y011166D01*
X004829Y011596D01*
X005133Y011901D01*
X005251Y011901D01*
X005202Y011950D01*
X005154Y012067D01*
X005154Y012121D01*
X004975Y012299D01*
X004975Y012712D01*
X005154Y012891D01*
X005154Y013248D01*
X004754Y013648D01*
X004804Y013598D02*
X003619Y013598D01*
X003619Y013439D02*
X004963Y013439D01*
X005121Y013281D02*
X003555Y013281D01*
X003443Y013122D02*
X005154Y013122D01*
X005154Y012964D02*
X004721Y012964D01*
X004680Y013004D02*
X004267Y013004D01*
X003975Y012712D01*
X003975Y012299D01*
X004267Y012007D01*
X004680Y012007D01*
X004972Y012299D01*
X004972Y012712D01*
X004680Y013004D01*
X004879Y012805D02*
X005068Y012805D01*
X004975Y012647D02*
X004972Y012647D01*
X004972Y012488D02*
X004975Y012488D01*
X004972Y012330D02*
X004975Y012330D01*
X005104Y012171D02*
X004844Y012171D01*
X004685Y012012D02*
X005176Y012012D01*
X005086Y011854D02*
X003560Y011854D01*
X003619Y011695D02*
X004276Y011695D01*
X004069Y011537D02*
X003619Y011537D01*
X003583Y011378D02*
X004011Y011378D01*
X004011Y011220D02*
X003511Y011220D01*
X003352Y011061D02*
X004011Y011061D01*
X004011Y010903D02*
X001794Y010903D01*
X001794Y011061D02*
X001845Y011061D01*
X001794Y010744D02*
X004011Y010744D01*
X004011Y010586D02*
X001794Y010586D01*
X001794Y010427D02*
X003505Y010427D01*
X003408Y010269D02*
X001794Y010269D01*
X001794Y010110D02*
X001819Y010110D01*
X001474Y008763D02*
X002599Y007638D01*
X003329Y007098D02*
X004475Y007098D01*
X004586Y006939D02*
X001339Y006939D01*
X001339Y006781D02*
X004744Y006781D01*
X004720Y006622D02*
X001339Y006622D01*
X001339Y006463D02*
X004561Y006463D01*
X004535Y006305D02*
X001339Y006305D01*
X001339Y006146D02*
X001897Y006146D01*
X001910Y006156D02*
X001837Y006103D01*
X001774Y006040D01*
X001721Y005967D01*
X001680Y005887D01*
X001653Y005802D01*
X001639Y005718D01*
X002548Y005718D01*
X002548Y005618D01*
X001639Y005618D01*
X001653Y005535D01*
X001680Y005450D01*
X001721Y005370D01*
X001774Y005297D01*
X001837Y005234D01*
X001910Y005181D01*
X001990Y005140D01*
X002075Y005112D01*
X002164Y005098D01*
X002549Y005098D01*
X002549Y005618D01*
X002649Y005618D01*
X002649Y005718D01*
X003558Y005718D01*
X003545Y005802D01*
X003517Y005887D01*
X003476Y005967D01*
X003423Y006040D01*
X003360Y006103D01*
X003287Y006156D01*
X003207Y006197D01*
X003122Y006224D01*
X003033Y006238D01*
X002649Y006238D01*
X002649Y005719D01*
X002549Y005719D01*
X002549Y006238D01*
X002164Y006238D01*
X002075Y006224D01*
X001990Y006197D01*
X001910Y006156D01*
X001736Y005988D02*
X001339Y005988D01*
X001339Y005829D02*
X001662Y005829D01*
X001339Y005671D02*
X002548Y005671D01*
X002649Y005671D02*
X004684Y005671D01*
X004780Y005829D02*
X003536Y005829D01*
X003461Y005988D02*
X004622Y005988D01*
X004535Y006146D02*
X003300Y006146D01*
X003558Y005618D02*
X002649Y005618D01*
X002649Y005098D01*
X003033Y005098D01*
X003122Y005112D01*
X003207Y005140D01*
X003287Y005181D01*
X003360Y005234D01*
X003423Y005297D01*
X003476Y005370D01*
X003517Y005450D01*
X003545Y005535D01*
X003558Y005618D01*
X003537Y005512D02*
X004525Y005512D01*
X004475Y005354D02*
X003464Y005354D01*
X003307Y005195D02*
X004475Y005195D01*
X004488Y005037D02*
X001339Y005037D01*
X001339Y005195D02*
X001890Y005195D01*
X001733Y005354D02*
X001339Y005354D01*
X001339Y005512D02*
X001660Y005512D01*
X001339Y004878D02*
X002463Y004878D01*
X002487Y004888D02*
X002487Y004888D01*
X002549Y005195D02*
X002649Y005195D01*
X002649Y005354D02*
X002549Y005354D01*
X002549Y005512D02*
X002649Y005512D01*
X002649Y005829D02*
X002549Y005829D01*
X002549Y005988D02*
X002649Y005988D01*
X002649Y006146D02*
X002549Y006146D01*
X001868Y007098D02*
X001339Y007098D01*
X001339Y007256D02*
X001700Y007256D01*
X001619Y007415D02*
X001339Y007415D01*
X001339Y007573D02*
X001579Y007573D01*
X001579Y007732D02*
X001339Y007732D01*
X001339Y007890D02*
X001631Y007890D01*
X001728Y008049D02*
X001339Y008049D01*
X001339Y008207D02*
X001577Y008207D01*
X001418Y008366D02*
X001339Y008366D01*
X001474Y008763D02*
X001474Y015861D01*
X001869Y016256D01*
X003849Y016256D01*
X005224Y017631D01*
X005224Y019131D01*
X006099Y020006D01*
X015724Y020006D01*
X015974Y019756D01*
X016336Y020098D02*
X017286Y020098D01*
X017231Y020056D02*
X017420Y020201D01*
X016233Y020201D01*
X016472Y019962D01*
X016472Y019549D01*
X016180Y019257D01*
X015767Y019257D01*
X015475Y019549D01*
X015475Y019686D01*
X014873Y019686D01*
X015097Y019462D01*
X015097Y019049D01*
X014805Y018757D01*
X014541Y018757D01*
X014538Y018754D01*
X014805Y018754D01*
X015097Y018462D01*
X015097Y018049D01*
X014805Y017757D01*
X014392Y017757D01*
X014374Y017776D01*
X014374Y017676D01*
X014313Y017529D01*
X013825Y017042D01*
X013678Y016981D01*
X013519Y016981D01*
X012953Y016981D01*
X013097Y016837D01*
X013097Y016424D01*
X012805Y016132D01*
X012392Y016132D01*
X012374Y016151D01*
X012374Y015816D01*
X012619Y016061D01*
X013078Y016061D01*
X013404Y015736D01*
X013404Y015276D01*
X013133Y015006D01*
X013404Y014736D01*
X013404Y014276D01*
X013133Y014006D01*
X013404Y013736D01*
X013404Y013276D01*
X013133Y013006D01*
X013404Y012736D01*
X013404Y012513D01*
X013475Y012585D01*
X013475Y012837D01*
X013767Y013129D01*
X014180Y013129D01*
X014472Y012837D01*
X014472Y012424D01*
X014180Y012132D01*
X013928Y012132D01*
X013530Y011735D01*
X013412Y011686D01*
X013285Y011686D01*
X012794Y011686D01*
X012794Y011361D01*
X012994Y011561D01*
X013453Y011561D01*
X013779Y011236D01*
X013779Y011017D01*
X014250Y010545D01*
X014267Y010504D01*
X014267Y010504D01*
X014680Y010504D01*
X014972Y010212D01*
X014972Y009799D01*
X014680Y009507D01*
X014311Y009507D01*
X014311Y009504D01*
X014680Y009504D01*
X014972Y009212D01*
X014972Y008799D01*
X014680Y008507D01*
X014311Y008507D01*
X014311Y007975D01*
X014450Y008114D01*
X014747Y008114D01*
X014957Y007904D01*
X014957Y007608D01*
X014919Y007569D01*
X014919Y006888D01*
X015428Y006379D01*
X015680Y006379D01*
X015972Y006087D01*
X015972Y005674D01*
X015680Y005382D01*
X015267Y005382D01*
X014975Y005674D01*
X014975Y005927D01*
X014327Y006575D01*
X014311Y006614D01*
X014311Y003308D01*
X014495Y003125D01*
X014544Y003007D01*
X014544Y002880D01*
X014544Y002766D01*
X014722Y002587D01*
X014722Y002174D01*
X014430Y001882D01*
X014017Y001882D01*
X013725Y002174D01*
X013725Y002587D01*
X013904Y002766D01*
X013904Y002781D01*
X013756Y002781D01*
X013483Y002781D01*
X013413Y002710D01*
X013209Y002626D01*
X012988Y002626D01*
X012784Y002710D01*
X012628Y002866D01*
X012544Y003070D01*
X012544Y003260D01*
X011825Y002542D01*
X011785Y002525D01*
X011855Y002355D01*
X011855Y002157D01*
X011780Y001974D01*
X011639Y001833D01*
X011456Y001757D01*
X010741Y001757D01*
X010558Y001833D01*
X010455Y001936D01*
X010412Y001936D01*
X010285Y001936D01*
X010167Y001985D01*
X009855Y002297D01*
X009855Y002157D01*
X009780Y001974D01*
X009639Y001833D01*
X009456Y001757D01*
X008741Y001757D01*
X008669Y001788D01*
X008669Y001638D01*
X008731Y001576D01*
X009455Y001576D01*
X009558Y001678D01*
X009741Y001754D01*
X010456Y001754D01*
X010639Y001678D01*
X010780Y001538D01*
X010855Y001355D01*
X010855Y001157D01*
X010789Y000996D01*
X013904Y000996D01*
X013725Y001174D01*
X013725Y001587D01*
X014017Y001879D01*
X014430Y001879D01*
X014537Y001772D01*
X014975Y002210D01*
X014975Y002462D01*
X015267Y002754D01*
X015680Y002754D01*
X015972Y002462D01*
X015972Y002049D01*
X015680Y001757D01*
X015428Y001757D01*
X014780Y001110D01*
X014662Y001061D01*
X014608Y001061D01*
X014543Y000996D01*
X017420Y000996D01*
X017231Y001140D01*
X017231Y001140D01*
X017231Y001141D01*
X016875Y001604D01*
X016875Y001604D01*
X016748Y001911D01*
X016655Y001817D01*
X016474Y001817D01*
X016474Y002255D01*
X016473Y002255D01*
X016473Y001817D01*
X016292Y001817D01*
X016035Y002074D01*
X016035Y002256D01*
X016473Y002256D01*
X016473Y002256D01*
X016035Y002256D01*
X016035Y002437D01*
X016292Y002694D01*
X016473Y002694D01*
X016473Y002256D01*
X016474Y002256D01*
X016474Y002694D01*
X016579Y002694D01*
X016575Y002724D01*
X016651Y003304D01*
X016875Y003844D01*
X017142Y004192D01*
X017042Y004192D01*
X016785Y004449D01*
X016785Y004631D01*
X017223Y004631D01*
X017223Y004631D01*
X016785Y004631D01*
X016785Y004812D01*
X017042Y005069D01*
X017223Y005069D01*
X017223Y004631D01*
X017224Y004631D01*
X017224Y005069D01*
X017405Y005069D01*
X017662Y004812D01*
X017662Y004639D01*
X017695Y004664D01*
X017695Y004664D01*
X018235Y004888D01*
X018235Y004888D01*
X018815Y004964D01*
X018815Y004964D01*
X019395Y004888D01*
X019395Y004888D01*
X019559Y004820D01*
X019559Y005156D01*
X019651Y005249D01*
X019475Y005424D01*
X019475Y005837D01*
X019574Y005936D01*
X019574Y006326D01*
X019475Y006424D01*
X019475Y006567D01*
X019472Y006564D01*
X019472Y006424D01*
X019374Y006326D01*
X019374Y005936D01*
X019472Y005837D01*
X019472Y005424D01*
X019180Y005132D01*
X018767Y005132D01*
X018475Y005424D01*
X018475Y005837D01*
X018574Y005936D01*
X018574Y006326D01*
X018475Y006424D01*
X018475Y006680D01*
X018052Y006257D01*
X018222Y006087D01*
X018222Y005674D01*
X017930Y005382D01*
X017517Y005382D01*
X017225Y005674D01*
X017225Y006087D01*
X017404Y006266D01*
X017404Y006317D01*
X017404Y006445D01*
X017452Y006562D01*
X018475Y007585D01*
X018475Y007837D01*
X018654Y008016D01*
X018654Y009246D01*
X018600Y009299D01*
X018600Y009712D01*
X018892Y010004D01*
X019305Y010004D01*
X019350Y009959D01*
X019350Y010212D01*
X019642Y010504D01*
X020055Y010504D01*
X020114Y010446D01*
X020114Y012201D01*
X019869Y012201D01*
X019749Y012321D01*
X019749Y011922D01*
X019791Y011879D01*
X019805Y011879D01*
X020097Y011587D01*
X020097Y011174D01*
X019805Y010882D01*
X019392Y010882D01*
X019100Y011174D01*
X019100Y011439D01*
X019009Y011529D01*
X018949Y011676D01*
X018949Y014926D01*
X018949Y015085D01*
X019009Y015232D01*
X019544Y015767D01*
X019544Y015986D01*
X019869Y016311D01*
X020328Y016311D01*
X020544Y016096D01*
X020544Y017077D01*
X020399Y016889D01*
X020399Y016889D01*
X019935Y016533D01*
X019935Y016533D01*
X019395Y016309D01*
X019395Y016309D01*
X018815Y016232D01*
X018815Y016232D01*
X018235Y016309D01*
X018235Y016309D01*
X017831Y016476D01*
X017905Y016402D01*
X017995Y016312D01*
X018044Y016195D01*
X018044Y014445D01*
X018044Y014317D01*
X017995Y014200D01*
X017654Y013858D01*
X017654Y013526D01*
X017341Y013213D01*
X017594Y012961D01*
X017594Y012756D01*
X017099Y012756D01*
X017099Y012756D01*
X017594Y012756D01*
X017594Y012551D01*
X017304Y012261D01*
X017099Y012261D01*
X017099Y012755D01*
X017098Y012755D01*
X017098Y012261D01*
X016894Y012261D01*
X016604Y012551D01*
X016604Y012756D01*
X017098Y012756D01*
X017098Y012756D01*
X016604Y012756D01*
X016604Y012961D01*
X016856Y013213D01*
X016772Y013298D01*
X016622Y013148D01*
X016325Y013148D01*
X016260Y013213D01*
X016180Y013132D01*
X015794Y013132D01*
X015794Y013129D01*
X016180Y013129D01*
X016472Y012837D01*
X016472Y012424D01*
X016180Y012132D01*
X015794Y012132D01*
X015794Y011692D01*
X015832Y011654D01*
X015832Y011358D01*
X015794Y011319D01*
X015794Y010513D01*
X015803Y010504D01*
X016055Y010504D01*
X016347Y010212D01*
X016347Y009799D01*
X016055Y009507D01*
X015642Y009507D01*
X015350Y009799D01*
X015350Y010052D01*
X015292Y010110D01*
X014972Y010110D01*
X014972Y009951D02*
X015350Y009951D01*
X015357Y009793D02*
X014965Y009793D01*
X014807Y009634D02*
X015515Y009634D01*
X015642Y009504D02*
X015350Y009212D01*
X015350Y008799D01*
X015642Y008507D01*
X016055Y008507D01*
X016347Y008799D01*
X016347Y009212D01*
X016055Y009504D01*
X015642Y009504D01*
X015614Y009476D02*
X014709Y009476D01*
X014867Y009317D02*
X015455Y009317D01*
X015350Y009159D02*
X014972Y009159D01*
X014972Y009000D02*
X015350Y009000D01*
X015350Y008842D02*
X014972Y008842D01*
X014856Y008683D02*
X015467Y008683D01*
X015625Y008525D02*
X014697Y008525D01*
X014311Y008366D02*
X015254Y008366D01*
X015267Y008379D02*
X014975Y008087D01*
X014975Y007674D01*
X015267Y007382D01*
X015680Y007382D01*
X015972Y007674D01*
X015972Y008087D01*
X015680Y008379D01*
X015267Y008379D01*
X015095Y008207D02*
X014311Y008207D01*
X014311Y008049D02*
X014385Y008049D01*
X014599Y007756D02*
X014599Y006756D01*
X015474Y005881D01*
X015810Y005512D02*
X017387Y005512D01*
X017229Y005671D02*
X015968Y005671D01*
X015972Y005829D02*
X017225Y005829D01*
X017225Y005988D02*
X015972Y005988D01*
X015913Y006146D02*
X017284Y006146D01*
X017404Y006305D02*
X015754Y006305D01*
X015344Y006463D02*
X017411Y006463D01*
X017512Y006622D02*
X015185Y006622D01*
X015026Y006781D02*
X017671Y006781D01*
X017829Y006939D02*
X014919Y006939D01*
X014919Y007098D02*
X017988Y007098D01*
X018146Y007256D02*
X014919Y007256D01*
X014919Y007415D02*
X015235Y007415D01*
X015076Y007573D02*
X014922Y007573D01*
X014957Y007732D02*
X014975Y007732D01*
X014975Y007890D02*
X014957Y007890D01*
X014975Y008049D02*
X014812Y008049D01*
X015693Y008366D02*
X016574Y008366D01*
X016574Y008207D02*
X015852Y008207D01*
X015972Y008049D02*
X016575Y008049D01*
X016574Y008051D02*
X016634Y007904D01*
X016747Y007792D01*
X016997Y007542D01*
X017144Y007481D01*
X017303Y007481D01*
X017419Y007481D01*
X017517Y007382D01*
X017930Y007382D01*
X018222Y007674D01*
X018222Y008087D01*
X017930Y008379D01*
X017517Y008379D01*
X017419Y008281D01*
X017389Y008281D01*
X017374Y008297D01*
X017374Y008626D01*
X017392Y008607D01*
X017805Y008607D01*
X018097Y008899D01*
X018097Y009312D01*
X017903Y009506D01*
X018021Y009624D01*
X018097Y009807D01*
X018097Y010005D01*
X018021Y010188D01*
X017881Y010328D01*
X017698Y010404D01*
X017499Y010404D01*
X017316Y010328D01*
X017176Y010188D01*
X017100Y010005D01*
X017100Y009973D01*
X016634Y009507D01*
X016574Y009360D01*
X016574Y009201D01*
X016574Y008051D01*
X016648Y007890D02*
X015972Y007890D01*
X015972Y007732D02*
X016807Y007732D01*
X016966Y007573D02*
X015871Y007573D01*
X015712Y007415D02*
X017485Y007415D01*
X017962Y007415D02*
X018305Y007415D01*
X018463Y007573D02*
X018121Y007573D01*
X018222Y007732D02*
X018475Y007732D01*
X018528Y007890D02*
X018222Y007890D01*
X018222Y008049D02*
X018654Y008049D01*
X018654Y008207D02*
X018102Y008207D01*
X017943Y008366D02*
X018654Y008366D01*
X018654Y008525D02*
X017374Y008525D01*
X017374Y008366D02*
X017504Y008366D01*
X017881Y008683D02*
X018654Y008683D01*
X018654Y008842D02*
X018039Y008842D01*
X018097Y009000D02*
X018654Y009000D01*
X018654Y009159D02*
X018097Y009159D01*
X018092Y009317D02*
X018600Y009317D01*
X018600Y009476D02*
X017934Y009476D01*
X018026Y009634D02*
X018600Y009634D01*
X018681Y009793D02*
X018091Y009793D01*
X018097Y009951D02*
X018839Y009951D01*
X019099Y009506D02*
X018974Y009381D01*
X018974Y007631D01*
X017724Y006381D01*
X017724Y005881D01*
X018060Y005512D02*
X018475Y005512D01*
X018475Y005671D02*
X018218Y005671D01*
X018222Y005829D02*
X018475Y005829D01*
X018574Y005988D02*
X018222Y005988D01*
X018163Y006146D02*
X018574Y006146D01*
X018574Y006305D02*
X018100Y006305D01*
X018259Y006463D02*
X018475Y006463D01*
X018475Y006622D02*
X018417Y006622D01*
X019374Y006305D02*
X019574Y006305D01*
X019574Y006146D02*
X019374Y006146D01*
X019374Y005988D02*
X019574Y005988D01*
X019475Y005829D02*
X019472Y005829D01*
X019472Y005671D02*
X019475Y005671D01*
X019472Y005512D02*
X019475Y005512D01*
X019546Y005354D02*
X019401Y005354D01*
X019243Y005195D02*
X019597Y005195D01*
X019559Y005037D02*
X017438Y005037D01*
X017224Y005037D02*
X017223Y005037D01*
X017223Y004878D02*
X017224Y004878D01*
X017223Y004719D02*
X017224Y004719D01*
X017224Y004631D02*
X016474Y004631D01*
X016474Y009631D01*
X017099Y010256D01*
X017099Y011381D01*
X017599Y011381D01*
X018037Y011381D01*
X018037Y011562D01*
X017780Y011819D01*
X017599Y011819D01*
X017599Y011381D01*
X017599Y011381D01*
X018037Y011381D01*
X018037Y011199D01*
X017780Y010942D01*
X017599Y010942D01*
X017599Y011380D01*
X017598Y011380D01*
X017598Y010942D01*
X017417Y010942D01*
X017160Y011199D01*
X017160Y011381D01*
X017598Y011381D01*
X017598Y011381D01*
X017160Y011381D01*
X017160Y011562D01*
X017417Y011819D01*
X017598Y011819D01*
X017598Y011381D01*
X017599Y011381D01*
X017598Y011378D02*
X017599Y011378D01*
X017598Y011220D02*
X017599Y011220D01*
X017598Y011061D02*
X017599Y011061D01*
X017298Y011061D02*
X015794Y011061D01*
X015794Y010903D02*
X019372Y010903D01*
X019213Y011061D02*
X017899Y011061D01*
X018037Y011220D02*
X019100Y011220D01*
X019100Y011378D02*
X018037Y011378D01*
X018037Y011537D02*
X019006Y011537D01*
X018949Y011695D02*
X017904Y011695D01*
X017599Y011695D02*
X017598Y011695D01*
X017598Y011537D02*
X017599Y011537D01*
X017293Y011695D02*
X015794Y011695D01*
X015794Y011854D02*
X018949Y011854D01*
X018949Y012012D02*
X015794Y012012D01*
X016219Y012171D02*
X018949Y012171D01*
X018949Y012330D02*
X017372Y012330D01*
X017531Y012488D02*
X018949Y012488D01*
X018949Y012647D02*
X017594Y012647D01*
X017594Y012805D02*
X018949Y012805D01*
X018949Y012964D02*
X017591Y012964D01*
X017432Y013122D02*
X018949Y013122D01*
X018949Y013281D02*
X017408Y013281D01*
X017567Y013439D02*
X018949Y013439D01*
X018949Y013598D02*
X017654Y013598D01*
X017654Y013756D02*
X018949Y013756D01*
X018949Y013915D02*
X017710Y013915D01*
X017869Y014074D02*
X018949Y014074D01*
X018949Y014232D02*
X018008Y014232D01*
X018044Y014391D02*
X018949Y014391D01*
X018949Y014549D02*
X018044Y014549D01*
X018044Y014708D02*
X018949Y014708D01*
X018949Y014866D02*
X018044Y014866D01*
X018044Y015025D02*
X018949Y015025D01*
X018989Y015183D02*
X018044Y015183D01*
X018044Y015342D02*
X019119Y015342D01*
X019277Y015500D02*
X018044Y015500D01*
X018044Y015659D02*
X019436Y015659D01*
X019544Y015818D02*
X018044Y015818D01*
X018044Y015976D02*
X019544Y015976D01*
X019692Y016135D02*
X018044Y016135D01*
X018003Y016293D02*
X018354Y016293D01*
X017890Y016452D02*
X017855Y016452D01*
X017724Y016131D02*
X017724Y014381D01*
X017099Y013756D01*
X016789Y013281D02*
X016755Y013281D01*
X016765Y013122D02*
X016187Y013122D01*
X016346Y012964D02*
X016606Y012964D01*
X016604Y012805D02*
X016472Y012805D01*
X016472Y012647D02*
X016604Y012647D01*
X016666Y012488D02*
X016472Y012488D01*
X016377Y012330D02*
X016825Y012330D01*
X017098Y012330D02*
X017099Y012330D01*
X017098Y012488D02*
X017099Y012488D01*
X017098Y012647D02*
X017099Y012647D01*
X017099Y012756D02*
X017099Y011381D01*
X017160Y011378D02*
X015832Y011378D01*
X015832Y011537D02*
X017160Y011537D01*
X017160Y011220D02*
X015794Y011220D01*
X015474Y011506D02*
X015474Y010381D01*
X015849Y010006D01*
X016182Y009634D02*
X016761Y009634D01*
X016621Y009476D02*
X016084Y009476D01*
X016242Y009317D02*
X016574Y009317D01*
X016574Y009159D02*
X016347Y009159D01*
X016347Y009000D02*
X016574Y009000D01*
X016574Y008842D02*
X016347Y008842D01*
X016231Y008683D02*
X016574Y008683D01*
X016574Y008525D02*
X016072Y008525D01*
X016340Y009793D02*
X016920Y009793D01*
X017078Y009951D02*
X016347Y009951D01*
X016347Y010110D02*
X017144Y010110D01*
X017256Y010269D02*
X016291Y010269D01*
X016132Y010427D02*
X019565Y010427D01*
X019406Y010269D02*
X017941Y010269D01*
X018054Y010110D02*
X019350Y010110D01*
X020114Y010586D02*
X015794Y010586D01*
X015794Y010744D02*
X020114Y010744D01*
X020114Y010903D02*
X019825Y010903D01*
X019984Y011061D02*
X020114Y011061D01*
X020097Y011220D02*
X020114Y011220D01*
X020097Y011378D02*
X020114Y011378D01*
X020097Y011537D02*
X020114Y011537D01*
X020114Y011695D02*
X019989Y011695D01*
X020114Y011854D02*
X019830Y011854D01*
X019749Y012012D02*
X020114Y012012D01*
X020114Y012171D02*
X019749Y012171D01*
X017099Y014756D02*
X016474Y014131D01*
X016474Y013506D01*
X015974Y013631D02*
X015974Y014131D01*
X015974Y014631D01*
X016472Y014582D02*
X016472Y014837D01*
X016180Y015129D01*
X015794Y015129D01*
X015794Y015132D01*
X016180Y015132D01*
X016472Y015424D01*
X016472Y015837D01*
X016180Y016129D01*
X015767Y016129D01*
X015475Y015837D01*
X015475Y015835D01*
X015472Y015832D01*
X015472Y015837D01*
X015180Y016129D01*
X014767Y016129D01*
X014535Y015897D01*
X014530Y015902D01*
X014412Y015951D01*
X014358Y015951D01*
X014180Y016129D01*
X013767Y016129D01*
X013475Y015837D01*
X013475Y015424D01*
X013767Y015132D01*
X014154Y015132D01*
X014154Y015129D01*
X013767Y015129D01*
X013475Y014837D01*
X013475Y014424D01*
X013654Y014246D01*
X013654Y014016D01*
X013475Y013837D01*
X013475Y013424D01*
X013767Y013132D01*
X014180Y013132D01*
X014472Y013424D01*
X014472Y013773D01*
X014475Y013773D01*
X014475Y013424D01*
X014767Y013132D01*
X015154Y013132D01*
X015154Y013129D01*
X014767Y013129D01*
X014475Y012837D01*
X014475Y012424D01*
X014767Y012132D01*
X015154Y012132D01*
X015154Y011692D01*
X015115Y011654D01*
X015115Y011358D01*
X015154Y011319D01*
X015154Y010317D01*
X015202Y010200D01*
X015292Y010110D01*
X015292Y010110D01*
X015174Y010269D02*
X014916Y010269D01*
X014757Y010427D02*
X015154Y010427D01*
X015154Y010586D02*
X014210Y010586D01*
X014051Y010744D02*
X015154Y010744D01*
X015154Y010903D02*
X013892Y010903D01*
X013779Y011061D02*
X015154Y011061D01*
X015154Y011220D02*
X013779Y011220D01*
X013636Y011378D02*
X015115Y011378D01*
X015115Y011537D02*
X013477Y011537D01*
X013435Y011695D02*
X015154Y011695D01*
X015154Y011854D02*
X013649Y011854D01*
X013808Y012012D02*
X015154Y012012D01*
X014729Y012171D02*
X014219Y012171D01*
X014377Y012330D02*
X014570Y012330D01*
X014475Y012488D02*
X014472Y012488D01*
X014472Y012647D02*
X014475Y012647D01*
X014472Y012805D02*
X014475Y012805D01*
X014602Y012964D02*
X014346Y012964D01*
X014187Y013122D02*
X014760Y013122D01*
X014619Y013281D02*
X014328Y013281D01*
X014472Y013439D02*
X014475Y013439D01*
X014472Y013598D02*
X014475Y013598D01*
X014472Y013756D02*
X014475Y013756D01*
X014474Y014131D02*
X014474Y015506D01*
X014349Y015631D01*
X013974Y015631D01*
X014333Y015976D02*
X014614Y015976D01*
X015333Y015976D02*
X015614Y015976D01*
X015724Y015631D02*
X015474Y015381D01*
X015474Y011506D01*
X013974Y012631D02*
X013349Y012006D01*
X012474Y012006D01*
X012474Y009756D01*
X013224Y009006D01*
X011349Y007131D02*
X011349Y014506D01*
X011574Y014866D02*
X010273Y014866D01*
X010152Y015025D02*
X011574Y015025D01*
X011574Y015183D02*
X010311Y015183D01*
X010404Y015342D02*
X011574Y015342D01*
X011574Y015500D02*
X010404Y015500D01*
X010404Y015659D02*
X011574Y015659D01*
X011574Y015818D02*
X010322Y015818D01*
X010163Y015976D02*
X011574Y015976D01*
X011574Y016135D02*
X009624Y016135D01*
X009624Y016293D02*
X010316Y016293D01*
X010417Y016192D02*
X010598Y016192D01*
X010598Y016630D01*
X010599Y016630D01*
X010599Y016192D01*
X010780Y016192D01*
X011037Y016449D01*
X011037Y016631D01*
X011037Y016812D01*
X010780Y017069D01*
X010599Y017069D01*
X010599Y016631D01*
X011037Y016631D01*
X010599Y016631D01*
X010599Y016631D01*
X010598Y016631D01*
X010598Y016631D01*
X010160Y016631D01*
X010160Y016812D01*
X010417Y017069D01*
X010598Y017069D01*
X010598Y016631D01*
X010160Y016631D01*
X010160Y016449D01*
X010417Y016192D01*
X010598Y016293D02*
X010599Y016293D01*
X010598Y016452D02*
X010599Y016452D01*
X010598Y016610D02*
X010599Y016610D01*
X010599Y016631D02*
X010974Y016256D01*
X010974Y012506D01*
X009849Y012506D01*
X009849Y012505D02*
X009849Y012011D01*
X010026Y012011D01*
X009952Y011937D01*
X009904Y011820D01*
X009904Y011692D01*
X009904Y011471D01*
X009669Y011236D01*
X009669Y010776D01*
X009939Y010506D01*
X009669Y010236D01*
X009669Y009776D01*
X009939Y009506D01*
X009669Y009236D01*
X009669Y008776D01*
X009981Y008463D01*
X009919Y008401D01*
X009595Y008725D01*
X009102Y008725D01*
X009044Y008666D01*
X009044Y010442D01*
X009044Y010570D01*
X008995Y010687D01*
X008347Y011335D01*
X008347Y011543D01*
X008995Y011543D01*
X008997Y011542D01*
X009247Y011292D01*
X009394Y011231D01*
X009553Y011231D01*
X009700Y011292D01*
X009813Y011404D01*
X009874Y011551D01*
X009874Y011710D01*
X009813Y011857D01*
X009659Y012011D01*
X009848Y012011D01*
X009848Y012505D01*
X009849Y012505D01*
X009848Y012488D02*
X009849Y012488D01*
X009848Y012330D02*
X009849Y012330D01*
X009848Y012171D02*
X009849Y012171D01*
X009848Y012012D02*
X009849Y012012D01*
X009814Y011854D02*
X009918Y011854D01*
X009904Y011695D02*
X009874Y011695D01*
X009868Y011537D02*
X009904Y011537D01*
X009811Y011378D02*
X009787Y011378D01*
X009669Y011220D02*
X008462Y011220D01*
X008347Y011378D02*
X009160Y011378D01*
X009002Y011537D02*
X008347Y011537D01*
X008621Y011061D02*
X009669Y011061D01*
X009669Y010903D02*
X008779Y010903D01*
X008938Y010744D02*
X009700Y010744D01*
X009859Y010586D02*
X009037Y010586D01*
X009044Y010427D02*
X009860Y010427D01*
X009701Y010269D02*
X009044Y010269D01*
X009044Y010110D02*
X009669Y010110D01*
X009669Y009951D02*
X009044Y009951D01*
X009044Y009793D02*
X009669Y009793D01*
X009810Y009634D02*
X009044Y009634D01*
X009044Y009476D02*
X009909Y009476D01*
X009750Y009317D02*
X009044Y009317D01*
X009044Y009159D02*
X009669Y009159D01*
X009669Y009000D02*
X009044Y009000D01*
X009044Y008842D02*
X009669Y008842D01*
X009637Y008683D02*
X009762Y008683D01*
X009795Y008525D02*
X009920Y008525D01*
X010224Y008006D02*
X010974Y008006D01*
X010974Y012506D01*
X011029Y012488D02*
X010344Y012488D01*
X010344Y012647D02*
X011029Y012647D01*
X011029Y012805D02*
X010249Y012805D01*
X010091Y012964D02*
X011029Y012964D01*
X011029Y013122D02*
X010250Y013122D01*
X010404Y013281D02*
X011029Y013281D01*
X011029Y013439D02*
X010404Y013439D01*
X010404Y013598D02*
X011029Y013598D01*
X011029Y013756D02*
X010383Y013756D01*
X010224Y013915D02*
X011029Y013915D01*
X011029Y014074D02*
X010201Y014074D01*
X010360Y014232D02*
X011029Y014232D01*
X010990Y014391D02*
X010404Y014391D01*
X010404Y014549D02*
X010990Y014549D01*
X011044Y014708D02*
X010404Y014708D01*
X008824Y014708D02*
X008544Y014708D01*
X008544Y014866D02*
X008824Y014866D01*
X008824Y015025D02*
X008544Y015025D01*
X008544Y015183D02*
X008824Y015183D01*
X008824Y015342D02*
X008544Y015342D01*
X008600Y015500D02*
X008824Y015500D01*
X008824Y015659D02*
X008707Y015659D01*
X008707Y015818D02*
X008824Y015818D01*
X008824Y015976D02*
X008635Y015976D01*
X008824Y016135D02*
X007932Y016135D01*
X007805Y016007D02*
X008097Y016299D01*
X008097Y016712D01*
X007805Y017004D01*
X007392Y017004D01*
X007100Y016712D01*
X007100Y016299D01*
X007392Y016007D01*
X007805Y016007D01*
X007958Y015818D02*
X005972Y015818D01*
X005972Y015659D02*
X007904Y015659D01*
X007904Y015500D02*
X006057Y015500D01*
X006215Y015342D02*
X006928Y015342D01*
X006770Y015183D02*
X006335Y015183D01*
X006356Y015025D02*
X006740Y015025D01*
X006740Y014866D02*
X006356Y014866D01*
X006356Y014708D02*
X006779Y014708D01*
X006779Y014549D02*
X006356Y014549D01*
X006356Y014391D02*
X006779Y014391D01*
X006779Y014232D02*
X006356Y014232D01*
X006356Y014074D02*
X006779Y014074D01*
X007099Y015006D02*
X007099Y013006D01*
X006599Y012506D01*
X006161Y011943D02*
X006036Y012068D01*
X006036Y015068D01*
X005474Y015631D01*
X005833Y015976D02*
X008062Y015976D01*
X008091Y016293D02*
X008824Y016293D01*
X008824Y016452D02*
X008097Y016452D01*
X008097Y016610D02*
X008824Y016610D01*
X008824Y016769D02*
X008041Y016769D01*
X007882Y016927D02*
X008824Y016927D01*
X008824Y017086D02*
X005131Y017086D01*
X004973Y016927D02*
X007315Y016927D01*
X007157Y016769D02*
X004814Y016769D01*
X004655Y016610D02*
X007100Y016610D01*
X007100Y016452D02*
X004497Y016452D01*
X004338Y016293D02*
X007106Y016293D01*
X007265Y016135D02*
X004180Y016135D01*
X004267Y016129D02*
X003975Y015837D01*
X003975Y015424D01*
X004267Y015132D01*
X004680Y015132D01*
X004972Y015424D01*
X004972Y015837D01*
X004680Y016129D01*
X004267Y016129D01*
X004114Y015976D02*
X004009Y015976D01*
X003975Y015818D02*
X003551Y015818D01*
X003616Y015659D02*
X003975Y015659D01*
X003975Y015500D02*
X003619Y015500D01*
X003593Y015342D02*
X004058Y015342D01*
X004216Y015183D02*
X003528Y015183D01*
X003376Y015025D02*
X005627Y015025D01*
X005716Y014866D02*
X001794Y014866D01*
X001794Y014708D02*
X005716Y014708D01*
X005716Y014549D02*
X001794Y014549D01*
X001794Y014391D02*
X005716Y014391D01*
X005716Y014232D02*
X005075Y014232D01*
X005233Y014074D02*
X005716Y014074D01*
X005716Y013915D02*
X005392Y013915D01*
X005551Y013756D02*
X005716Y013756D01*
X005709Y013598D02*
X005716Y013598D01*
X004467Y013756D02*
X003588Y013756D01*
X003199Y012964D02*
X004227Y012964D01*
X004068Y012805D02*
X001794Y012805D01*
X001794Y012647D02*
X003975Y012647D01*
X003975Y012488D02*
X001794Y012488D01*
X001794Y012330D02*
X003975Y012330D01*
X004104Y012171D02*
X003228Y012171D01*
X003455Y012012D02*
X004262Y012012D01*
X004546Y011695D02*
X004928Y011695D01*
X004829Y011537D02*
X004754Y011537D01*
X004811Y011378D02*
X004829Y011378D01*
X004829Y011220D02*
X004811Y011220D01*
X004811Y011061D02*
X004933Y011061D01*
X004811Y010903D02*
X005091Y010903D01*
X004811Y010744D02*
X005482Y010744D01*
X005641Y010586D02*
X004811Y010586D01*
X003724Y010110D02*
X005911Y010110D01*
X005911Y009951D02*
X003724Y009951D01*
X003724Y009793D02*
X005911Y009793D01*
X005911Y009634D02*
X003724Y009634D01*
X003724Y009476D02*
X005911Y009476D01*
X005911Y009317D02*
X003724Y009317D01*
X003724Y009159D02*
X005911Y009159D01*
X005911Y009000D02*
X003724Y009000D01*
X003724Y008842D02*
X005911Y008842D01*
X005911Y008683D02*
X003724Y008683D01*
X003724Y008525D02*
X005911Y008525D01*
X005911Y008366D02*
X003724Y008366D01*
X003724Y008207D02*
X005911Y008207D01*
X005888Y008049D02*
X003724Y008049D01*
X003724Y007573D02*
X004586Y007573D01*
X004973Y006622D02*
X004974Y006622D01*
X004973Y006463D02*
X004974Y006463D01*
X004973Y006305D02*
X004974Y006305D01*
X004973Y006146D02*
X004974Y006146D01*
X004973Y005988D02*
X004974Y005988D01*
X004973Y005829D02*
X004974Y005829D01*
X004647Y004878D02*
X003671Y004878D01*
X004054Y004719D02*
X004732Y004719D01*
X004574Y004561D02*
X004322Y004561D01*
X004187Y004664D02*
X004187Y004664D01*
X003067Y004964D02*
X003067Y004964D01*
X002080Y004719D02*
X001339Y004719D01*
X001339Y004561D02*
X001812Y004561D01*
X001947Y004664D02*
X001947Y004664D01*
X001606Y004402D02*
X001339Y004402D01*
X001339Y004244D02*
X001434Y004244D01*
X001483Y004308D02*
X001483Y004308D01*
X001483Y004308D01*
X003497Y007256D02*
X003521Y007256D01*
X006220Y007415D02*
X007404Y007415D01*
X007066Y007573D02*
X006231Y007573D01*
X006498Y007732D02*
X006574Y007732D01*
X006574Y007890D02*
X006498Y007890D01*
X006498Y008049D02*
X006574Y008049D01*
X006893Y007732D02*
X006907Y007732D01*
X006872Y006939D02*
X006490Y006939D01*
X006649Y006781D02*
X006713Y006781D01*
X006224Y006781D02*
X006223Y006781D01*
X006223Y006939D02*
X006224Y006939D01*
X006223Y006622D02*
X006224Y006622D01*
X006223Y006463D02*
X006224Y006463D01*
X006223Y006305D02*
X006224Y006305D01*
X006223Y006146D02*
X006224Y006146D01*
X006564Y006146D02*
X006798Y006146D01*
X007224Y006506D02*
X007224Y005756D01*
X006724Y005256D01*
X006724Y003131D01*
X006599Y003006D01*
X008224Y003506D02*
X008224Y005381D01*
X008724Y005131D02*
X009974Y003881D01*
X009974Y002631D01*
X010349Y002256D01*
X011099Y002256D01*
X011672Y001866D02*
X011754Y001866D01*
X011801Y002024D02*
X013875Y002024D01*
X014004Y001866D02*
X013444Y001866D01*
X013305Y002004D02*
X013597Y001712D01*
X013597Y001299D01*
X013305Y001007D01*
X012892Y001007D01*
X012600Y001299D01*
X012600Y001712D01*
X012892Y002004D01*
X013305Y002004D01*
X013597Y001707D02*
X013845Y001707D01*
X013725Y001549D02*
X013597Y001549D01*
X013597Y001390D02*
X013725Y001390D01*
X013725Y001232D02*
X013529Y001232D01*
X013371Y001073D02*
X013827Y001073D01*
X014224Y001381D02*
X014599Y001381D01*
X015474Y002256D01*
X015788Y001866D02*
X016244Y001866D01*
X016085Y002024D02*
X015947Y002024D01*
X015972Y002183D02*
X016035Y002183D01*
X016035Y002341D02*
X015972Y002341D01*
X015934Y002500D02*
X016098Y002500D01*
X016256Y002658D02*
X015776Y002658D01*
X015171Y002658D02*
X014651Y002658D01*
X014722Y002500D02*
X015013Y002500D01*
X014975Y002341D02*
X014722Y002341D01*
X014722Y002183D02*
X014948Y002183D01*
X014789Y002024D02*
X014572Y002024D01*
X014631Y001866D02*
X014444Y001866D01*
X014224Y002381D02*
X014224Y002943D01*
X013911Y003256D01*
X014327Y003293D02*
X016650Y003293D01*
X016629Y003134D02*
X014485Y003134D01*
X014544Y002976D02*
X016608Y002976D01*
X016587Y002817D02*
X014544Y002817D01*
X014311Y003451D02*
X016712Y003451D01*
X016778Y003610D02*
X014311Y003610D01*
X014311Y003768D02*
X016844Y003768D01*
X016938Y003927D02*
X014311Y003927D01*
X014311Y004085D02*
X017060Y004085D01*
X016991Y004244D02*
X015541Y004244D01*
X015430Y004132D02*
X015722Y004424D01*
X015722Y004837D01*
X015430Y005129D01*
X015017Y005129D01*
X014725Y004837D01*
X014725Y004424D01*
X015017Y004132D01*
X015430Y004132D01*
X015700Y004402D02*
X016832Y004402D01*
X016785Y004561D02*
X015722Y004561D01*
X015722Y004719D02*
X016785Y004719D01*
X016851Y004878D02*
X015681Y004878D01*
X015523Y005037D02*
X017009Y005037D01*
X016474Y004631D02*
X016474Y002256D01*
X016473Y002183D02*
X016474Y002183D01*
X016473Y002341D02*
X016474Y002341D01*
X016473Y002500D02*
X016474Y002500D01*
X016473Y002658D02*
X016474Y002658D01*
X016473Y002024D02*
X016474Y002024D01*
X016473Y001866D02*
X016474Y001866D01*
X016703Y001866D02*
X016767Y001866D01*
X016833Y001707D02*
X015377Y001707D01*
X015219Y001549D02*
X016918Y001549D01*
X017040Y001390D02*
X015060Y001390D01*
X014902Y001232D02*
X017161Y001232D01*
X017319Y001073D02*
X014691Y001073D01*
X013725Y002183D02*
X011855Y002183D01*
X011855Y002341D02*
X013725Y002341D01*
X013725Y002500D02*
X011795Y002500D01*
X011942Y002658D02*
X012910Y002658D01*
X012678Y002817D02*
X012100Y002817D01*
X012259Y002976D02*
X012583Y002976D01*
X012544Y003134D02*
X012417Y003134D01*
X012874Y003688D02*
X012874Y004106D01*
X012894Y004086D01*
X013098Y004086D01*
X013098Y004580D01*
X013099Y004580D01*
X013099Y004086D01*
X013304Y004086D01*
X013511Y004293D01*
X013511Y003581D01*
X013483Y003581D01*
X013413Y003651D01*
X013209Y003736D01*
X012988Y003736D01*
X012874Y003688D01*
X012874Y003768D02*
X013511Y003768D01*
X013511Y003610D02*
X013455Y003610D01*
X013511Y003927D02*
X012874Y003927D01*
X012874Y004085D02*
X013511Y004085D01*
X013511Y004244D02*
X013461Y004244D01*
X013099Y004244D02*
X013098Y004244D01*
X013098Y004402D02*
X013099Y004402D01*
X013098Y004561D02*
X013099Y004561D01*
X013098Y004581D02*
X013098Y005076D01*
X012894Y005076D01*
X012874Y005056D01*
X012874Y006176D01*
X012874Y006257D01*
X013180Y006257D01*
X013278Y006356D01*
X013511Y006356D01*
X013511Y004868D01*
X013304Y005076D01*
X013099Y005076D01*
X013099Y004581D01*
X013098Y004581D01*
X013098Y004719D02*
X013099Y004719D01*
X013098Y004878D02*
X013099Y004878D01*
X013098Y005037D02*
X013099Y005037D01*
X013343Y005037D02*
X013511Y005037D01*
X013511Y005195D02*
X012874Y005195D01*
X012874Y005354D02*
X013511Y005354D01*
X013511Y005512D02*
X012874Y005512D01*
X012874Y005671D02*
X013511Y005671D01*
X013511Y005829D02*
X012874Y005829D01*
X012874Y005988D02*
X013511Y005988D01*
X013511Y006146D02*
X012874Y006146D01*
X013227Y006305D02*
X013511Y006305D01*
X014311Y006305D02*
X014597Y006305D01*
X014438Y006463D02*
X014311Y006463D01*
X014311Y006146D02*
X014756Y006146D01*
X014914Y005988D02*
X014311Y005988D01*
X014311Y005829D02*
X014975Y005829D01*
X014979Y005671D02*
X014311Y005671D01*
X014311Y005512D02*
X015137Y005512D01*
X014924Y005037D02*
X014311Y005037D01*
X014311Y005195D02*
X018704Y005195D01*
X018546Y005354D02*
X014311Y005354D01*
X014311Y004878D02*
X014766Y004878D01*
X014725Y004719D02*
X014311Y004719D01*
X014311Y004561D02*
X014725Y004561D01*
X014747Y004402D02*
X014311Y004402D01*
X014311Y004244D02*
X014906Y004244D01*
X013511Y004878D02*
X013501Y004878D01*
X012074Y004878D02*
X011669Y004878D01*
X011669Y004719D02*
X012074Y004719D01*
X012074Y004561D02*
X011707Y004561D01*
X011707Y004402D02*
X012074Y004402D01*
X012074Y004244D02*
X011593Y004244D01*
X011349Y004506D02*
X011349Y006381D01*
X011474Y006506D01*
X011474Y007006D01*
X011349Y007131D01*
X011029Y007256D02*
X009044Y007256D01*
X009044Y007098D02*
X010695Y007098D01*
X010537Y006939D02*
X009575Y006939D01*
X009734Y006781D02*
X010535Y006781D01*
X010535Y006622D02*
X009779Y006622D01*
X009779Y006463D02*
X010646Y006463D01*
X010973Y006463D02*
X010974Y006463D01*
X010973Y006622D02*
X010974Y006622D01*
X010974Y006756D02*
X010974Y005881D01*
X010599Y005506D01*
X010598Y005512D02*
X010599Y005512D01*
X010598Y005354D02*
X010599Y005354D01*
X010598Y005195D02*
X010599Y005195D01*
X010289Y005195D02*
X009112Y005195D01*
X009044Y005354D02*
X010160Y005354D01*
X010160Y005512D02*
X009044Y005512D01*
X009044Y005671D02*
X010160Y005671D01*
X010302Y005829D02*
X009044Y005829D01*
X009490Y005988D02*
X011029Y005988D01*
X011029Y006146D02*
X009649Y006146D01*
X009779Y006305D02*
X011029Y006305D01*
X010974Y006756D02*
X010974Y008006D01*
X011029Y008049D02*
X010719Y008049D01*
X010719Y008207D02*
X011029Y008207D01*
X011029Y008366D02*
X010563Y008366D01*
X010527Y008525D02*
X011029Y008525D01*
X011029Y008683D02*
X010686Y008683D01*
X010779Y008842D02*
X011029Y008842D01*
X011029Y009000D02*
X010779Y009000D01*
X010779Y009159D02*
X011029Y009159D01*
X011029Y009317D02*
X010697Y009317D01*
X010539Y009476D02*
X011029Y009476D01*
X011029Y009634D02*
X010637Y009634D01*
X010779Y009793D02*
X011029Y009793D01*
X011029Y009951D02*
X010779Y009951D01*
X010779Y010110D02*
X011029Y010110D01*
X011029Y010269D02*
X010746Y010269D01*
X010587Y010427D02*
X011029Y010427D01*
X011029Y010586D02*
X010588Y010586D01*
X010747Y010744D02*
X011029Y010744D01*
X011029Y010903D02*
X010779Y010903D01*
X010779Y011061D02*
X011029Y011061D01*
X011029Y011220D02*
X010779Y011220D01*
X010636Y011378D02*
X011029Y011378D01*
X011029Y011537D02*
X010544Y011537D01*
X010616Y011695D02*
X011029Y011695D01*
X011029Y011854D02*
X010828Y011854D01*
X010894Y012012D02*
X011029Y012012D01*
X011029Y012171D02*
X010894Y012171D01*
X010781Y012330D02*
X011029Y012330D01*
X010536Y012068D02*
X010224Y011756D01*
X010224Y011006D01*
X008997Y011542D02*
X008997Y011542D01*
X008724Y010506D02*
X007849Y011381D01*
X008724Y010506D02*
X008724Y005131D01*
X009270Y005037D02*
X011029Y005037D01*
X011029Y005195D02*
X010908Y005195D01*
X011029Y004878D02*
X009429Y004878D01*
X009588Y004719D02*
X011029Y004719D01*
X010990Y004561D02*
X009746Y004561D01*
X009905Y004402D02*
X010990Y004402D01*
X011104Y004244D02*
X010063Y004244D01*
X010222Y004085D02*
X012074Y004085D01*
X012074Y003927D02*
X010883Y003927D01*
X011041Y003768D02*
X011920Y003768D01*
X011762Y003610D02*
X011097Y003610D01*
X011097Y003451D02*
X011603Y003451D01*
X011445Y003293D02*
X011090Y003293D01*
X010932Y003134D02*
X011286Y003134D01*
X011205Y002976D02*
X010294Y002976D01*
X010294Y002817D02*
X011199Y002817D01*
X010538Y002658D02*
X010399Y002658D01*
X009969Y002183D02*
X009855Y002183D01*
X009801Y002024D02*
X010128Y002024D01*
X010525Y001866D02*
X009672Y001866D01*
X009627Y001707D02*
X008669Y001707D01*
X008349Y001506D02*
X008349Y002756D01*
X008724Y003131D01*
X008724Y004131D01*
X010294Y003927D02*
X010315Y003927D01*
X011669Y005037D02*
X012074Y005037D01*
X012074Y005195D02*
X011669Y005195D01*
X011669Y005354D02*
X012074Y005354D01*
X012074Y005512D02*
X011669Y005512D01*
X011669Y005671D02*
X012074Y005671D01*
X012074Y005829D02*
X011669Y005829D01*
X011669Y005988D02*
X012074Y005988D01*
X012017Y006146D02*
X011669Y006146D01*
X011725Y006305D02*
X011859Y006305D01*
X011029Y005829D02*
X010895Y005829D01*
X010599Y005829D02*
X010598Y005829D01*
X010598Y005671D02*
X010599Y005671D01*
X010973Y006781D02*
X010974Y006781D01*
X010973Y006939D02*
X010974Y006939D01*
X010973Y007098D02*
X010974Y007098D01*
X011029Y007415D02*
X009044Y007415D01*
X009044Y007573D02*
X009066Y007573D01*
X009631Y007573D02*
X009956Y007573D01*
X009798Y007732D02*
X009790Y007732D01*
X010223Y007732D02*
X010224Y007732D01*
X010223Y007890D02*
X010224Y007890D01*
X010223Y007573D02*
X010224Y007573D01*
X010491Y007573D02*
X011029Y007573D01*
X011029Y007732D02*
X010649Y007732D01*
X010719Y007890D02*
X011029Y007890D01*
X009060Y008683D02*
X009044Y008683D01*
X008349Y009756D02*
X008349Y009756D01*
X008349Y006631D01*
X008224Y006506D01*
X008349Y009756D02*
X006161Y011943D01*
X006161Y011943D01*
X007599Y013506D02*
X008224Y014131D01*
X008224Y015631D01*
X008349Y015756D01*
X007904Y015342D02*
X007269Y015342D01*
X007428Y015183D02*
X007904Y015183D01*
X007904Y015025D02*
X007457Y015025D01*
X008544Y014549D02*
X008824Y014549D01*
X008824Y014391D02*
X008544Y014391D01*
X008544Y014232D02*
X008824Y014232D01*
X008824Y014074D02*
X008544Y014074D01*
X009624Y016452D02*
X010160Y016452D01*
X010160Y016610D02*
X009624Y016610D01*
X009624Y016769D02*
X010160Y016769D01*
X010275Y016927D02*
X009624Y016927D01*
X009624Y017086D02*
X011626Y017086D01*
X011574Y016927D02*
X010922Y016927D01*
X011037Y016769D02*
X011574Y016769D01*
X011574Y016610D02*
X011037Y016610D01*
X011037Y016452D02*
X011574Y016452D01*
X011574Y016293D02*
X010881Y016293D01*
X010598Y016769D02*
X010599Y016769D01*
X010598Y016927D02*
X010599Y016927D01*
X009864Y017403D02*
X011930Y017403D01*
X012089Y017561D02*
X009874Y017561D01*
X009818Y017720D02*
X012247Y017720D01*
X012272Y018216D02*
X011825Y018216D01*
X011509Y018532D01*
X011509Y018980D01*
X011825Y019296D01*
X012272Y019296D01*
X012589Y018980D01*
X012589Y018532D01*
X012272Y018216D01*
X012411Y018354D02*
X012850Y018354D01*
X012850Y018196D02*
X005544Y018196D01*
X005544Y018354D02*
X005787Y018354D01*
X005925Y018216D02*
X005609Y018532D01*
X005609Y018980D01*
X005925Y019296D01*
X006372Y019296D01*
X006689Y018980D01*
X006689Y018532D01*
X006372Y018216D01*
X005925Y018216D01*
X005544Y018037D02*
X012862Y018037D01*
X013021Y017879D02*
X009619Y017879D01*
X009328Y017879D02*
X005544Y017879D01*
X005544Y017720D02*
X009122Y017720D01*
X008964Y017561D02*
X005541Y017561D01*
X005448Y017403D02*
X008852Y017403D01*
X008824Y017244D02*
X005290Y017244D01*
X005114Y015976D02*
X004833Y015976D01*
X004972Y015818D02*
X004975Y015818D01*
X004972Y015659D02*
X004975Y015659D01*
X004972Y015500D02*
X004975Y015500D01*
X005058Y015342D02*
X004889Y015342D01*
X004731Y015183D02*
X005216Y015183D01*
X004443Y014232D02*
X001794Y014232D01*
X001794Y014074D02*
X001833Y014074D01*
X001794Y015025D02*
X001821Y015025D01*
X001794Y012964D02*
X001998Y012964D01*
X001969Y012171D02*
X001794Y012171D01*
X003378Y010110D02*
X003404Y010110D01*
X009778Y017244D02*
X011771Y017244D01*
X011687Y018354D02*
X006511Y018354D01*
X006669Y018513D02*
X011528Y018513D01*
X011509Y018671D02*
X006689Y018671D01*
X006689Y018830D02*
X011509Y018830D01*
X011517Y018988D02*
X006680Y018988D01*
X006521Y019147D02*
X011676Y019147D01*
X012421Y019147D02*
X012850Y019147D01*
X012850Y019305D02*
X005851Y019305D01*
X005776Y019147D02*
X005692Y019147D01*
X005617Y018988D02*
X005544Y018988D01*
X005544Y018830D02*
X005609Y018830D01*
X005609Y018671D02*
X005544Y018671D01*
X005544Y018513D02*
X005628Y018513D01*
X006009Y019464D02*
X012852Y019464D01*
X013010Y019623D02*
X006168Y019623D01*
X012374Y016135D02*
X012390Y016135D01*
X012374Y015976D02*
X012534Y015976D01*
X012374Y015818D02*
X012375Y015818D01*
X012807Y016135D02*
X016692Y016135D01*
X016544Y015986D02*
X016869Y016311D01*
X017091Y016311D01*
X016144Y017257D01*
X015767Y017257D01*
X015475Y017549D01*
X015475Y017962D01*
X015767Y018254D01*
X016180Y018254D01*
X016472Y017962D01*
X016472Y017835D01*
X016819Y017488D01*
X016651Y017893D01*
X016651Y017893D01*
X016575Y018472D01*
X016575Y018472D01*
X016651Y019052D01*
X016651Y019052D01*
X016875Y019592D01*
X016875Y019592D01*
X017231Y020056D01*
X017231Y020056D01*
X017231Y020056D01*
X017142Y019940D02*
X016472Y019940D01*
X016472Y019781D02*
X017020Y019781D01*
X016898Y019623D02*
X016472Y019623D01*
X016387Y019464D02*
X016822Y019464D01*
X016756Y019305D02*
X016228Y019305D01*
X016691Y019147D02*
X015097Y019147D01*
X015097Y019305D02*
X015719Y019305D01*
X015561Y019464D02*
X015095Y019464D01*
X014937Y019623D02*
X015475Y019623D01*
X015036Y018988D02*
X016643Y018988D01*
X016622Y018830D02*
X014877Y018830D01*
X014888Y018671D02*
X016601Y018671D01*
X016580Y018513D02*
X015047Y018513D01*
X015097Y018354D02*
X016591Y018354D01*
X016612Y018196D02*
X016239Y018196D01*
X016397Y018037D02*
X016632Y018037D01*
X016657Y017879D02*
X016472Y017879D01*
X016587Y017720D02*
X016723Y017720D01*
X016746Y017561D02*
X016789Y017561D01*
X016316Y017086D02*
X013869Y017086D01*
X014028Y017244D02*
X016157Y017244D01*
X016475Y016927D02*
X013007Y016927D01*
X013097Y016769D02*
X016633Y016769D01*
X016792Y016610D02*
X013097Y016610D01*
X013097Y016452D02*
X016950Y016452D01*
X016851Y016293D02*
X012966Y016293D01*
X013163Y015976D02*
X013614Y015976D01*
X013475Y015818D02*
X013322Y015818D01*
X013404Y015659D02*
X013475Y015659D01*
X013475Y015500D02*
X013404Y015500D01*
X013404Y015342D02*
X013558Y015342D01*
X013716Y015183D02*
X013311Y015183D01*
X013152Y015025D02*
X013663Y015025D01*
X013504Y014866D02*
X013273Y014866D01*
X013404Y014708D02*
X013475Y014708D01*
X013475Y014549D02*
X013404Y014549D01*
X013404Y014391D02*
X013509Y014391D01*
X013654Y014232D02*
X013360Y014232D01*
X013201Y014074D02*
X013654Y014074D01*
X013553Y013915D02*
X013224Y013915D01*
X013383Y013756D02*
X013475Y013756D01*
X013475Y013598D02*
X013404Y013598D01*
X013404Y013439D02*
X013475Y013439D01*
X013404Y013281D02*
X013619Y013281D01*
X013760Y013122D02*
X013250Y013122D01*
X013176Y012964D02*
X013602Y012964D01*
X013475Y012805D02*
X013334Y012805D01*
X013404Y012647D02*
X013475Y012647D01*
X013974Y013631D02*
X013974Y014631D01*
X014974Y014631D02*
X014974Y013631D01*
X016284Y015025D02*
X016583Y015025D01*
X016544Y014986D02*
X016544Y014653D01*
X016472Y014582D01*
X016472Y014708D02*
X016544Y014708D01*
X016544Y014866D02*
X016443Y014866D01*
X016544Y014986D02*
X016779Y015221D01*
X016779Y015291D01*
X016544Y015526D01*
X016544Y015986D01*
X016544Y015976D02*
X016333Y015976D01*
X016472Y015818D02*
X016544Y015818D01*
X016544Y015659D02*
X016472Y015659D01*
X016472Y015500D02*
X016569Y015500D01*
X016728Y015342D02*
X016389Y015342D01*
X016231Y015183D02*
X016741Y015183D01*
X017099Y014756D02*
X017099Y015756D01*
X017724Y016131D02*
X016099Y017756D01*
X015974Y017756D01*
X015622Y017403D02*
X014186Y017403D01*
X014326Y017561D02*
X015475Y017561D01*
X015475Y017720D02*
X014374Y017720D01*
X014926Y017879D02*
X015475Y017879D01*
X015550Y018037D02*
X015085Y018037D01*
X015097Y018196D02*
X015709Y018196D01*
X015724Y015631D02*
X015974Y015631D01*
X013059Y018671D02*
X012589Y018671D01*
X012589Y018830D02*
X013070Y018830D01*
X012911Y018988D02*
X012580Y018988D01*
X012569Y018513D02*
X012901Y018513D01*
X019276Y016293D02*
X019851Y016293D01*
X019740Y016452D02*
X020544Y016452D01*
X020544Y016610D02*
X020036Y016610D01*
X020243Y016769D02*
X020544Y016769D01*
X020544Y016927D02*
X020429Y016927D01*
X020346Y016293D02*
X020544Y016293D01*
X020544Y016135D02*
X020505Y016135D01*
X012970Y011537D02*
X012794Y011537D01*
X012794Y011378D02*
X012811Y011378D01*
X017596Y004878D02*
X018211Y004878D01*
X017828Y004719D02*
X017662Y004719D01*
X019419Y004878D02*
X019559Y004878D01*
X019472Y006463D02*
X019475Y006463D01*
X013796Y002658D02*
X013287Y002658D01*
X012754Y001866D02*
X012444Y001866D01*
X012305Y002004D02*
X011892Y002004D01*
X011600Y001712D01*
X011600Y001299D01*
X011892Y001007D01*
X012305Y001007D01*
X012597Y001299D01*
X012597Y001712D01*
X012305Y002004D01*
X012597Y001707D02*
X012600Y001707D01*
X012597Y001549D02*
X012600Y001549D01*
X012597Y001390D02*
X012600Y001390D01*
X012668Y001232D02*
X012529Y001232D01*
X012371Y001073D02*
X012827Y001073D01*
X011827Y001073D02*
X010821Y001073D01*
X010855Y001232D02*
X011668Y001232D01*
X011600Y001390D02*
X010841Y001390D01*
X010769Y001549D02*
X011600Y001549D01*
X011600Y001707D02*
X010570Y001707D01*
X010099Y001256D02*
X008599Y001256D01*
X008349Y001506D01*
D22*
X008724Y004131D03*
X007724Y004506D03*
X011349Y004506D03*
X011599Y002881D03*
X014599Y007756D03*
X015474Y011506D03*
X016474Y013506D03*
X015974Y014131D03*
X014474Y014131D03*
X012474Y012006D03*
X010536Y012068D03*
X009474Y011631D03*
X007224Y011756D03*
X004724Y014006D03*
X007099Y015006D03*
X008349Y015756D03*
X009474Y017506D03*
X011349Y014506D03*
X004411Y011318D03*
D23*
X004411Y009631D01*
X004661Y009381D01*
X005349Y009381D01*
X004536Y008568D01*
X004536Y008131D01*
X006224Y007818D02*
X006224Y006506D01*
X006224Y007818D02*
X006536Y008131D01*
X007286Y008381D02*
X006536Y009131D01*
X006536Y010256D01*
X005411Y011381D01*
X005349Y011381D01*
X007224Y011756D02*
X007411Y011943D01*
X009161Y011943D01*
X009224Y011881D01*
X009224Y017256D01*
X009474Y017506D01*
X011974Y016881D02*
X012474Y017381D01*
X013599Y017381D01*
X013974Y017756D01*
X013974Y018756D01*
X014474Y019256D01*
X014599Y019256D01*
X011974Y016881D02*
X011974Y012506D01*
X011974Y008006D01*
X013224Y008006D01*
X011974Y008006D02*
X011974Y006756D01*
X012474Y006256D01*
X012474Y003756D01*
X011599Y002881D01*
X013099Y003181D02*
X013836Y003181D01*
X013911Y003256D01*
X013911Y006756D01*
X013911Y010318D01*
X013224Y011006D01*
X012849Y012506D02*
X011974Y012506D01*
X009474Y011631D02*
X009224Y011881D01*
X007286Y008381D02*
X007349Y008318D01*
X007349Y008131D01*
X012974Y006756D02*
X013911Y006756D01*
X016974Y008131D02*
X016974Y009281D01*
X017599Y009906D01*
X016974Y008131D02*
X017224Y007881D01*
X017724Y007881D01*
X018974Y006631D02*
X018974Y005631D01*
X019974Y005631D02*
X019974Y006631D01*
X020224Y006631D01*
X019474Y007131D02*
X018974Y006631D01*
X019474Y008006D02*
X019849Y008381D01*
X019849Y009006D01*
X019599Y011381D02*
X019599Y011506D01*
X019349Y011756D01*
X019349Y015006D01*
X020099Y015756D01*
D24*
X020099Y012756D02*
X020474Y012381D01*
X020474Y010006D01*
X019849Y010006D01*
X020474Y010006D02*
X020474Y006881D01*
X020224Y006631D01*
X019474Y007131D02*
X019474Y008006D01*
M02*
