<?xml version="1.0" encoding="utf-8"?>
<!DOCTYPE eagle SYSTEM "eagle.dtd">
<eagle version="6.5.0">
<drawing>
<settings>
<setting alwaysvectorfont="no"/>
<setting verticaltext="up"/>
</settings>
<grid distance="0.1" unitdist="inch" unit="inch" style="lines" multiple="1" display="no" altdistance="0.01" altunitdist="inch" altunit="inch"/>
<layers>
<layer number="1" name="Top" color="4" fill="1" visible="no" active="no"/>
<layer number="16" name="Bottom" color="1" fill="1" visible="no" active="no"/>
<layer number="17" name="Pads" color="2" fill="1" visible="no" active="no"/>
<layer number="18" name="Vias" color="2" fill="1" visible="no" active="no"/>
<layer number="19" name="Unrouted" color="6" fill="1" visible="no" active="no"/>
<layer number="20" name="Dimension" color="15" fill="1" visible="no" active="no"/>
<layer number="21" name="tPlace" color="7" fill="1" visible="no" active="no"/>
<layer number="22" name="bPlace" color="7" fill="1" visible="no" active="no"/>
<layer number="23" name="tOrigins" color="15" fill="1" visible="no" active="no"/>
<layer number="24" name="bOrigins" color="15" fill="1" visible="no" active="no"/>
<layer number="25" name="tNames" color="7" fill="1" visible="no" active="no"/>
<layer number="26" name="bNames" color="7" fill="1" visible="no" active="no"/>
<layer number="27" name="tValues" color="7" fill="1" visible="no" active="no"/>
<layer number="28" name="bValues" color="7" fill="1" visible="no" active="no"/>
<layer number="29" name="tStop" color="7" fill="3" visible="no" active="no"/>
<layer number="30" name="bStop" color="7" fill="6" visible="no" active="no"/>
<layer number="31" name="tCream" color="7" fill="4" visible="no" active="no"/>
<layer number="32" name="bCream" color="7" fill="5" visible="no" active="no"/>
<layer number="33" name="tFinish" color="6" fill="3" visible="no" active="no"/>
<layer number="34" name="bFinish" color="6" fill="6" visible="no" active="no"/>
<layer number="35" name="tGlue" color="7" fill="4" visible="no" active="no"/>
<layer number="36" name="bGlue" color="7" fill="5" visible="no" active="no"/>
<layer number="37" name="tTest" color="7" fill="1" visible="no" active="no"/>
<layer number="38" name="bTest" color="7" fill="1" visible="no" active="no"/>
<layer number="39" name="tKeepout" color="4" fill="11" visible="no" active="no"/>
<layer number="40" name="bKeepout" color="1" fill="11" visible="no" active="no"/>
<layer number="41" name="tRestrict" color="4" fill="10" visible="no" active="no"/>
<layer number="42" name="bRestrict" color="1" fill="10" visible="no" active="no"/>
<layer number="43" name="vRestrict" color="2" fill="10" visible="no" active="no"/>
<layer number="44" name="Drills" color="7" fill="1" visible="no" active="no"/>
<layer number="45" name="Holes" color="7" fill="1" visible="no" active="no"/>
<layer number="46" name="Milling" color="3" fill="1" visible="no" active="no"/>
<layer number="47" name="Measures" color="7" fill="1" visible="no" active="no"/>
<layer number="48" name="Document" color="7" fill="1" visible="no" active="no"/>
<layer number="49" name="Reference" color="7" fill="1" visible="no" active="no"/>
<layer number="51" name="tDocu" color="7" fill="1" visible="no" active="no"/>
<layer number="52" name="bDocu" color="7" fill="1" visible="no" active="no"/>
<layer number="91" name="Nets" color="2" fill="1" visible="yes" active="yes"/>
<layer number="92" name="Busses" color="1" fill="1" visible="yes" active="yes"/>
<layer number="93" name="Pins" color="2" fill="1" visible="no" active="yes"/>
<layer number="94" name="Symbols" color="4" fill="1" visible="yes" active="yes"/>
<layer number="95" name="Names" color="7" fill="1" visible="yes" active="yes"/>
<layer number="96" name="Values" color="7" fill="1" visible="yes" active="yes"/>
<layer number="97" name="Info" color="7" fill="1" visible="yes" active="yes"/>
<layer number="98" name="Guide" color="6" fill="1" visible="yes" active="yes"/>
</layers>
<schematic xreflabel="%F%N/%S.%C%R" xrefpart="/%S.%C%R">
<libraries>
<library name="docu-dummy">
<description>Dummy symbols</description>
<packages>
</packages>
<symbols>
<symbol name="POTI">
<wire x1="-0.762" y1="-3.81" x2="0" y2="-3.81" width="0.254" layer="94"/>
<wire x1="0.762" y1="3.81" x2="0" y2="3.81" width="0.254" layer="94"/>
<wire x1="-0.762" y1="3.81" x2="-0.762" y2="-3.81" width="0.254" layer="94"/>
<wire x1="0.762" y1="-3.81" x2="0.762" y2="3.81" width="0.254" layer="94"/>
<wire x1="2.54" y1="0" x2="1.651" y2="0" width="0.1524" layer="94"/>
<wire x1="1.651" y1="0" x2="-2.54" y2="2.54" width="0.1524" layer="94"/>
<wire x1="-2.54" y1="2.54" x2="-1.778" y2="1.524" width="0.1524" layer="94"/>
<wire x1="-1.778" y1="1.524" x2="-1.27" y2="2.286" width="0.1524" layer="94"/>
<wire x1="-2.54" y1="2.54" x2="-1.27" y2="2.286" width="0.1524" layer="94"/>
<wire x1="0" y1="3.81" x2="0" y2="5.08" width="0.1524" layer="94"/>
<wire x1="0" y1="3.81" x2="-0.762" y2="3.81" width="0.254" layer="94"/>
<wire x1="0" y1="-5.08" x2="0" y2="-3.81" width="0.1524" layer="94"/>
<wire x1="0" y1="-3.81" x2="0.762" y2="-3.81" width="0.254" layer="94"/>
</symbol>
</symbols>
<devicesets>
<deviceset name="POT" prefix="P">
<description>&lt;b&gt;POTENTIOMENTER&lt;/b&gt;</description>
<gates>
<gate name="G$1" symbol="POTI" x="0" y="0"/>
</gates>
<devices>
<device name="">
<technologies>
<technology name=""/>
</technologies>
</device>
</devices>
</deviceset>
</devicesets>
</library>
</libraries>
<attributes>
</attributes>
<variantdefs>
</variantdefs>
<classes>
<class number="0" name="default" width="0" drill="0">
</class>
</classes>
<parts>
<part name="P1" library="docu-dummy" deviceset="POT" device=""/>
</parts>
<sheets>
<sheet>
<plain>
<wire x1="15.24" y1="22.86" x2="15.24" y2="-10.16" width="0.1524" layer="94"/>
<text x="6.096" y="11.938" size="1.778" layer="97">10-20k</text>
</plain>
<instances>
<instance part="P1" gate="G$1" x="5.08" y="7.62"/>
</instances>
<busses>
</busses>
<nets>
<net name="GND" class="0">
<segment>
<wire x1="7.62" y1="7.62" x2="10.16" y2="7.62" width="0.1524" layer="91"/>
<wire x1="10.16" y1="7.62" x2="10.16" y2="2.54" width="0.1524" layer="91"/>
<wire x1="10.16" y1="2.54" x2="5.08" y2="2.54" width="0.1524" layer="91"/>
<wire x1="5.08" y1="2.54" x2="5.08" y2="0" width="0.1524" layer="91"/>
<wire x1="5.08" y1="0" x2="17.78" y2="0" width="0.1524" layer="91"/>
<label x="17.78" y="0" size="1.778" layer="95" xref="yes"/>
</segment>
</net>
<net name="INP_0" class="0">
<segment>
<wire x1="5.08" y1="12.7" x2="5.08" y2="15.24" width="0.1524" layer="91"/>
<wire x1="5.08" y1="15.24" x2="17.78" y2="15.24" width="0.1524" layer="91"/>
<label x="17.78" y="15.24" size="1.778" layer="95" xref="yes"/>
</segment>
</net>
</nets>
</sheet>
</sheets>
</schematic>
</drawing>
</eagle>
