<?xml version="1.0" encoding="UTF-8" standalone="no"?>
<!-- Created with Inkscape (http://www.inkscape.org/) -->

<svg
   xmlns:dc="http://purl.org/dc/elements/1.1/"
   xmlns:cc="http://creativecommons.org/ns#"
   xmlns:rdf="http://www.w3.org/1999/02/22-rdf-syntax-ns#"
   xmlns:svg="http://www.w3.org/2000/svg"
   xmlns="http://www.w3.org/2000/svg"
   xmlns:sodipodi="http://sodipodi.sourceforge.net/DTD/sodipodi-0.dtd"
   xmlns:inkscape="http://www.inkscape.org/namespaces/inkscape"
   width="579.89648"
   height="109.90624"
   id="svg2"
   version="1.1"
   inkscape:version="0.48.3.1 r9886"
   sodipodi:docname="ground_loop_1.svg">
  <defs
     id="defs4" />
  <sodipodi:namedview
     id="base"
     pagecolor="#ffffff"
     bordercolor="#666666"
     borderopacity="1.0"
     inkscape:pageopacity="0.0"
     inkscape:pageshadow="2"
     inkscape:zoom="1.979899"
     inkscape:cx="275.55741"
     inkscape:cy="55.911594"
     inkscape:document-units="px"
     inkscape:current-layer="layer1"
     showgrid="true"
     inkscape:window-width="1280"
     inkscape:window-height="738"
     inkscape:window-x="-2"
     inkscape:window-y="39"
     inkscape:window-maximized="1"
     fit-margin-top="0"
     fit-margin-left="0"
     fit-margin-right="0"
     fit-margin-bottom="0">
    <inkscape:grid
       type="xygrid"
       id="grid2993"
       empspacing="5"
       visible="true"
       enabled="true"
       snapvisiblegridlinesonly="true"
       originx="-60.363281px"
       originy="-839.51368px" />
  </sodipodi:namedview>
  <metadata
     id="metadata7">
    <rdf:RDF>
      <cc:Work
         rdf:about="">
        <dc:format>image/svg+xml</dc:format>
        <dc:type
           rdf:resource="http://purl.org/dc/dcmitype/StillImage" />
        <dc:title></dc:title>
      </cc:Work>
    </rdf:RDF>
  </metadata>
  <g
     inkscape:label="Layer 1"
     inkscape:groupmode="layer"
     id="layer1"
     transform="translate(-60.363281,-102.94226)">
    <g
       id="g3042">
      <rect
         y="127.36218"
         x="130"
         height="70"
         width="125"
         id="rect2987"
         style="color:#000000;fill:none;stroke:#000000;stroke-width:1.93919957;stroke-linecap:round;stroke-linejoin:miter;stroke-miterlimit:4;stroke-opacity:1;stroke-dasharray:none;stroke-dashoffset:0;marker:none;visibility:visible;display:inline;overflow:visible;enable-background:accumulate" />
      <text
         sodipodi:linespacing="125%"
         id="text2989"
         y="117.36218"
         x="135"
         style="font-size:40px;font-style:normal;font-variant:normal;font-weight:normal;font-stretch:normal;line-height:125%;letter-spacing:0px;word-spacing:0px;fill:#000000;fill-opacity:1;stroke:none;font-family:AmarilloUSAF;-inkscape-font-specification:AmarilloUSAF"
         xml:space="preserve"><tspan
           style="font-size:13px;font-style:normal;font-variant:normal;font-weight:normal;font-stretch:normal;font-family:Liberation Sans;-inkscape-font-specification:Liberation Sans"
           y="117.36218"
           x="135"
           id="tspan2991"
           sodipodi:role="line">Compact Crossover</tspan></text>
      <text
         sodipodi:linespacing="125%"
         id="text2995"
         y="142.36218"
         x="135"
         style="font-size:8px;font-style:normal;font-variant:normal;font-weight:bold;font-stretch:normal;line-height:125%;letter-spacing:0px;word-spacing:0px;fill:#000000;fill-opacity:1;stroke:none;font-family:liberation sans;-inkscape-font-specification:liberation sans"
         xml:space="preserve"><tspan
           y="142.36218"
           x="135"
           id="tspan2997"
           sodipodi:role="line">PWR Input</tspan></text>
      <text
         sodipodi:linespacing="125%"
         id="text2999"
         y="187.36218"
         x="139"
         style="font-size:8px;font-style:normal;font-variant:normal;font-weight:bold;font-stretch:normal;line-height:125%;letter-spacing:0px;word-spacing:0px;fill:#000000;fill-opacity:1;stroke:none;font-family:liberation sans;-inkscape-font-specification:liberation sans"
         xml:space="preserve"><tspan
           y="187.36218"
           x="139"
           id="tspan3001"
           sodipodi:role="line">PWR Ground</tspan></text>
      <text
         sodipodi:linespacing="125%"
         id="text3003"
         y="157.36218"
         x="135"
         style="font-size:8px;font-style:normal;font-variant:normal;font-weight:bold;font-stretch:normal;line-height:125%;letter-spacing:0px;word-spacing:0px;fill:#000000;fill-opacity:1;stroke:none;font-family:liberation sans;-inkscape-font-specification:liberation sans"
         xml:space="preserve"><tspan
           y="157.36218"
           x="135"
           id="tspan3005"
           sodipodi:role="line">Signal Input</tspan></text>
      <text
         sodipodi:linespacing="125%"
         id="text3007"
         y="172.36218"
         x="139"
         style="font-size:8px;font-style:normal;font-variant:normal;font-weight:bold;font-stretch:normal;line-height:125%;letter-spacing:0px;word-spacing:0px;fill:#000000;fill-opacity:1;stroke:none;font-family:liberation sans;-inkscape-font-specification:liberation sans"
         xml:space="preserve"><tspan
           y="172.36218"
           x="139"
           id="tspan3009"
           sodipodi:role="line">Signal Ground</tspan></text>
      <text
         sodipodi:linespacing="125%"
         id="text3011"
         y="142.36218"
         x="250"
         style="font-size:8px;font-style:normal;font-variant:normal;font-weight:bold;font-stretch:normal;text-align:end;line-height:125%;letter-spacing:0px;word-spacing:0px;writing-mode:lr-tb;text-anchor:end;fill:#000000;fill-opacity:1;stroke:none;font-family:liberation sans;-inkscape-font-specification:liberation sans"
         xml:space="preserve"><tspan
           y="142.36218"
           x="250"
           id="tspan3013"
           sodipodi:role="line">Low Out</tspan></text>
      <text
         sodipodi:linespacing="125%"
         id="text3015"
         y="157.36218"
         x="250"
         style="font-size:8px;font-style:normal;font-variant:normal;font-weight:bold;font-stretch:normal;text-align:end;line-height:125%;letter-spacing:0px;word-spacing:0px;writing-mode:lr-tb;text-anchor:end;fill:#000000;fill-opacity:1;stroke:none;font-family:liberation sans;-inkscape-font-specification:liberation sans"
         xml:space="preserve"><tspan
           y="157.36218"
           x="250"
           id="tspan3017"
           sodipodi:role="line">High Out</tspan></text>
      <text
         sodipodi:linespacing="125%"
         id="text3019"
         y="172.36218"
         x="250"
         style="font-size:8px;font-style:normal;font-variant:normal;font-weight:bold;font-stretch:normal;text-align:end;line-height:125%;letter-spacing:0px;word-spacing:0px;writing-mode:lr-tb;text-anchor:end;fill:#000000;fill-opacity:1;stroke:none;font-family:liberation sans;-inkscape-font-specification:liberation sans"
         xml:space="preserve"><tspan
           y="172.36218"
           x="250"
           id="tspan3021"
           sodipodi:role="line">Signal Ground</tspan></text>
      <path
         style="fill:none;stroke:#ff0000;stroke-width:1px;stroke-linecap:butt;stroke-linejoin:miter;stroke-opacity:1"
         d="m 69.636719,69.419922 5,0 0,15 -5,0"
         id="path4442"
         inkscape:connector-curvature="0"
         transform="translate(60.363281,102.94226)" />
    </g>
    <path
       style="fill:none;stroke:#000000;stroke-width:1px;stroke-linecap:butt;stroke-linejoin:miter;stroke-opacity:1"
       d="m 130,157.36218 -40,0"
       id="path3080"
       inkscape:connector-curvature="0" />
    <path
       style="fill:none;stroke:#000000;stroke-width:1px;stroke-linecap:butt;stroke-linejoin:miter;stroke-opacity:1"
       d="m 130,172.36218 -40,0"
       id="path3082"
       inkscape:connector-curvature="0" />
    <path
       style="fill:none;stroke:#000000;stroke-width:1px;stroke-linecap:butt;stroke-linejoin:miter;stroke-opacity:1"
       d="m 130,142.36218 -15,0 0,-15"
       id="path3084"
       inkscape:connector-curvature="0" />
    <path
       style="fill:none;stroke:#000000;stroke-width:1px;stroke-linecap:butt;stroke-linejoin:miter;stroke-opacity:1"
       d="m 130,187.36218 -15,0"
       id="path3086"
       inkscape:connector-curvature="0" />
    <path
       style="fill:none;stroke:#000000;stroke-width:1px;stroke-linecap:butt;stroke-linejoin:miter;stroke-opacity:1"
       d="m 115,202.36218 0,-15"
       id="path3088"
       inkscape:connector-curvature="0" />
    <text
       xml:space="preserve"
       style="font-size:8px;font-style:normal;font-variant:normal;font-weight:normal;font-stretch:normal;line-height:125%;letter-spacing:0px;word-spacing:0px;fill:#000000;fill-opacity:1;stroke:none;font-family:Liberation Sans;-inkscape-font-specification:Liberation Sans"
       x="60"
       y="167.36218"
       id="text3090"
       sodipodi:linespacing="125%"><tspan
         sodipodi:role="line"
         id="tspan3092"
         x="60"
         y="167.36218">Signal Input</tspan></text>
    <text
       xml:space="preserve"
       style="font-size:8px;font-style:normal;font-variant:normal;font-weight:normal;font-stretch:normal;line-height:125%;letter-spacing:0px;word-spacing:0px;fill:#000000;fill-opacity:1;stroke:none;font-family:Liberation Sans;-inkscape-font-specification:Liberation Sans"
       x="110"
       y="122.36218"
       id="text3094"
       sodipodi:linespacing="125%"><tspan
         sodipodi:role="line"
         id="tspan3096"
         x="110"
         y="122.36218">V+</tspan></text>
    <g
       transform="translate(205,0)"
       id="g3042-3">
      <rect
         y="127.36218"
         x="130"
         height="70"
         width="125"
         id="rect2987-1"
         style="color:#000000;fill:none;stroke:#000000;stroke-width:1.93919957;stroke-linecap:round;stroke-linejoin:miter;stroke-miterlimit:4;stroke-opacity:1;stroke-dasharray:none;stroke-dashoffset:0;marker:none;visibility:visible;display:inline;overflow:visible;enable-background:accumulate" />
      <text
         sodipodi:linespacing="125%"
         id="text2989-8"
         y="117.36218"
         x="150"
         style="font-size:40px;font-style:normal;font-variant:normal;font-weight:normal;font-stretch:normal;line-height:125%;letter-spacing:0px;word-spacing:0px;fill:#000000;fill-opacity:1;stroke:none;font-family:AmarilloUSAF;-inkscape-font-specification:AmarilloUSAF"
         xml:space="preserve"><tspan
           style="font-size:13px;font-style:normal;font-variant:normal;font-weight:normal;font-stretch:normal;font-family:Liberation Sans;-inkscape-font-specification:Liberation Sans"
           y="117.36218"
           x="150"
           id="tspan2991-5"
           sodipodi:role="line">Power Amplifier</tspan></text>
      <text
         sodipodi:linespacing="125%"
         id="text2995-8"
         y="142.36218"
         x="135"
         style="font-size:8px;font-style:normal;font-variant:normal;font-weight:bold;font-stretch:normal;line-height:125%;letter-spacing:0px;word-spacing:0px;fill:#000000;fill-opacity:1;stroke:none;font-family:liberation sans;-inkscape-font-specification:liberation sans"
         xml:space="preserve"><tspan
           y="142.36218"
           x="135"
           id="tspan2997-0"
           sodipodi:role="line">PWR Input</tspan></text>
      <text
         sodipodi:linespacing="125%"
         id="text2999-1"
         y="187.36218"
         x="149"
         style="font-size:8px;font-style:normal;font-variant:normal;font-weight:bold;font-stretch:normal;line-height:125%;letter-spacing:0px;word-spacing:0px;fill:#000000;fill-opacity:1;stroke:none;font-family:liberation sans;-inkscape-font-specification:liberation sans"
         xml:space="preserve"><tspan
           y="187.36218"
           x="149"
           id="tspan3001-2"
           sodipodi:role="line">PWR Ground</tspan></text>
      <text
         sodipodi:linespacing="125%"
         id="text3003-3"
         y="157.36218"
         x="135"
         style="font-size:8px;font-style:normal;font-variant:normal;font-weight:bold;font-stretch:normal;line-height:125%;letter-spacing:0px;word-spacing:0px;fill:#000000;fill-opacity:1;stroke:none;font-family:liberation sans;-inkscape-font-specification:liberation sans"
         xml:space="preserve"><tspan
           y="157.36218"
           x="135"
           id="tspan3005-7"
           sodipodi:role="line">Signal Input</tspan></text>
      <text
         sodipodi:linespacing="125%"
         id="text3007-4"
         y="172.36218"
         x="149"
         style="font-size:8px;font-style:normal;font-variant:normal;font-weight:bold;font-stretch:normal;line-height:125%;letter-spacing:0px;word-spacing:0px;fill:#000000;fill-opacity:1;stroke:none;font-family:liberation sans;-inkscape-font-specification:liberation sans"
         xml:space="preserve"><tspan
           y="172.36218"
           x="149"
           id="tspan3009-1"
           sodipodi:role="line">Signal Ground</tspan></text>
      <text
         sodipodi:linespacing="125%"
         id="text3015-1"
         y="157.36218"
         x="250"
         style="font-size:8px;font-style:normal;font-variant:normal;font-weight:bold;font-stretch:normal;text-align:end;line-height:125%;letter-spacing:0px;word-spacing:0px;writing-mode:lr-tb;text-anchor:end;fill:#000000;fill-opacity:1;stroke:none;font-family:liberation sans;-inkscape-font-specification:liberation sans"
         xml:space="preserve"><tspan
           y="157.36218"
           x="250"
           id="tspan3017-9"
           sodipodi:role="line">Speaker -</tspan></text>
      <text
         sodipodi:linespacing="125%"
         id="text3019-6"
         y="172.36218"
         x="250"
         style="font-size:8px;font-style:normal;font-variant:normal;font-weight:bold;font-stretch:normal;text-align:end;line-height:125%;letter-spacing:0px;word-spacing:0px;writing-mode:lr-tb;text-anchor:end;fill:#000000;fill-opacity:1;stroke:none;font-family:liberation sans;-inkscape-font-specification:liberation sans"
         xml:space="preserve"><tspan
           y="172.36218"
           x="250"
           id="tspan3021-8"
           sodipodi:role="line">Speaker +</tspan></text>
      <path
         style="fill:none;stroke:#000000;stroke-width:1px;stroke-linecap:butt;stroke-linejoin:miter;stroke-opacity:1"
         d="m 274.63672,59.419927 10,0"
         id="path4403"
         inkscape:connector-curvature="0"
         transform="translate(-144.63672,107.94226)" />
      <path
         style="fill:none;stroke:#000000;stroke-width:1px;stroke-linecap:butt;stroke-linejoin:miter;stroke-opacity:1"
         d="m 284.63672,59.419927 0,15 -10,0"
         id="path4405"
         inkscape:connector-curvature="0"
         transform="translate(-144.63672,107.94226)" />
      <text
         xml:space="preserve"
         style="font-size:8px;font-style:normal;font-variant:normal;font-weight:normal;font-stretch:normal;line-height:125%;letter-spacing:0px;word-spacing:0px;fill:#000000;fill-opacity:1;stroke:none;font-family:Liberation Sans;-inkscape-font-specification:Liberation Sans"
         x="611.42859"
         y="21.640903"
         id="text4407"
         sodipodi:linespacing="125%"
         transform="translate(-144.63672,107.94226)"><tspan
           sodipodi:role="line"
           id="tspan4409"
           x="611.42859"
           y="21.640903" /></text>
    </g>
    <path
       style="fill:none;stroke:#000000;stroke-width:1px;stroke-linecap:butt;stroke-linejoin:miter;stroke-opacity:1"
       d="m 335,152.36218 -40,0"
       id="path3080-2"
       inkscape:connector-curvature="0" />
    <path
       style="fill:none;stroke:#000000;stroke-width:1px;stroke-linecap:butt;stroke-linejoin:miter;stroke-opacity:1"
       d="m 335,167.36218 -40,0"
       id="path3082-8"
       inkscape:connector-curvature="0" />
    <path
       style="fill:none;stroke:#000000;stroke-width:1px;stroke-linecap:butt;stroke-linejoin:miter;stroke-opacity:1"
       d="m 335,137.36218 -15,0 0,-15"
       id="path3084-6"
       inkscape:connector-curvature="0" />
    <path
       style="fill:none;stroke:#000000;stroke-width:1px;stroke-linecap:butt;stroke-linejoin:miter;stroke-opacity:1"
       d="m 335,182.36218 -15,0"
       id="path3086-0"
       inkscape:connector-curvature="0" />
    <path
       style="fill:none;stroke:#000000;stroke-width:1px;stroke-linecap:butt;stroke-linejoin:miter;stroke-opacity:1"
       d="m 320,197.36218 0,-15"
       id="path3088-4"
       inkscape:connector-curvature="0" />
    <text
       xml:space="preserve"
       style="font-size:8px;font-style:normal;font-variant:normal;font-weight:normal;font-stretch:normal;line-height:125%;letter-spacing:0px;word-spacing:0px;fill:#000000;fill-opacity:1;stroke:none;font-family:Liberation Sans;-inkscape-font-specification:Liberation Sans"
       x="315"
       y="117.36218"
       id="text3094-7"
       sodipodi:linespacing="125%"><tspan
         sodipodi:role="line"
         id="tspan3096-1"
         x="315"
         y="117.36218">V+</tspan></text>
    <path
       style="fill:none;stroke:#000000;stroke-width:1px;stroke-linecap:butt;stroke-linejoin:miter;stroke-opacity:1"
       d="m 295,167.36218 -40,0"
       id="path3267"
       inkscape:connector-curvature="0" />
    <path
       style="fill:none;stroke:#000000;stroke-width:1px;stroke-linecap:butt;stroke-linejoin:miter;stroke-opacity:1"
       d="m 295,152.36218 -40,0"
       id="path3269"
       inkscape:connector-curvature="0" />
    <path
       style="fill:none;stroke:#000000;stroke-width:1px;stroke-linecap:butt;stroke-linejoin:miter;stroke-opacity:1"
       d="m 460,152.36218 20,0 0,20"
       id="path3271"
       inkscape:connector-curvature="0" />
    <path
       style="fill:none;stroke:#000000;stroke-width:1px;stroke-linecap:butt;stroke-linejoin:miter;stroke-opacity:1"
       d="m 480,172.36218 -20,0"
       id="path3275"
       inkscape:connector-curvature="0" />
    <path
       style="fill:none;stroke:#000000;stroke-width:1px;stroke-linecap:butt;stroke-linejoin:miter;stroke-opacity:1"
       d="m 475,157.36218 5,0"
       id="path3277"
       inkscape:connector-curvature="0" />
    <path
       style="fill:none;stroke:#000000;stroke-width:1px;stroke-linecap:butt;stroke-linejoin:miter;stroke-opacity:1"
       d="m 475,157.36218 0,10"
       id="path3279"
       inkscape:connector-curvature="0" />
    <path
       style="fill:none;stroke:#000000;stroke-width:1px;stroke-linecap:butt;stroke-linejoin:miter;stroke-opacity:1"
       d="m 480,167.36218 -5,0"
       id="path3281"
       inkscape:connector-curvature="0" />
    <path
       style="fill:none;stroke:#000000;stroke-width:1px;stroke-linecap:butt;stroke-linejoin:miter;stroke-opacity:1"
       d="m 480,157.36218 15,-10"
       id="path3283"
       inkscape:connector-curvature="0" />
    <path
       style="fill:none;stroke:#000000;stroke-width:1px;stroke-linecap:butt;stroke-linejoin:miter;stroke-opacity:1"
       d="m 480,167.36218 15,10"
       id="path3285"
       inkscape:connector-curvature="0" />
    <path
       style="fill:none;stroke:#000000;stroke-width:1px;stroke-linecap:butt;stroke-linejoin:miter;stroke-opacity:1"
       d="m 495,147.36218 0,30"
       id="path3287"
       inkscape:connector-curvature="0" />
    <text
       xml:space="preserve"
       style="font-size:8px;font-style:normal;font-variant:normal;font-weight:normal;font-stretch:normal;line-height:125%;letter-spacing:0px;word-spacing:0px;fill:#000000;fill-opacity:1;stroke:none;font-family:Liberation Sans;-inkscape-font-specification:Liberation Sans"
       x="505"
       y="162.36218"
       id="text3289"
       sodipodi:linespacing="125%"><tspan
         sodipodi:role="line"
         id="tspan3291"
         x="505"
         y="162.36218">Speaker</tspan></text>
    <g
       id="g4317"
       transform="translate(-15,-4.218748e-8)">
      <g
         id="g3042-0"
         transform="translate(425,-4.9999957)">
        <rect
           style="color:#000000;fill:none;stroke:#000000;stroke-width:1.93919945;stroke-linecap:round;stroke-linejoin:miter;stroke-miterlimit:4;stroke-opacity:1;stroke-dasharray:none;stroke-dashoffset:0;marker:none;visibility:visible;display:inline;overflow:visible;enable-background:accumulate"
           id="rect2987-8"
           width="65"
           height="70"
           x="155"
           y="127.36218" />
        <text
           xml:space="preserve"
           style="font-size:40px;font-style:normal;font-variant:normal;font-weight:normal;font-stretch:normal;line-height:125%;letter-spacing:0px;word-spacing:0px;fill:#000000;fill-opacity:1;stroke:none;font-family:AmarilloUSAF;-inkscape-font-specification:AmarilloUSAF"
           x="150"
           y="117.36218"
           id="text2989-7"
           sodipodi:linespacing="125%"><tspan
             sodipodi:role="line"
             id="tspan2991-4"
             x="150"
             y="117.36218"
             style="font-size:13px;font-style:normal;font-variant:normal;font-weight:normal;font-stretch:normal;font-family:Liberation Sans;-inkscape-font-specification:Liberation Sans">Power Supply</tspan></text>
        <text
           xml:space="preserve"
           style="font-size:8px;font-style:normal;font-variant:normal;font-weight:bold;font-stretch:normal;line-height:125%;letter-spacing:0px;word-spacing:0px;fill:#000000;fill-opacity:1;stroke:none;font-family:liberation sans;-inkscape-font-specification:liberation sans"
           x="160"
           y="142.36218"
           id="text2995-5"
           sodipodi:linespacing="125%"><tspan
             sodipodi:role="line"
             id="tspan2997-8"
             x="160"
             y="142.36218">PWR Out</tspan></text>
        <text
           xml:space="preserve"
           style="font-size:8px;font-style:normal;font-variant:normal;font-weight:bold;font-stretch:normal;line-height:125%;letter-spacing:0px;word-spacing:0px;fill:#000000;fill-opacity:1;stroke:none;font-family:liberation sans;-inkscape-font-specification:liberation sans"
           x="160"
           y="187.36218"
           id="text2999-0"
           sodipodi:linespacing="125%"><tspan
             sodipodi:role="line"
             id="tspan3001-1"
             x="160"
             y="187.36218">PWR Ground</tspan></text>
      </g>
      <path
         inkscape:connector-curvature="0"
         id="path3084-4"
         d="m 580,132.36218 -15,0 0,-15"
         style="fill:none;stroke:#000000;stroke-width:1px;stroke-linecap:butt;stroke-linejoin:miter;stroke-opacity:1" />
      <path
         inkscape:connector-curvature="0"
         id="path3086-5"
         d="m 580,177.36218 -15,0"
         style="fill:none;stroke:#000000;stroke-width:1px;stroke-linecap:butt;stroke-linejoin:miter;stroke-opacity:1" />
      <path
         inkscape:connector-curvature="0"
         id="path3088-9"
         d="m 565,192.36218 0,-15"
         style="fill:none;stroke:#000000;stroke-width:1px;stroke-linecap:butt;stroke-linejoin:miter;stroke-opacity:1" />
      <text
         sodipodi:linespacing="125%"
         id="text3094-3"
         y="112.36219"
         x="560"
         style="font-size:8px;font-style:normal;font-variant:normal;font-weight:normal;font-stretch:normal;line-height:125%;letter-spacing:0px;word-spacing:0px;fill:#000000;fill-opacity:1;stroke:none;font-family:Liberation Sans;-inkscape-font-specification:Liberation Sans"
         xml:space="preserve"><tspan
           y="112.36219"
           x="560"
           id="tspan3096-0"
           sodipodi:role="line">V+</tspan></text>
      <path
         style="fill:none;stroke:#000000;stroke-width:1px;stroke-linecap:butt;stroke-linejoin:miter;stroke-opacity:1"
         d="m 54.636719,94.419927 0,10.000003 435.000001,0 0,-20.000003"
         id="path4399"
         inkscape:connector-curvature="0"
         transform="translate(75.363281,107.94226)" />
      <path
         style="fill:none;stroke:#000000;stroke-width:1px;stroke-linecap:butt;stroke-linejoin:miter;stroke-opacity:1"
         d="m 259.63672,89.419927 0,15.000003"
         id="path4401"
         inkscape:connector-curvature="0"
         transform="translate(75.363281,107.94226)" />
    </g>
    <path
       style="fill:none;stroke:#000000;stroke-width:1px;stroke-linecap:butt;stroke-linejoin:miter;stroke-opacity:1"
       d="m 194.63672,29.419927 10,0"
       id="path4340"
       inkscape:connector-curvature="0"
       transform="translate(60.363281,107.94226)" />
    <path
       style="color:#000000;fill:none;stroke:#000000;stroke-width:1px;stroke-linecap:butt;stroke-linejoin:miter;stroke-miterlimit:4;stroke-opacity:1;stroke-dasharray:none;stroke-dashoffset:0;marker:none;visibility:visible;display:inline;overflow:visible;enable-background:accumulate"
       d="m 268,137.36219 3,0"
       id="path4342"
       inkscape:connector-curvature="0" />
    <path
       style="color:#000000;fill:none;stroke:#000000;stroke-width:1px;stroke-linecap:butt;stroke-linejoin:miter;stroke-miterlimit:4;stroke-opacity:1;stroke-dasharray:none;stroke-dashoffset:0;marker:none;visibility:visible;display:inline;overflow:visible;enable-background:accumulate"
       d="m 274,137.36219 3,0"
       id="path4342-3"
       inkscape:connector-curvature="0" />
    <path
       style="color:#000000;fill:none;stroke:#000000;stroke-width:1px;stroke-linecap:butt;stroke-linejoin:miter;stroke-miterlimit:4;stroke-opacity:1;stroke-dasharray:none;stroke-dashoffset:0;marker:none;visibility:visible;display:inline;overflow:visible;enable-background:accumulate"
       d="m 280,137.36219 3,0"
       id="path4342-3-4"
       inkscape:connector-curvature="0" />
    <path
       style="fill:none;stroke:#000000;stroke-width:1px;stroke-linecap:butt;stroke-linejoin:miter;stroke-opacity:1"
       d="m 254.63672,24.419922 5,5 5,-5"
       id="path4411"
       inkscape:connector-curvature="0"
       transform="translate(60.363281,102.94226)" />
    <text
       xml:space="preserve"
       style="font-size:8px;font-style:normal;font-variant:normal;font-weight:normal;font-stretch:normal;line-height:125%;letter-spacing:0px;word-spacing:0px;fill:#000000;fill-opacity:1;stroke:none;font-family:Liberation Sans;-inkscape-font-specification:Liberation Sans"
       x="305"
       y="132.36218"
       id="text4413"
       sodipodi:linespacing="125%"><tspan
         sodipodi:role="line"
         id="tspan4415"
         x="305"
         y="132.36218">i1</tspan></text>
    <path
       style="fill:none;stroke:#000000;stroke-width:1px;stroke-linecap:butt;stroke-linejoin:miter;stroke-opacity:1"
       d="m 254.63672,94.419922 5,5 5,-5"
       id="path4417"
       inkscape:connector-curvature="0"
       transform="translate(60.363281,102.94226)" />
    <text
       xml:space="preserve"
       style="font-size:8px;font-style:normal;font-variant:normal;font-weight:normal;font-stretch:normal;line-height:125%;letter-spacing:0px;word-spacing:0px;fill:#000000;fill-opacity:1;stroke:none;font-family:Liberation Sans;-inkscape-font-specification:Liberation Sans"
       x="305"
       y="202.36218"
       id="text4419"
       sodipodi:linespacing="125%"><tspan
         sodipodi:role="line"
         id="tspan4421"
         x="305"
         y="202.36218">i2</tspan></text>
    <path
       style="fill:none;stroke:#000000;stroke-width:1px;stroke-linecap:butt;stroke-linejoin:miter;stroke-opacity:1"
       d="m 214.63672,59.419922 -5,5 5,5"
       id="path4444"
       inkscape:connector-curvature="0"
       transform="translate(60.363281,102.94226)" />
    <text
       xml:space="preserve"
       style="font-size:8px;font-style:normal;font-variant:normal;font-weight:normal;font-stretch:normal;line-height:125%;letter-spacing:0px;word-spacing:0px;fill:#000000;fill-opacity:1;stroke:none;font-family:Liberation Sans;-inkscape-font-specification:Liberation Sans"
       x="275"
       y="177.36218"
       id="text4446"
       sodipodi:linespacing="125%"><tspan
         sodipodi:role="line"
         id="tspan4448"
         x="275"
         y="177.36218">i3=i1-i2</tspan></text>
    <path
       style="fill:none;stroke:#000000;stroke-width:1px;stroke-linecap:butt;stroke-linejoin:miter;stroke-opacity:1"
       d="m 54.636719,34.419922 -5,-5"
       id="path4450"
       inkscape:connector-curvature="0"
       transform="translate(60.363281,102.94226)" />
    <path
       style="fill:none;stroke:#000000;stroke-width:1px;stroke-linecap:butt;stroke-linejoin:miter;stroke-opacity:1"
       d="m 54.636719,34.419922 5,-5"
       id="path4452"
       inkscape:connector-curvature="0"
       transform="translate(60.363281,102.94226)" />
    <text
       xml:space="preserve"
       style="font-size:8px;font-style:normal;font-variant:normal;font-weight:normal;font-stretch:normal;line-height:125%;letter-spacing:0px;word-spacing:0px;fill:#000000;fill-opacity:1;stroke:none;font-family:Liberation Sans;-inkscape-font-specification:Liberation Sans"
       x="100"
       y="137.36218"
       id="text4454"
       sodipodi:linespacing="125%"><tspan
         sodipodi:role="line"
         id="tspan4456"
         x="100"
         y="137.36218">i4</tspan></text>
    <path
       style="fill:none;stroke:#000000;stroke-width:1px;stroke-linecap:butt;stroke-linejoin:miter;stroke-opacity:1"
       d="m 49.636719,99.419922 5,4.999998 5,-4.999998"
       id="path4458"
       inkscape:connector-curvature="0"
       transform="translate(60.363281,102.94226)" />
    <text
       xml:space="preserve"
       style="font-size:8px;font-style:normal;font-variant:normal;font-weight:normal;font-stretch:normal;line-height:125%;letter-spacing:0px;word-spacing:0px;fill:#000000;fill-opacity:1;stroke:none;font-family:Liberation Sans;-inkscape-font-specification:Liberation Sans"
       x="64.464287"
       y="103.47767"
       id="text4460"
       sodipodi:linespacing="125%"
       transform="translate(60.363281,102.94226)"><tspan
         sodipodi:role="line"
         id="tspan4462"
         x="64.464287"
         y="103.47767">i5=i3+i4</tspan></text>
  </g>
</svg>
